\relax 
\providecommand\hyper@newdestlabel[2]{}
\providecommand\HyperFirstAtBeginDocument{\AtBeginDocument}
\HyperFirstAtBeginDocument{\ifx\hyper@anchor\@undefined
\global\let\oldcontentsline\contentsline
\gdef\contentsline#1#2#3#4{\oldcontentsline{#1}{#2}{#3}}
\global\let\oldnewlabel\newlabel
\gdef\newlabel#1#2{\newlabelxx{#1}#2}
\gdef\newlabelxx#1#2#3#4#5#6{\oldnewlabel{#1}{{#2}{#3}}}
\AtEndDocument{\ifx\hyper@anchor\@undefined
\let\contentsline\oldcontentsline
\let\newlabel\oldnewlabel
\fi}
\fi}
\global\let\hyper@last\relax 
\gdef\HyperFirstAtBeginDocument#1{#1}
\providecommand\HyField@AuxAddToFields[1]{}
\providecommand\HyField@AuxAddToCoFields[2]{}
\@writefile{toc}{\beamer@endinputifotherversion {3.26pt}}
\@writefile{nav}{\beamer@endinputifotherversion {3.26pt}}
\@writefile{nav}{\headcommand {\slideentry {0}{0}{1}{1/1}{}{0}}}
\@writefile{nav}{\headcommand {\beamer@framepages {1}{1}}}
\@writefile{toc}{\beamer@sectionintoc {1}{Introduction}{2}{0}{1}}
\@writefile{nav}{\headcommand {\sectionentry {1}{Introduction}{2}{Introduction}{0}}}
\@writefile{nav}{\headcommand {\beamer@sectionpages {1}{1}}}
\@writefile{nav}{\headcommand {\beamer@subsectionpages {1}{1}}}
\@writefile{toc}{\beamer@subsectionintoc {1}{1}{Motivation}{2}{0}{1}}
\@writefile{nav}{\headcommand {\beamer@subsectionentry {0}{1}{1}{2}{Motivation}}\headcommand {\beamer@subsectionpages {2}{1}}}
\@writefile{nav}{\headcommand {\slideentry {1}{1}{1}{2/3}{Motivation}{0}}}
\@writefile{nav}{\headcommand {\beamer@framepages {2}{3}}}
\@writefile{nav}{\headcommand {\slideentry {1}{1}{2}{4/5}{Motivation}{0}}}
\@writefile{nav}{\headcommand {\beamer@framepages {4}{5}}}
\@writefile{toc}{\beamer@sectionintoc {2}{Model}{6}{0}{2}}
\@writefile{nav}{\headcommand {\sectionentry {2}{Model}{6}{Model}{0}}}
\@writefile{nav}{\headcommand {\beamer@sectionpages {2}{5}}}
\@writefile{nav}{\headcommand {\beamer@subsectionpages {2}{5}}}
\@writefile{toc}{\beamer@subsectionintoc {2}{1}{Time-Harmonic Maxwell's Equations}{6}{0}{2}}
\@writefile{nav}{\headcommand {\beamer@subsectionentry {0}{2}{1}{6}{Time-Harmonic Maxwell's Equations}}\headcommand {\beamer@subsectionpages {6}{5}}}
\@writefile{nav}{\headcommand {\slideentry {2}{1}{1}{6/6}{Time-Harmonic Maxwell's Equations}{0}}}
\@writefile{nav}{\headcommand {\beamer@framepages {6}{6}}}
\@writefile{nav}{\headcommand {\slideentry {2}{1}{2}{7/7}{Time-Harmonic Maxwell's Equations}{0}}}
\@writefile{nav}{\headcommand {\beamer@framepages {7}{7}}}
\@writefile{toc}{\beamer@sectionintoc {3}{Kirchhoff's Approximation}{8}{0}{3}}
\@writefile{nav}{\headcommand {\sectionentry {3}{Kirchhoff's Approximation}{8}{Kirchhoff's Approximation}{0}}}
\@writefile{nav}{\headcommand {\beamer@sectionpages {6}{7}}}
\@writefile{nav}{\headcommand {\beamer@subsectionpages {6}{7}}}
\@writefile{toc}{\beamer@subsectionintoc {3}{1}{Kirchoff's Approximation}{8}{0}{3}}
\@writefile{nav}{\headcommand {\beamer@subsectionentry {0}{3}{1}{8}{Kirchoff's Approximation}}\headcommand {\beamer@subsectionpages {8}{7}}}
\@writefile{nav}{\headcommand {\slideentry {3}{1}{1}{8/8}{Kirchoff's Approximation}{0}}}
\@writefile{nav}{\headcommand {\beamer@framepages {8}{8}}}
\@writefile{toc}{\beamer@sectionintoc {4}{Domain Decomposition}{9}{0}{4}}
\@writefile{nav}{\headcommand {\sectionentry {4}{Domain Decomposition}{9}{Domain Decomposition}{0}}}
\@writefile{nav}{\headcommand {\beamer@sectionpages {8}{8}}}
\@writefile{nav}{\headcommand {\beamer@subsectionpages {8}{8}}}
\@writefile{toc}{\beamer@subsectionintoc {4}{1}{Iterative Substructuring Method}{9}{0}{4}}
\@writefile{nav}{\headcommand {\beamer@subsectionentry {0}{4}{1}{9}{Iterative Substructuring Method}}\headcommand {\beamer@subsectionpages {9}{8}}}
\@writefile{nav}{\headcommand {\slideentry {4}{1}{1}{9/10}{Iterative Substructuring Method}{0}}}
\@writefile{nav}{\headcommand {\beamer@framepages {9}{10}}}
\@writefile{nav}{\headcommand {\slideentry {4}{1}{2}{11/12}{Iterative Substructuring Method}{0}}}
\@writefile{nav}{\headcommand {\beamer@framepages {11}{12}}}
\@writefile{nav}{\headcommand {\slideentry {4}{1}{3}{13/15}{Iterative Substructuring Method}{0}}}
\@writefile{nav}{\headcommand {\beamer@framepages {13}{15}}}
\@writefile{nav}{\headcommand {\slideentry {4}{1}{4}{16/17}{Iterative Substructuring Method}{0}}}
\@writefile{nav}{\headcommand {\beamer@framepages {16}{17}}}
\@writefile{toc}{\beamer@sectionintoc {5}{Finite Difference Frequency Domain}{18}{0}{5}}
\@writefile{nav}{\headcommand {\sectionentry {5}{Finite Difference Frequency Domain}{18}{Finite Difference Frequency Domain}{0}}}
\@writefile{nav}{\headcommand {\beamer@sectionpages {9}{17}}}
\@writefile{nav}{\headcommand {\beamer@subsectionpages {9}{17}}}
\@writefile{toc}{\beamer@subsectionintoc {5}{1}{FDFD}{18}{0}{5}}
\@writefile{nav}{\headcommand {\beamer@subsectionentry {0}{5}{1}{18}{FDFD}}\headcommand {\beamer@subsectionpages {18}{17}}}
\@writefile{nav}{\headcommand {\slideentry {5}{1}{1}{18/18}{FDFD}{0}}}
\@writefile{nav}{\headcommand {\beamer@framepages {18}{18}}}
\@writefile{toc}{\beamer@sectionintoc {6}{Multigrid}{19}{0}{6}}
\@writefile{nav}{\headcommand {\sectionentry {6}{Multigrid}{19}{Multigrid}{0}}}
\@writefile{nav}{\headcommand {\beamer@sectionpages {18}{18}}}
\@writefile{nav}{\headcommand {\beamer@subsectionpages {18}{18}}}
\@writefile{toc}{\beamer@subsectionintoc {6}{1}{Multigrid}{19}{0}{6}}
\@writefile{nav}{\headcommand {\beamer@subsectionentry {0}{6}{1}{19}{Multigrid}}\headcommand {\beamer@subsectionpages {19}{18}}}
\@writefile{nav}{\headcommand {\slideentry {6}{1}{1}{19/21}{Multigrid}{0}}}
\@writefile{nav}{\headcommand {\beamer@framepages {19}{21}}}
\@writefile{toc}{\beamer@sectionintoc {7}{Conclusion}{22}{0}{7}}
\@writefile{nav}{\headcommand {\sectionentry {7}{Conclusion}{22}{Conclusion}{0}}}
\@writefile{nav}{\headcommand {\beamer@sectionpages {19}{21}}}
\@writefile{nav}{\headcommand {\beamer@subsectionpages {19}{21}}}
\@writefile{toc}{\beamer@subsectionintoc {7}{1}{Conclusion}{22}{0}{7}}
\@writefile{nav}{\headcommand {\beamer@subsectionentry {0}{7}{1}{22}{Conclusion}}\headcommand {\beamer@subsectionpages {22}{21}}}
\@writefile{nav}{\headcommand {\slideentry {7}{1}{1}{22/22}{Conclusion}{0}}}
\@writefile{nav}{\headcommand {\beamer@framepages {22}{22}}}
\@writefile{nav}{\headcommand {\beamer@partpages {1}{22}}}
\@writefile{nav}{\headcommand {\beamer@subsectionpages {22}{22}}}
\@writefile{nav}{\headcommand {\beamer@sectionpages {22}{22}}}
\@writefile{nav}{\headcommand {\beamer@documentpages {22}}}
\@writefile{nav}{\headcommand {\def \inserttotalframenumber {13}}}
