\BOOKMARK [2][]{Outline0.1}{Motivation}{}% 1
\BOOKMARK [3][]{Outline0.1.1.2}{Motivation}{Outline0.1}% 2
\BOOKMARK [2][]{Outline0.2}{Model}{}% 3
\BOOKMARK [3][]{Outline0.2.1.7}{Time-Harmonic Maxwell's Equations}{Outline0.2}% 4
\BOOKMARK [2][]{Outline0.3}{Perfectly Matched Layer}{}% 5
\BOOKMARK [3][]{Outline0.3.1.12}{Perfectly Matched Layer}{Outline0.3}% 6
\BOOKMARK [2][]{Outline0.4}{Finite Difference Frequency Domain}{}% 7
\BOOKMARK [3][]{Outline0.4.1.16}{Finite Difference Frequency Domain}{Outline0.4}% 8
\BOOKMARK [2][]{Outline0.5}{Conclusion}{}% 9
\BOOKMARK [3][]{Outline0.5.1.31}{Conclusion}{Outline0.5}% 10
