<?xml version="1.0" encoding="UTF-8" standalone="no"?>
<!-- Created with Inkscape (http://www.inkscape.org/) -->

<svg
   xmlns:dc="http://purl.org/dc/elements/1.1/"
   xmlns:cc="http://creativecommons.org/ns#"
   xmlns:rdf="http://www.w3.org/1999/02/22-rdf-syntax-ns#"
   xmlns:svg="http://www.w3.org/2000/svg"
   xmlns="http://www.w3.org/2000/svg"
   xmlns:sodipodi="http://sodipodi.sourceforge.net/DTD/sodipodi-0.dtd"
   xmlns:inkscape="http://www.inkscape.org/namespaces/inkscape"
   width="515.23718"
   height="282.19931"
   id="svg2"
   version="1.1"
   inkscape:version="0.48.2 r9819"
   sodipodi:docname="comp_setup.svg">
  <defs
     id="defs4">
    <marker
       inkscape:stockid="Arrow1Lend"
       orient="auto"
       refY="0"
       refX="0"
       id="Arrow1Lend"
       style="overflow:visible">
      <path
         id="path3817"
         d="M 0,0 5,-5 -12.5,0 5,5 0,0 z"
         style="fill-rule:evenodd;stroke:#000000;stroke-width:1pt;marker-start:none"
         transform="matrix(-0.8,0,0,-0.8,-10,0)"
         inkscape:connector-curvature="0" />
    </marker>
  </defs>
  <sodipodi:namedview
     id="base"
     pagecolor="#ffffff"
     bordercolor="#666666"
     borderopacity="1.0"
     inkscape:pageopacity="0.0"
     inkscape:pageshadow="2"
     inkscape:zoom="0.98994949"
     inkscape:cx="297.14985"
     inkscape:cy="158.86644"
     inkscape:document-units="px"
     inkscape:current-layer="layer1"
     showgrid="false"
     inkscape:window-width="1440"
     inkscape:window-height="852"
     inkscape:window-x="0"
     inkscape:window-y="0"
     inkscape:window-maximized="1"
     fit-margin-top="10"
     fit-margin-left="10"
     fit-margin-right="10"
     fit-margin-bottom="10" />
  <metadata
     id="metadata7">
    <rdf:RDF>
      <cc:Work
         rdf:about="">
        <dc:format>image/svg+xml</dc:format>
        <dc:type
           rdf:resource="http://purl.org/dc/dcmitype/StillImage" />
        <dc:title></dc:title>
      </cc:Work>
    </rdf:RDF>
  </metadata>
  <g
     inkscape:label="Layer 1"
     inkscape:groupmode="layer"
     id="layer1"
     transform="translate(-70.952834,-66.172156)">
    <rect
       style="fill:#ffffff;fill-opacity:1;fill-rule:evenodd;stroke:#000002;stroke-width:0.95147997px;stroke-linecap:butt;stroke-linejoin:miter;stroke-opacity:1"
       id="rect2985"
       width="494.28571"
       height="261.24783"
       x="81.428574"
       y="76.647896" />
    <text
       xml:space="preserve"
       style="font-size:12px;font-style:normal;font-weight:normal;line-height:125%;letter-spacing:0px;word-spacing:0px;fill:#0000fe;fill-opacity:1;stroke:none;font-family:Sans"
       x="252.85713"
       y="103.79075"
       id="text3755"
       sodipodi:linespacing="125%"><tspan
         sodipodi:role="line"
         id="tspan3757"
         x="252.85713"
         y="103.79075">Iterative Substructuring</tspan><tspan
         sodipodi:role="line"
         x="252.85713"
         y="118.79075"
         id="tspan3759">Domain Decomposition</tspan></text>
    <rect
       style="fill:#000000;fill-opacity:0;stroke:#0000fd;stroke-width:0.82197028;stroke-opacity:1"
       id="rect3761"
       width="127.34418"
       height="148.04742"
       x="118.57143"
       y="137.36218" />
    <rect
       style="fill:#000000;fill-opacity:0;stroke:#0000fd;stroke-width:0.82483709;stroke-opacity:1"
       id="rect3763"
       width="129.04393"
       height="148.8882"
       x="415.24176"
       y="138.07646" />
    <rect
       style="fill:#000000;fill-opacity:0;stroke:#0000fd;stroke-width:0.91695696;stroke-opacity:1"
       id="rect3765"
       width="72.14286"
       height="147.14175"
       x="295.71429"
       y="137.36218" />
    <text
       xml:space="preserve"
       style="font-size:12px;font-style:normal;font-weight:normal;line-height:125%;letter-spacing:0px;word-spacing:0px;fill:#ff00fd;fill-opacity:1;stroke:none;font-family:Sans"
       x="303.57144"
       y="192.36218"
       id="text3767"
       sodipodi:linespacing="125%"><tspan
         sodipodi:role="line"
         id="tspan3769"
         x="303.57144"
         y="192.36218">Kirchhoff</tspan><tspan
         sodipodi:role="line"
         x="303.57144"
         y="207.36218"
         id="tspan3783">initialized</tspan><tspan
         sodipodi:role="line"
         x="303.57144"
         y="222.36218"
         id="tspan3785">Steklov-</tspan><tspan
         sodipodi:role="line"
         x="303.57144"
         y="237.36218"
         id="tspan3771">Poincare</tspan><tspan
         sodipodi:role="line"
         x="303.57144"
         y="252.36218"
         id="tspan3777">equation</tspan></text>
    <text
       xml:space="preserve"
       style="font-size:12px;font-style:normal;font-weight:normal;line-height:125%;letter-spacing:0px;word-spacing:0px;fill:#fe0000;fill-opacity:1;stroke:none;font-family:Sans"
       x="145.83684"
       y="199.28094"
       id="text3787"
       sodipodi:linespacing="125%"><tspan
         sodipodi:role="line"
         id="tspan3789"
         x="145.83684"
         y="199.28094">FDFD,</tspan><tspan
         sodipodi:role="line"
         x="145.83684"
         y="214.28094"
         id="tspan4825">Multigrid</tspan><tspan
         sodipodi:role="line"
         x="145.83684"
         y="229.28094"
         id="tspan3791">Subdomain</tspan><tspan
         sodipodi:role="line"
         x="145.83684"
         y="244.28094"
         id="tspan3793">Solver</tspan></text>
    <text
       xml:space="preserve"
       style="font-size:12px;font-style:normal;font-weight:normal;line-height:125%;letter-spacing:0px;word-spacing:0px;fill:#ff0000;fill-opacity:1;stroke:none;font-family:Sans"
       x="446.01016"
       y="199.99525"
       id="text3795"
       sodipodi:linespacing="125%"><tspan
         sodipodi:role="line"
         id="tspan3797"
         x="446.01016"
         y="199.99525">FDFD,</tspan><tspan
         sodipodi:role="line"
         x="446.01016"
         y="214.99525"
         id="tspan4827">Multigrid</tspan><tspan
         sodipodi:role="line"
         x="446.01016"
         y="229.99525"
         id="tspan3799">Subdomain</tspan><tspan
         sodipodi:role="line"
         x="446.01016"
         y="244.99525"
         id="tspan3801">Solver</tspan></text>
    <path
       style="fill:none;stroke:#0000ff;stroke-width:1px;stroke-linecap:butt;stroke-linejoin:miter;stroke-opacity:1;marker-end:url(#Arrow1Lend)"
       d="m 246.42857,197.36218 47.14286,0"
       id="path3803"
       inkscape:connector-curvature="0" />
    <path
       style="fill:none;stroke:#0000fe;stroke-width:0.9834342px;stroke-linecap:butt;stroke-linejoin:miter;stroke-opacity:1;marker-end:url(#Arrow1Lend)"
       d="m 295,208.07647 -48.35714,0"
       id="path3805"
       inkscape:connector-curvature="0" />
    <path
       style="fill:none;stroke:#0000fd;stroke-width:0.98242128px;stroke-linecap:butt;stroke-linejoin:miter;stroke-opacity:1;marker-end:url(#Arrow1Lend)"
       d="m 415,197.36218 -45.5,0"
       id="path3807"
       inkscape:connector-curvature="0" />
    <path
       style="fill:none;stroke:#0000fd;stroke-width:0.98268592px;stroke-linecap:butt;stroke-linejoin:miter;stroke-opacity:1;marker-end:url(#Arrow1Lend)"
       d="m 367.85715,208.07646 46.21428,0"
       id="path3809"
       inkscape:connector-curvature="0" />
    <text
       xml:space="preserve"
       style="font-size:20px;font-style:normal;font-weight:normal;line-height:125%;letter-spacing:0px;word-spacing:0px;fill:#000000;fill-opacity:1;stroke:none;font-family:Sans"
       x="99.285713"
       y="101.6479"
       id="text4801"
       sodipodi:linespacing="125%"><tspan
         sodipodi:role="line"
         id="tspan4803"
         x="99.285713"
         y="101.6479">Ω</tspan></text>
    <text
       xml:space="preserve"
       style="font-size:20px;font-style:normal;font-weight:normal;line-height:125%;letter-spacing:0px;word-spacing:0px;fill:#0000fd;fill-opacity:1;stroke:none;font-family:Sans"
       x="130.71428"
       y="163.07648"
       id="text4805"
       sodipodi:linespacing="125%"><tspan
         sodipodi:role="line"
         id="tspan4807"
         x="130.71428"
         y="163.07648">Ω</tspan></text>
    <text
       xml:space="preserve"
       style="font-size:20px;font-style:normal;font-weight:normal;line-height:125%;letter-spacing:0px;word-spacing:0px;fill:#0000ff;fill-opacity:1;stroke:none;font-family:Sans"
       x="426.42856"
       y="160.93362"
       id="text4809"
       sodipodi:linespacing="125%"><tspan
         sodipodi:role="line"
         id="tspan4811"
         x="426.42856"
         y="160.93362">Ω</tspan></text>
    <text
       xml:space="preserve"
       style="font-size:16px;font-style:normal;font-weight:normal;line-height:125%;letter-spacing:0px;word-spacing:0px;fill:#0000fd;fill-opacity:1;stroke:none;font-family:Sans"
       x="147.85713"
       y="168.07648"
       id="text4813"
       sodipodi:linespacing="125%"><tspan
         sodipodi:role="line"
         id="tspan4815"
         x="147.85713"
         y="168.07648">1</tspan></text>
    <text
       xml:space="preserve"
       style="font-size:16px;font-style:normal;font-weight:normal;line-height:125%;letter-spacing:0px;word-spacing:0px;fill:#0000fd;fill-opacity:1;stroke:none;font-family:Sans"
       x="444.28571"
       y="165.93361"
       id="text4817"
       sodipodi:linespacing="125%"><tspan
         sodipodi:role="line"
         id="tspan4819"
         x="444.28571"
         y="165.93361">2</tspan></text>
    <text
       xml:space="preserve"
       style="font-size:20px;font-style:normal;font-weight:normal;line-height:125%;letter-spacing:0px;word-spacing:0px;fill:#0000fc;fill-opacity:1;stroke:none;font-family:Sans"
       x="304.28574"
       y="162.36218"
       id="text4821"
       sodipodi:linespacing="125%"><tspan
         sodipodi:role="line"
         id="tspan4823"
         x="304.28574"
         y="162.36218">Γ</tspan></text>
  </g>
</svg>
