\relax 
\@writefile{toc}{\contentsline {section}{\numberline {1}Introduction}{1}}
\@writefile{lof}{\contentsline {figure}{\numberline {1}{\ignorespaces Schematic diagram of optical lithography process.}}{2}}
\newlabel{fig:optlith1}{{1}{2}}
\@writefile{lof}{\contentsline {figure}{\numberline {2}{\ignorespaces Schematic diagram of of the components in simulating the optical lithography process.}}{2}}
\newlabel{fig:optlith2}{{2}{2}}
\@writefile{toc}{\contentsline {section}{\numberline {2}Model}{3}}
\@writefile{toc}{\contentsline {subsection}{\numberline {2.1}Time-Harmonic Maxwell's Equations and Boundary Conditions}{3}}
\newlabel{eq:hfield}{{1}{3}}
\newlabel{eq:efield}{{2}{3}}
\citation{girault2005discontinuous}
\citation{discacciati2003analysis}
\citation{discacciati2007robin}
\citation{haii}
\citation{haii2}
\@writefile{toc}{\contentsline {subsection}{\numberline {2.2}Perfectly Non-reflecting Boundary Condition}{4}}
\@writefile{toc}{\contentsline {subsubsection}{\numberline {2.2.1}Perfectly Matched Layer Boundary Conditions}{4}}
\@writefile{toc}{\contentsline {section}{\numberline {3}Kirchhoff's Approximation}{4}}
\@writefile{toc}{\contentsline {section}{\numberline {4}Domain Decomposition}{4}}
\@writefile{lof}{\contentsline {figure}{\numberline {3}{\ignorespaces Illustration of the Perfectly Matched Layer concept.}}{5}}
\newlabel{fig:pml}{{3}{5}}
\@writefile{lof}{\contentsline {figure}{\numberline {4}{\ignorespaces Illustration of Kirchoff approximation.}}{5}}
\newlabel{fig:kirchh}{{4}{5}}
\citation{alonso1997domain}
\citation{alonso1999optimal}
\citation{lietal}
\citation{alonso1999optimal}
\@writefile{toc}{\contentsline {subsection}{\numberline {4.1}Two-domain time harmonic Maxwell's equations}{6}}
\newlabel{eq:multieq}{{3}{6}}
\newlabel{eq:trans}{{4}{6}}
\@writefile{toc}{\contentsline {subsection}{\numberline {4.2}Independent Subdomain Problems \& Steklov-Poincar\'{e} Interface Equation}{6}}
\@writefile{toc}{\contentsline {subsection}{\numberline {4.3}Algorithm nnMaxwell}{7}}
\@writefile{toc}{\contentsline {subsection}{\numberline {4.4}Convergence Analysis}{8}}
\@writefile{toc}{\contentsline {section}{\numberline {5}Multigrid}{8}}
\citation{*}
\bibstyle{plain}
\bibdata{team3_progress_report}
\bibcite{alonso1997domain}{1}
\@writefile{lof}{\contentsline {figure}{\numberline {5}{\ignorespaces Illustration of grid hierarchy in a simple V-cycle multigrid method.}}{9}}
\newlabel{fig:multigrid}{{5}{9}}
\@writefile{toc}{\contentsline {section}{\numberline {6}Conclusion}{9}}
\bibcite{alonso1999optimal}{2}
\bibcite{briggs2000multigrid}{3}
\bibcite{haii2}{4}
\bibcite{demir}{5}
\bibcite{discacciati2003analysis}{6}
\bibcite{discacciati2007robin}{7}
\bibcite{haii}{8}
\bibcite{gedney1996anisotropic}{9}
\bibcite{girault2005discontinuous}{10}
\bibcite{glowinski1988domain}{11}
\bibcite{gopalakrishnan2004analysis}{12}
\bibcite{hagness2000computational}{13}
\bibcite{harrington1961time}{14}
\bibcite{hiptmair1998multigrid}{15}
\bibcite{lietal}{16}
\bibcite{lin2009performance}{17}
\bibcite{quarteroni1999domain}{18}
\bibcite{rumpf2012simple}{19}
\bibcite{yee1966numerical}{20}
