This is BibTeX, Version 0.99d (TeX Live 2013)
Capacity: max_strings=35307, hash_size=35307, hash_prime=30011
The top-level auxiliary file: team3_progress_report.aux
The style file: plain.bst
Database file #1: team3_progress_report.bib
You've used 20 entries,
            2118 wiz_defined-function locations,
            620 strings with 7723 characters,
and the built_in function-call counts, 6458 in all, are:
= -- 640
> -- 300
< -- 2
+ -- 125
- -- 98
* -- 448
:= -- 1097
add.period$ -- 62
call.type$ -- 20
change.case$ -- 104
chr.to.int$ -- 0
cite$ -- 20
duplicate$ -- 241
empty$ -- 505
format.name$ -- 98
if$ -- 1327
int.to.chr$ -- 0
int.to.str$ -- 20
missing$ -- 24
newline$ -- 103
num.names$ -- 40
pop$ -- 110
preamble$ -- 1
purify$ -- 88
quote$ -- 0
skip$ -- 158
stack$ -- 0
substring$ -- 414
swap$ -- 35
text.length$ -- 2
text.prefix$ -- 0
top$ -- 0
type$ -- 72
warning$ -- 0
while$ -- 66
width$ -- 22
write$ -- 216
