%!PS-Adobe-3.0 EPSF-3.0
%%Creator: MATLAB, The Mathworks, Inc. Version 7.10.0.499 (R2010a). Operating System: Microsoft Windows 7.
%%Title: .\epsilon.eps
%%CreationDate: 08/14/2014  09:56:06
%%DocumentNeededFonts: Helvetica
%%DocumentProcessColors: Cyan Magenta Yellow Black
%%LanguageLevel: 2
%%Pages: 1
%%BoundingBox:    57   256   533   550
%%EndComments

%%BeginProlog
% MathWorks dictionary
/MathWorks 160 dict begin
% definition operators
/bdef {bind def} bind def
/ldef {load def} bind def
/xdef {exch def} bdef
/xstore {exch store} bdef
% operator abbreviations
/c  /clip ldef
/cc /concat ldef
/cp /closepath ldef
/gr /grestore ldef
/gs /gsave ldef
/mt /moveto ldef
/np /newpath ldef
/cm /currentmatrix ldef
/sm /setmatrix ldef
/rm /rmoveto ldef
/rl /rlineto ldef
/s {show newpath} bdef
/sc {setcmykcolor} bdef
/sr /setrgbcolor ldef
/sg /setgray ldef
/w /setlinewidth ldef
/j /setlinejoin ldef
/cap /setlinecap ldef
/rc {rectclip} bdef
/rf {rectfill} bdef
% page state control
/pgsv () def
/bpage {/pgsv save def} bdef
/epage {pgsv restore} bdef
/bplot /gsave ldef
/eplot {stroke grestore} bdef
% orientation switch
/portraitMode 0 def /landscapeMode 1 def /rotateMode 2 def
% coordinate system mappings
/dpi2point 0 def
% font control
/FontSize 0 def
/FMS {/FontSize xstore findfont [FontSize 0 0 FontSize neg 0 0]
  makefont setfont} bdef
/ISOLatin1Encoding where {pop /WindowsLatin1Encoding 256 array bdef
ISOLatin1Encoding WindowsLatin1Encoding copy pop
/.notdef/.notdef/quotesinglbase/florin/quotedblbase/ellipsis/dagger
/daggerdbl/circumflex/perthousand/Scaron/guilsinglleft/OE/.notdef/.notdef
/.notdef/.notdef/quoteleft/quoteright/quotedblleft/quotedblright/bullet
/endash/emdash/tilde/trademark/scaron/guilsinglright/oe/.notdef/.notdef
/Ydieresis WindowsLatin1Encoding 128 32 getinterval astore pop}
{/WindowsLatin1Encoding StandardEncoding bdef} ifelse
/reencode {exch dup where {pop load} {pop StandardEncoding} ifelse
  exch dup 3 1 roll findfont dup length dict begin
  { 1 index /FID ne {def}{pop pop} ifelse } forall
  /Encoding exch def currentdict end definefont pop} bdef
/isroman {findfont /CharStrings get /Agrave known} bdef
/FMSR {3 1 roll 1 index dup isroman {reencode} {pop pop} ifelse
  exch FMS} bdef
/csm {1 dpi2point div -1 dpi2point div scale neg translate
 dup landscapeMode eq {pop -90 rotate}
  {rotateMode eq {90 rotate} if} ifelse} bdef
% line types: solid, dotted, dashed, dotdash
/SO { [] 0 setdash } bdef
/DO { [.5 dpi2point mul 4 dpi2point mul] 0 setdash } bdef
/DA { [6 dpi2point mul] 0 setdash } bdef
/DD { [.5 dpi2point mul 4 dpi2point mul 6 dpi2point mul 4
  dpi2point mul] 0 setdash } bdef
% macros for lines and objects
/L {lineto stroke} bdef
/MP {3 1 roll moveto 1 sub {rlineto} repeat} bdef
/AP {{rlineto} repeat} bdef
/PDlw -1 def
/W {/PDlw currentlinewidth def setlinewidth} def
/PP {closepath eofill} bdef
/DP {closepath stroke} bdef
/MR {4 -2 roll moveto dup  0 exch rlineto exch 0 rlineto
  neg 0 exch rlineto closepath} bdef
/FR {MR stroke} bdef
/PR {MR fill} bdef
/L1i {{currentfile picstr readhexstring pop} image} bdef
/tMatrix matrix def
/MakeOval {newpath tMatrix currentmatrix pop translate scale
0 0 1 0 360 arc tMatrix setmatrix} bdef
/FO {MakeOval stroke} bdef
/PO {MakeOval fill} bdef
/PD {currentlinewidth 2 div 0 360 arc fill
   PDlw -1 eq not {PDlw w /PDlw -1 def} if} def
/FA {newpath tMatrix currentmatrix pop translate scale
  0 0 1 5 -2 roll arc tMatrix setmatrix stroke} bdef
/PA {newpath tMatrix currentmatrix pop	translate 0 0 moveto scale
  0 0 1 5 -2 roll arc closepath tMatrix setmatrix fill} bdef
/FAn {newpath tMatrix currentmatrix pop translate scale
  0 0 1 5 -2 roll arcn tMatrix setmatrix stroke} bdef
/PAn {newpath tMatrix currentmatrix pop translate 0 0 moveto scale
  0 0 1 5 -2 roll arcn closepath tMatrix setmatrix fill} bdef
/vradius 0 def /hradius 0 def /lry 0 def
/lrx 0 def /uly 0 def /ulx 0 def /rad 0 def
/MRR {/vradius xdef /hradius xdef /lry xdef /lrx xdef /uly xdef
  /ulx xdef newpath tMatrix currentmatrix pop ulx hradius add uly
  vradius add translate hradius vradius scale 0 0 1 180 270 arc 
  tMatrix setmatrix lrx hradius sub uly vradius add translate
  hradius vradius scale 0 0 1 270 360 arc tMatrix setmatrix
  lrx hradius sub lry vradius sub translate hradius vradius scale
  0 0 1 0 90 arc tMatrix setmatrix ulx hradius add lry vradius sub
  translate hradius vradius scale 0 0 1 90 180 arc tMatrix setmatrix
  closepath} bdef
/FRR {MRR stroke } bdef
/PRR {MRR fill } bdef
/MlrRR {/lry xdef /lrx xdef /uly xdef /ulx xdef /rad lry uly sub 2 div def
  newpath tMatrix currentmatrix pop ulx rad add uly rad add translate
  rad rad scale 0 0 1 90 270 arc tMatrix setmatrix lrx rad sub lry rad
  sub translate rad rad scale 0 0 1 270 90 arc tMatrix setmatrix
  closepath} bdef
/FlrRR {MlrRR stroke } bdef
/PlrRR {MlrRR fill } bdef
/MtbRR {/lry xdef /lrx xdef /uly xdef /ulx xdef /rad lrx ulx sub 2 div def
  newpath tMatrix currentmatrix pop ulx rad add uly rad add translate
  rad rad scale 0 0 1 180 360 arc tMatrix setmatrix lrx rad sub lry rad
  sub translate rad rad scale 0 0 1 0 180 arc tMatrix setmatrix
  closepath} bdef
/FtbRR {MtbRR stroke } bdef
/PtbRR {MtbRR fill } bdef
/stri 6 array def /dtri 6 array def
/smat 6 array def /dmat 6 array def
/tmat1 6 array def /tmat2 6 array def /dif 3 array def
/asub {/ind2 exch def /ind1 exch def dup dup
  ind1 get exch ind2 get sub exch } bdef
/tri_to_matrix {
  2 0 asub 3 1 asub 4 0 asub 5 1 asub
  dup 0 get exch 1 get 7 -1 roll astore } bdef
/compute_transform {
  dmat dtri tri_to_matrix tmat1 invertmatrix 
  smat stri tri_to_matrix tmat2 concatmatrix } bdef
/ds {stri astore pop} bdef
/dt {dtri astore pop} bdef
/db {2 copy /cols xdef /rows xdef mul dup 3 mul string
  currentfile 
  3 index 0 eq {/ASCIIHexDecode filter}
  {/ASCII85Decode filter 3 index 2 eq {/RunLengthDecode filter} if }
  ifelse exch readstring pop
  dup 0 3 index getinterval /rbmap xdef
  dup 2 index dup getinterval /gbmap xdef
  1 index dup 2 mul exch getinterval /bbmap xdef pop pop}bdef
/it {gs np dtri aload pop moveto lineto lineto cp c
  cols rows 8 compute_transform 
  rbmap gbmap bbmap true 3 colorimage gr}bdef
/il {newpath moveto lineto stroke}bdef
currentdict end def
%%EndProlog

%%BeginSetup
MathWorks begin

0 cap

end
%%EndSetup

%%Page: 1 1
%%BeginPageSetup
%%PageBoundingBox:    57   256   533   550
MathWorks begin
bpage
%%EndPageSetup

%%BeginObject: obj1
bplot

/dpi2point 12 def
portraitMode 0204 7344 csm

  488   742  5710  3523 rc
85 dict begin %Colortable dictionary
/c0 { 0.000000 0.000000 0.000000 sr} bdef
/c1 { 1.000000 1.000000 1.000000 sr} bdef
/c2 { 0.900000 0.000000 0.000000 sr} bdef
/c3 { 0.000000 0.820000 0.000000 sr} bdef
/c4 { 0.000000 0.000000 0.800000 sr} bdef
/c5 { 0.910000 0.820000 0.320000 sr} bdef
/c6 { 1.000000 0.260000 0.820000 sr} bdef
/c7 { 0.000000 0.820000 0.820000 sr} bdef
c0
1 j
1 sg
   0    0 6913 5185 rf
6 w
0 2832 809 0 0 -2832 925 3917 4 MP
PP
-809 0 0 2832 809 0 0 -2832 925 3917 5 MP stroke
gs 925 1085 810 2833 rc
/mwscm { [/Indexed /DeviceRGB 63
  <
    00008f 00009f 0000af 0000bf 0000cf 0000df 0000ef 0000ff 000fff 001fff 
    002fff 003fff 004fff 005fff 006fff 007fff 008fff 009fff 00afff 00bfff 
    00cfff 00dfff 00efff 00ffff 0fffef 1fffdf 2fffcf 3fffbf 4fffaf 5fff9f 
    6fff8f 7fff7f 8fff6f 9fff5f afff4f bfff3f cfff2f dfff1f efff0f ffff00 
    ffef00 ffdf00 ffcf00 ffbf00 ffaf00 ff9f00 ff8f00 ff7f00 ff6f00 ff5f00 
    ff4f00 ff3f00 ff2f00 ff1f00 ff0f00 ff0000 ef0000 df0000 cf0000 bf0000 
    af0000 9f0000 8f0000 7f0000 
  >
] setcolorspace } bdef mwscm
gs np 925 1086 mt 0 2831 rl 809 0 rl 0 -2831 rl cp c np
[809 0 0 2831 925 1086] cc
<< % Image dictionary
  /ImageType 1
  /Width 10 /Height 35
  /BitsPerComponent 8
  /Decode [0 255]
  /ImageMatrix [10.000000 0 0 35.000000 0 0]
  /DataSource currentfile
  /ASCII85Decode filter
  /RunLengthDecode filter
>>
image
JH5!9r]^Aqr;Zg1rBC8pr;Zg1rBC8pr;Zg1rBC8pr;Zg1rBC8pr;Zg1JNrEaJ,
~>
gr
gr

0 sg
%%IncludeResource: font Helvetica
/Helvetica /WindowsLatin1Encoding 120 FMSR

1206 4205 mt 
(X / ) s
%%IncludeResource: font Symbol
/Symbol /WindowsLatin1Encoding 120 FMSR

1386 4205 mt 
(l) s
%%IncludeResource: font Helvetica
/Helvetica /WindowsLatin1Encoding 120 FMSR

 634 2621 mt  -90 rotate
(Z / ) s
90 rotate
%%IncludeResource: font Symbol
/Symbol /WindowsLatin1Encoding 120 FMSR

 634 2448 mt  -90 rotate
(l) s
90 rotate
1255  936 mt 
(e) s
%%IncludeResource: font Helvetica
/Helvetica /WindowsLatin1Encoding 96 FMSR

1307  996 mt 
(xx) s
%%IncludeResource: font Helvetica
/Helvetica /WindowsLatin1Encoding 120 FMSR

 908 3960 mt 
( ) s
1718 1127 mt 
( ) s
gs 925 1085 810 2833 rc
162 0 0 -404 405 0 0 404 242 0 925 2299 6 MP stroke
gr

4 w
DO
SO
6 w
 925 1085 mt 1734 1085 L
 925 3917 mt 1734 3917 L
1734 3917 mt 1734 1085 L
 925 3917 mt  925 1085 L
 925 3917 mt 1734 3917 L
 925 3917 mt  925 1085 L
1086 3917 mt 1086 3888 L
1086 1085 mt 1086 1114 L
1003 4062 mt 
(0.2) s
1248 3917 mt 1248 3888 L
1248 1085 mt 1248 1114 L
1165 4062 mt 
(0.4) s
1410 3917 mt 1410 3888 L
1410 1085 mt 1410 1114 L
1327 4062 mt 
(0.6) s
1572 3917 mt 1572 3888 L
1572 1085 mt 1572 1114 L
1489 4062 mt 
(0.8) s
 925 3917 mt  953 3917 L
1734 3917 mt 1705 3917 L
 824 3961 mt 
(0) s
 925 3512 mt  953 3512 L
1734 3512 mt 1705 3512 L
 724 3556 mt 
(0.5) s
 925 3108 mt  953 3108 L
1734 3108 mt 1705 3108 L
 824 3152 mt 
(1) s
 925 2703 mt  953 2703 L
1734 2703 mt 1705 2703 L
 724 2747 mt 
(1.5) s
 925 2299 mt  953 2299 L
1734 2299 mt 1705 2299 L
 824 2343 mt 
(2) s
 925 1894 mt  953 1894 L
1734 1894 mt 1705 1894 L
 724 1938 mt 
(2.5) s
 925 1490 mt  953 1490 L
1734 1490 mt 1705 1490 L
 824 1534 mt 
(3) s
 925 1085 mt  953 1085 L
1734 1085 mt 1705 1085 L
 724 1129 mt 
(3.5) s
 925 1085 mt 1734 1085 L
 925 3917 mt 1734 3917 L
1734 3917 mt 1734 1085 L
 925 3917 mt  925 1085 L
1 sg
0 2833 153 0 0 -2833 1915 3918 4 MP
PP
-153 0 0 2833 153 0 0 -2833 1915 3918 5 MP stroke
gs 1915 1085 154 2834 rc
/mwscm { [/Indexed /DeviceRGB 63
  <
    00008f 00009f 0000af 0000bf 0000cf 0000df 0000ef 0000ff 000fff 001fff 
    002fff 003fff 004fff 005fff 006fff 007fff 008fff 009fff 00afff 00bfff 
    00cfff 00dfff 00efff 00ffff 0fffef 1fffdf 2fffcf 3fffbf 4fffaf 5fff9f 
    6fff8f 7fff7f 8fff6f 9fff5f afff4f bfff3f cfff2f dfff1f efff0f ffff00 
    ffef00 ffdf00 ffcf00 ffbf00 ffaf00 ff9f00 ff8f00 ff7f00 ff6f00 ff5f00 
    ff4f00 ff3f00 ff2f00 ff1f00 ff0f00 ff0000 ef0000 df0000 cf0000 bf0000 
    af0000 9f0000 8f0000 7f0000 
  >
] setcolorspace } bdef mwscm
gs np 1915 1085 mt 0 2833 rl 153 0 rl 0 -2833 rl cp c np
[153 0 0 2833 1915 1085] cc
<< % Image dictionary
  /ImageType 1
  /Width 1 /Height 64
  /BitsPerComponent 8
  /Decode [0 255]
  /ImageMatrix [1.000000 0 0 64.000000 0 0]
  /DataSource currentfile
  /ASCII85Decode filter
  /RunLengthDecode filter
>>
image
5<h=p4?GSa3&``Q1c$mA0J>%1/1W2!-mp>f,U4KV+<MXF*#fe6(`*r&'GD)k&.]6[$k!CK#R:P;"9S]+
!.Y
~>
gr
gr

4 w
DO
SO
6 w
0 sg
1915 1085 mt 2068 1085 L
1915 3918 mt 2068 3918 L
2068 3918 mt 2068 1085 L
1915 3918 mt 1915 1085 L
1915 3918 mt 2068 3918 L
2068 3918 mt 2068 1085 L
2068 3918 mt 2039 3918 L
1915 3918 mt 1943 3918 L
2102 3962 mt 
(1) s
2068 3522 mt 2039 3522 L
1915 3522 mt 1943 3522 L
2102 3566 mt 
(1.2) s
2068 3127 mt 2039 3127 L
1915 3127 mt 1943 3127 L
2102 3171 mt 
(1.4) s
2068 2732 mt 2039 2732 L
1915 2732 mt 1943 2732 L
2102 2776 mt 
(1.6) s
2068 2337 mt 2039 2337 L
1915 2337 mt 1943 2337 L
2102 2381 mt 
(1.8) s
2068 1941 mt 2039 1941 L
1915 1941 mt 1943 1941 L
2102 1985 mt 
(2) s
2068 1546 mt 2039 1546 L
1915 1546 mt 1943 1546 L
2102 1590 mt 
(2.2) s
2068 1151 mt 2039 1151 L
1915 1151 mt 1943 1151 L
2102 1195 mt 
(2.4) s
1915 1085 mt 2068 1085 L
1915 3918 mt 2068 3918 L
2068 3918 mt 2068 1085 L
1915 3918 mt 1915 1085 L
1 sg
0 2828 808 0 0 -2828 2866 3915 4 MP
PP
-808 0 0 2828 808 0 0 -2828 2866 3915 5 MP stroke
gs 2866 1087 809 2829 rc
/mwscm { [/Indexed /DeviceRGB 63
  <
    00008f 00009f 0000af 0000bf 0000cf 0000df 0000ef 0000ff 000fff 001fff 
    002fff 003fff 004fff 005fff 006fff 007fff 008fff 009fff 00afff 00bfff 
    00cfff 00dfff 00efff 00ffff 0fffef 1fffdf 2fffcf 3fffbf 4fffaf 5fff9f 
    6fff8f 7fff7f 8fff6f 9fff5f afff4f bfff3f cfff2f dfff1f efff0f ffff00 
    ffef00 ffdf00 ffcf00 ffbf00 ffaf00 ff9f00 ff8f00 ff7f00 ff6f00 ff5f00 
    ff4f00 ff3f00 ff2f00 ff1f00 ff0f00 ff0000 ef0000 df0000 cf0000 bf0000 
    af0000 9f0000 8f0000 7f0000 
  >
] setcolorspace } bdef mwscm
gs np 2866 1088 mt 0 2828 rl 808 0 rl 0 -2828 rl cp c np
[808 0 0 2828 2866 1088] cc
<< % Image dictionary
  /ImageType 1
  /Width 10 /Height 35
  /BitsPerComponent 8
  /Decode [0 255]
  /ImageMatrix [10.000000 0 0 35.000000 0 0]
  /DataSource currentfile
  /ASCII85Decode filter
  /RunLengthDecode filter
>>
image
JH5!9r]g;\r'1)Zr'1)Zr'1)Zr'1)ZJNrB`J,
~>
gr
gr

0 sg
3147 4204 mt 
(X / ) s
%%IncludeResource: font Symbol
/Symbol /WindowsLatin1Encoding 120 FMSR

3327 4204 mt 
(l) s
%%IncludeResource: font Helvetica
/Helvetica /WindowsLatin1Encoding 120 FMSR

2575 2621 mt  -90 rotate
(Z / ) s
90 rotate
%%IncludeResource: font Symbol
/Symbol /WindowsLatin1Encoding 120 FMSR

2575 2448 mt  -90 rotate
(l) s
90 rotate
3195  938 mt 
(e) s
%%IncludeResource: font Helvetica
/Helvetica /WindowsLatin1Encoding 96 FMSR

3247  998 mt 
(yy) s
%%IncludeResource: font Helvetica
/Helvetica /WindowsLatin1Encoding 120 FMSR

2849 3958 mt 
( ) s
3658 1129 mt 
( ) s
gs 2866 1087 809 2829 rc
162 0 0 -404 404 0 0 404 242 0 2866 2299 6 MP stroke
gr

4 w
DO
SO
6 w
2866 1087 mt 3674 1087 L
2866 3915 mt 3674 3915 L
3674 3915 mt 3674 1087 L
2866 3915 mt 2866 1087 L
2866 3915 mt 3674 3915 L
2866 3915 mt 2866 1087 L
3027 3915 mt 3027 3887 L
3027 1087 mt 3027 1115 L
2944 4061 mt 
(0.2) s
3189 3915 mt 3189 3887 L
3189 1087 mt 3189 1115 L
3106 4061 mt 
(0.4) s
3350 3915 mt 3350 3887 L
3350 1087 mt 3350 1115 L
3267 4061 mt 
(0.6) s
3512 3915 mt 3512 3887 L
3512 1087 mt 3512 1115 L
3429 4061 mt 
(0.8) s
2866 3915 mt 2894 3915 L
3674 3915 mt 3645 3915 L
2765 3959 mt 
(0) s
2866 3511 mt 2894 3511 L
3674 3511 mt 3645 3511 L
2665 3555 mt 
(0.5) s
2866 3107 mt 2894 3107 L
3674 3107 mt 3645 3107 L
2765 3151 mt 
(1) s
2866 2703 mt 2894 2703 L
3674 2703 mt 3645 2703 L
2665 2747 mt 
(1.5) s
2866 2299 mt 2894 2299 L
3674 2299 mt 3645 2299 L
2765 2343 mt 
(2) s
2866 1895 mt 2894 1895 L
3674 1895 mt 3645 1895 L
2665 1939 mt 
(2.5) s
2866 1491 mt 2894 1491 L
3674 1491 mt 3645 1491 L
2765 1535 mt 
(3) s
2866 1087 mt 2894 1087 L
3674 1087 mt 3645 1087 L
2665 1131 mt 
(3.5) s
2866 1087 mt 3674 1087 L
2866 3915 mt 3674 3915 L
3674 3915 mt 3674 1087 L
2866 3915 mt 2866 1087 L
1 sg
0 2829 154 0 0 -2829 3854 3916 4 MP
PP
-154 0 0 2829 154 0 0 -2829 3854 3916 5 MP stroke
gs 3854 1087 155 2830 rc
/mwscm { [/Indexed /DeviceRGB 63
  <
    00008f 00009f 0000af 0000bf 0000cf 0000df 0000ef 0000ff 000fff 001fff 
    002fff 003fff 004fff 005fff 006fff 007fff 008fff 009fff 00afff 00bfff 
    00cfff 00dfff 00efff 00ffff 0fffef 1fffdf 2fffcf 3fffbf 4fffaf 5fff9f 
    6fff8f 7fff7f 8fff6f 9fff5f afff4f bfff3f cfff2f dfff1f efff0f ffff00 
    ffef00 ffdf00 ffcf00 ffbf00 ffaf00 ff9f00 ff8f00 ff7f00 ff6f00 ff5f00 
    ff4f00 ff3f00 ff2f00 ff1f00 ff0f00 ff0000 ef0000 df0000 cf0000 bf0000 
    af0000 9f0000 8f0000 7f0000 
  >
] setcolorspace } bdef mwscm
gs np 3854 1087 mt 0 2829 rl 154 0 rl 0 -2829 rl cp c np
[154 0 0 2829 3854 1087] cc
<< % Image dictionary
  /ImageType 1
  /Width 1 /Height 64
  /BitsPerComponent 8
  /Decode [0 255]
  /ImageMatrix [1.000000 0 0 64.000000 0 0]
  /DataSource currentfile
  /ASCII85Decode filter
  /RunLengthDecode filter
>>
image
5<h=p4?GSa3&``Q1c$mA0J>%1/1W2!-mp>f,U4KV+<MXF*#fe6(`*r&'GD)k&.]6[$k!CK#R:P;"9S]+
!.Y
~>
gr
gr

4 w
DO
SO
6 w
0 sg
3854 1087 mt 4008 1087 L
3854 3916 mt 4008 3916 L
4008 3916 mt 4008 1087 L
3854 3916 mt 3854 1087 L
3854 3916 mt 4008 3916 L
4008 3916 mt 4008 1087 L
4008 3916 mt 3979 3916 L
3854 3916 mt 3882 3916 L
4042 3960 mt 
(1) s
4008 3521 mt 3979 3521 L
3854 3521 mt 3882 3521 L
4042 3565 mt 
(1.2) s
4008 3126 mt 3979 3126 L
3854 3126 mt 3882 3126 L
4042 3170 mt 
(1.4) s
4008 2731 mt 3979 2731 L
3854 2731 mt 3882 2731 L
4042 2775 mt 
(1.6) s
4008 2337 mt 3979 2337 L
3854 2337 mt 3882 2337 L
4042 2381 mt 
(1.8) s
4008 1942 mt 3979 1942 L
3854 1942 mt 3882 1942 L
4042 1986 mt 
(2) s
4008 1547 mt 3979 1547 L
3854 1547 mt 3882 1547 L
4042 1591 mt 
(2.2) s
4008 1153 mt 3979 1153 L
3854 1153 mt 3882 1153 L
4042 1197 mt 
(2.4) s
3854 1087 mt 4008 1087 L
3854 3916 mt 4008 3916 L
4008 3916 mt 4008 1087 L
3854 3916 mt 3854 1087 L
1 sg
0 2828 808 0 0 -2828 4807 3915 4 MP
PP
-808 0 0 2828 808 0 0 -2828 4807 3915 5 MP stroke
gs 4807 1087 809 2829 rc
/mwscm { [/Indexed /DeviceRGB 63
  <
    00008f 00009f 0000af 0000bf 0000cf 0000df 0000ef 0000ff 000fff 001fff 
    002fff 003fff 004fff 005fff 006fff 007fff 008fff 009fff 00afff 00bfff 
    00cfff 00dfff 00efff 00ffff 0fffef 1fffdf 2fffcf 3fffbf 4fffaf 5fff9f 
    6fff8f 7fff7f 8fff6f 9fff5f afff4f bfff3f cfff2f dfff1f efff0f ffff00 
    ffef00 ffdf00 ffcf00 ffbf00 ffaf00 ff9f00 ff8f00 ff7f00 ff6f00 ff5f00 
    ff4f00 ff3f00 ff2f00 ff1f00 ff0f00 ff0000 ef0000 df0000 cf0000 bf0000 
    af0000 9f0000 8f0000 7f0000 
  >
] setcolorspace } bdef mwscm
gs np 4807 1088 mt 0 2828 rl 808 0 rl 0 -2828 rl cp c np
[808 0 0 2828 4807 1088] cc
<< % Image dictionary
  /ImageType 1
  /Width 10 /Height 35
  /BitsPerComponent 8
  /Decode [0 255]
  /ImageMatrix [10.000000 0 0 35.000000 0 0]
  /DataSource currentfile
  /ASCII85Decode filter
  /RunLengthDecode filter
>>
image
m/Zk^pBC:"pD!?=],CSnr##M\,lU%+)>l_s)>l_s)>l_s)>l_s,e6/655.,41%upe(&&.2#584M
~>
gr
gr

0 sg
5088 4204 mt 
(X / ) s
%%IncludeResource: font Symbol
/Symbol /WindowsLatin1Encoding 120 FMSR

5268 4204 mt 
(l) s
%%IncludeResource: font Helvetica
/Helvetica /WindowsLatin1Encoding 120 FMSR

4516 2621 mt  -90 rotate
(Z / ) s
90 rotate
%%IncludeResource: font Symbol
/Symbol /WindowsLatin1Encoding 120 FMSR

4516 2448 mt  -90 rotate
(l) s
90 rotate
5136  938 mt 
(e) s
%%IncludeResource: font Helvetica
/Helvetica /WindowsLatin1Encoding 96 FMSR

5188  998 mt 
(zz) s
%%IncludeResource: font Helvetica
/Helvetica /WindowsLatin1Encoding 120 FMSR

4790 3958 mt 
( ) s
5599 1129 mt 
( ) s
gs 4807 1087 809 2829 rc
162 0 0 -404 404 0 0 404 242 0 4807 2299 6 MP stroke
gr

4 w
DO
SO
6 w
4807 1087 mt 5615 1087 L
4807 3915 mt 5615 3915 L
5615 3915 mt 5615 1087 L
4807 3915 mt 4807 1087 L
4807 3915 mt 5615 3915 L
4807 3915 mt 4807 1087 L
4968 3915 mt 4968 3887 L
4968 1087 mt 4968 1115 L
4885 4061 mt 
(0.2) s
5130 3915 mt 5130 3887 L
5130 1087 mt 5130 1115 L
5047 4061 mt 
(0.4) s
5291 3915 mt 5291 3887 L
5291 1087 mt 5291 1115 L
5208 4061 mt 
(0.6) s
5453 3915 mt 5453 3887 L
5453 1087 mt 5453 1115 L
5370 4061 mt 
(0.8) s
4807 3915 mt 4835 3915 L
5615 3915 mt 5586 3915 L
4706 3959 mt 
(0) s
4807 3511 mt 4835 3511 L
5615 3511 mt 5586 3511 L
4606 3555 mt 
(0.5) s
4807 3107 mt 4835 3107 L
5615 3107 mt 5586 3107 L
4706 3151 mt 
(1) s
4807 2703 mt 4835 2703 L
5615 2703 mt 5586 2703 L
4606 2747 mt 
(1.5) s
4807 2299 mt 4835 2299 L
5615 2299 mt 5586 2299 L
4706 2343 mt 
(2) s
4807 1895 mt 4835 1895 L
5615 1895 mt 5586 1895 L
4606 1939 mt 
(2.5) s
4807 1491 mt 4835 1491 L
5615 1491 mt 5586 1491 L
4706 1535 mt 
(3) s
4807 1087 mt 4835 1087 L
5615 1087 mt 5586 1087 L
4606 1131 mt 
(3.5) s
4807 1087 mt 5615 1087 L
4807 3915 mt 5615 3915 L
5615 3915 mt 5615 1087 L
4807 3915 mt 4807 1087 L
1 sg
0 2829 154 0 0 -2829 5795 3916 4 MP
PP
-154 0 0 2829 154 0 0 -2829 5795 3916 5 MP stroke
gs 5795 1087 155 2830 rc
/mwscm { [/Indexed /DeviceRGB 63
  <
    00008f 00009f 0000af 0000bf 0000cf 0000df 0000ef 0000ff 000fff 001fff 
    002fff 003fff 004fff 005fff 006fff 007fff 008fff 009fff 00afff 00bfff 
    00cfff 00dfff 00efff 00ffff 0fffef 1fffdf 2fffcf 3fffbf 4fffaf 5fff9f 
    6fff8f 7fff7f 8fff6f 9fff5f afff4f bfff3f cfff2f dfff1f efff0f ffff00 
    ffef00 ffdf00 ffcf00 ffbf00 ffaf00 ff9f00 ff8f00 ff7f00 ff6f00 ff5f00 
    ff4f00 ff3f00 ff2f00 ff1f00 ff0f00 ff0000 ef0000 df0000 cf0000 bf0000 
    af0000 9f0000 8f0000 7f0000 
  >
] setcolorspace } bdef mwscm
gs np 5795 1087 mt 0 2829 rl 154 0 rl 0 -2829 rl cp c np
[154 0 0 2829 5795 1087] cc
<< % Image dictionary
  /ImageType 1
  /Width 1 /Height 64
  /BitsPerComponent 8
  /Decode [0 255]
  /ImageMatrix [1.000000 0 0 64.000000 0 0]
  /DataSource currentfile
  /ASCII85Decode filter
  /RunLengthDecode filter
>>
image
5<h=p4?GSa3&``Q1c$mA0J>%1/1W2!-mp>f,U4KV+<MXF*#fe6(`*r&'GD)k&.]6[$k!CK#R:P;"9S]+
!.Y
~>
gr
gr

4 w
DO
SO
6 w
0 sg
5795 1087 mt 5949 1087 L
5795 3916 mt 5949 3916 L
5949 3916 mt 5949 1087 L
5795 3916 mt 5795 1087 L
5795 3916 mt 5949 3916 L
5949 3916 mt 5949 1087 L
5949 3361 mt 5920 3361 L
5795 3361 mt 5823 3361 L
5983 3405 mt 
(0.5) s
5949 2773 mt 5920 2773 L
5795 2773 mt 5823 2773 L
5983 2817 mt 
(1) s
5949 2185 mt 5920 2185 L
5795 2185 mt 5823 2185 L
5983 2229 mt 
(1.5) s
5949 1597 mt 5920 1597 L
5795 1597 mt 5823 1597 L
5983 1641 mt 
(2) s
5795 1087 mt 5949 1087 L
5795 3916 mt 5949 3916 L
5949 3916 mt 5949 1087 L
5795 3916 mt 5795 1087 L

end %%Color Dict

eplot
%%EndObject

epage
end

showpage

%%Trailer
%%EOF
