<?xml version="1.0" encoding="UTF-8" standalone="no"?>
<!-- Created with Inkscape (http://www.inkscape.org/) -->

<svg
   xmlns:dc="http://purl.org/dc/elements/1.1/"
   xmlns:cc="http://creativecommons.org/ns#"
   xmlns:rdf="http://www.w3.org/1999/02/22-rdf-syntax-ns#"
   xmlns:svg="http://www.w3.org/2000/svg"
   xmlns="http://www.w3.org/2000/svg"
   xmlns:sodipodi="http://sodipodi.sourceforge.net/DTD/sodipodi-0.dtd"
   xmlns:inkscape="http://www.inkscape.org/namespaces/inkscape"
   width="925.71521"
   height="791.55231"
   id="svg2"
   version="1.1"
   inkscape:version="0.48.2 r9819"
   sodipodi:docname="New document 1">
  <defs
     id="defs4">
    <marker
       inkscape:stockid="Arrow2Lend"
       orient="auto"
       refY="0.0"
       refX="0.0"
       id="Arrow2Lend"
       style="overflow:visible;">
      <path
         id="path3811"
         style="font-size:12.0;fill-rule:evenodd;stroke-width:0.62500000;stroke-linejoin:round;"
         d="M 8.7185878,4.0337352 L -2.2072895,0.016013256 L 8.7185884,-4.0017078 C 6.9730900,-1.6296469 6.9831476,1.6157441 8.7185878,4.0337352 z "
         transform="scale(1.1) rotate(180) translate(1,0)" />
    </marker>
    <marker
       inkscape:stockid="Arrow1Lend"
       orient="auto"
       refY="0.0"
       refX="0.0"
       id="Arrow1Lend"
       style="overflow:visible;">
      <path
         id="path3793"
         d="M 0.0,0.0 L 5.0,-5.0 L -12.5,0.0 L 5.0,5.0 L 0.0,0.0 z "
         style="fill-rule:evenodd;stroke:#000000;stroke-width:1.0pt;marker-start:none;"
         transform="scale(0.8) rotate(180) translate(12.5,0)" />
    </marker>
  </defs>
  <sodipodi:namedview
     id="base"
     pagecolor="#ffffff"
     bordercolor="#666666"
     borderopacity="1.0"
     inkscape:pageopacity="0.0"
     inkscape:pageshadow="2"
     inkscape:zoom="0.7"
     inkscape:cx="463.00445"
     inkscape:cy="397.00108"
     inkscape:document-units="px"
     inkscape:current-layer="layer1"
     showgrid="false"
     fit-margin-top="100"
     fit-margin-left="100"
     fit-margin-right="100"
     fit-margin-bottom="100"
     inkscape:window-width="1440"
     inkscape:window-height="852"
     inkscape:window-x="0"
     inkscape:window-y="0"
     inkscape:window-maximized="1" />
  <metadata
     id="metadata7">
    <rdf:RDF>
      <cc:Work
         rdf:about="">
        <dc:format>image/svg+xml</dc:format>
        <dc:type
           rdf:resource="http://purl.org/dc/dcmitype/StillImage" />
        <dc:title></dc:title>
      </cc:Work>
    </rdf:RDF>
  </metadata>
  <g
     inkscape:label="Layer 1"
     inkscape:groupmode="layer"
     id="layer1"
     transform="translate(-50.92857,56.893275)">
    <rect
       style="fill:#ffffff;fill-opacity:1;fill-rule:evenodd;stroke:#000000;stroke-width:1px;stroke-linecap:butt;stroke-linejoin:miter;stroke-opacity:1"
       id="rect2985"
       width="410.12195"
       height="408.10162"
       x="151.52287"
       y="226.0574" />
    <path
       style="fill:none;stroke:#000000;stroke-width:1px;stroke-linecap:butt;stroke-linejoin:miter;stroke-opacity:1"
       d="M 151.42857,226.6479 468.46518,43.606725"
       id="path3757"
       inkscape:connector-curvature="0" />
    <path
       style="fill:none;stroke:#000000;stroke-width:1px;stroke-linecap:butt;stroke-linejoin:miter;stroke-opacity:1"
       d="m 560.71429,225.93361 315.42946,-182.113287 -408.28661,0"
       id="path3759"
       inkscape:connector-curvature="0" />
    <path
       style="fill:none;stroke:#000000;stroke-width:0.80924106px;stroke-linecap:butt;stroke-linejoin:miter;stroke-opacity:1"
       d="m 876.64286,44.659035 0,406.020095"
       id="path3761"
       inkscape:connector-curvature="0" />
    <path
       style="fill:none;stroke:#000000;stroke-width:1px;stroke-linecap:butt;stroke-linejoin:miter;stroke-opacity:1"
       d="M 510.12704,690.53705 826.11115,508.10354"
       id="path3763"
       inkscape:connector-curvature="0"
       transform="translate(50.92857,-56.893275)" />
    <path
       style="fill:none;stroke:#000000;stroke-width:1px;stroke-linecap:butt;stroke-linejoin:miter;stroke-opacity:1"
       d="m 100,478.69516 411.42857,0"
       id="path3765"
       inkscape:connector-curvature="0"
       transform="translate(50.92857,-56.893275)" />
    <path
       style="fill:none;stroke:#000000;stroke-width:1px;stroke-linecap:butt;stroke-linejoin:miter;stroke-opacity:1"
       d="M 510,477.26659 824.27516,295.81974"
       id="path3767"
       inkscape:connector-curvature="0"
       transform="translate(50.92857,-56.893275)" />
    <text
       xml:space="preserve"
       style="font-size:40px;font-style:normal;font-weight:normal;line-height:125%;letter-spacing:0px;word-spacing:0px;fill:#000000;fill-opacity:1;stroke:none;font-family:Sans"
       x="198.07141"
       y="287.51617"
       id="text3769"
       sodipodi:linespacing="125%"><tspan
         sodipodi:role="line"
         id="tspan3771"
         x="198.07141"
         y="287.51617">ε</tspan></text>
    <text
       xml:space="preserve"
       style="font-size:40px;font-style:normal;font-weight:normal;line-height:125%;letter-spacing:0px;word-spacing:0px;fill:#000000;fill-opacity:1;stroke:none;font-family:Sans"
       x="196.64285"
       y="491.80188"
       id="text3773"
       sodipodi:linespacing="125%"><tspan
         sodipodi:role="line"
         id="tspan3775"
         x="196.64285"
         y="491.80188">ε</tspan></text>
    <text
       xml:space="preserve"
       style="font-size:40px;font-style:normal;font-weight:normal;line-height:125%;letter-spacing:0px;word-spacing:0px;fill:#000000;fill-opacity:1;stroke:none;font-family:Sans"
       x="218.07143"
       y="507.51617"
       id="text3777"
       sodipodi:linespacing="125%"><tspan
         sodipodi:role="line"
         id="tspan3779"
         x="218.07143"
         y="507.51617">1</tspan></text>
    <text
       xml:space="preserve"
       style="font-size:40px;font-style:normal;font-weight:normal;line-height:125%;letter-spacing:0px;word-spacing:0px;fill:#000000;fill-opacity:1;stroke:none;font-family:Sans"
       x="219.5"
       y="304.65903"
       id="text3781"
       sodipodi:linespacing="125%"><tspan
         sodipodi:role="line"
         id="tspan3783"
         x="219.5"
         y="304.65903">2</tspan></text>
    <path
       style="fill:none;stroke:#000000;stroke-width:1px;stroke-linecap:butt;stroke-linejoin:miter;stroke-opacity:1;marker-end:url(#Arrow1Lend)"
       d="m 417.14286,100.12374 0,-82.857148"
       id="path3785"
       inkscape:connector-curvature="0"
       transform="translate(50.92857,-56.893275)" />
    <path
       style="fill:none;stroke:#000000;stroke-width:1px;stroke-linecap:butt;stroke-linejoin:miter;stroke-opacity:1;marker-end:url(#Arrow1Lend)"
       d="M 100,690.12374 32.775188,728.936"
       id="path4231"
       inkscape:connector-curvature="0"
       transform="translate(50.92857,-56.893275)" />
    <path
       style="fill:none;stroke:#000000;stroke-width:1px;stroke-linecap:butt;stroke-linejoin:miter;stroke-opacity:1;marker-end:url(#Arrow1Lend)"
       d="m 825.71429,508.69516 85.71428,0"
       id="path4415"
       inkscape:connector-curvature="0"
       transform="translate(50.92857,-56.893275)" />
    <path
       style="fill:none;stroke:#000000;stroke-width:0.98848677;stroke-linecap:butt;stroke-linejoin:miter;stroke-opacity:1;stroke-miterlimit:4;stroke-dasharray:0.98848677,1.97697353;stroke-dashoffset:0"
       d="m 468.07143,44.659035 0,407.592795 408.57143,0"
       id="path4599"
       inkscape:connector-curvature="0" />
    <path
       style="fill:none;stroke:#000000;stroke-width:1;stroke-linecap:butt;stroke-linejoin:miter;stroke-opacity:1;stroke-miterlimit:4;stroke-dasharray:1, 3;stroke-dashoffset:0;marker-mid:none"
       d="m 415.71429,508.69516 -314.728,181.7083"
       id="path4601"
       inkscape:connector-curvature="0"
       transform="translate(50.92857,-56.893275)" />
    <path
       style="fill:none;stroke:#000000;stroke-width:1;stroke-linecap:butt;stroke-linejoin:miter;stroke-opacity:1;stroke-miterlimit:4;stroke-dasharray:1,3;stroke-dashoffset:0"
       d="m 101.42857,478.69516 314.27516,-181.44685 408.58198,0"
       id="path4785"
       inkscape:connector-curvature="0"
       transform="translate(50.92857,-56.893275)" />
    <path
       style="fill:#ffffff;fill-opacity:0.38666666;stroke-width:1;stroke-miterlimit:4;stroke-dasharray:1, 3;stroke-dashoffset:0"
       d="m 101.57588,380.65761 0,-96.39209 157.14286,0 157.14286,0 0,4.28571 c 0,2.35714 0.64285,4.28571 1.42857,4.28571 0.78571,0 1.42857,-1.92857 1.42857,-4.28571 l 0,-4.28571 45.67034,0 45.67033,0 -0.31318,96.07142 -0.3132,96.07143 -45.35715,0.37722 -45.35714,0.3772 0,-7.16292 c 0,-3.93961 -0.64286,-7.16293 -1.42857,-7.16293 -0.78572,0 -1.42857,3.22228 -1.42857,7.16059 l 0,7.1606 -157.14286,-0.0541 -157.14286,-0.0543 0,-96.39209 0,0 z m 8.57143,93.60791 c 0,-0.78572 -0.64286,-1.42858 -1.42857,-1.42858 -0.78571,0 -1.42857,0.64286 -1.42857,1.42858 0,0.78571 0.64286,1.42857 1.42857,1.42857 0.78571,0 1.42857,-0.64286 1.42857,-1.42857 z m 7.14286,-4.37003 c 0,-0.83209 0.64286,-1.11557 1.42857,-0.62997 0.78571,0.4856 1.42857,0.20211 1.42857,-0.62998 0,-1.75232 -0.38391,-1.82408 -3.45459,-0.64575 -2.49245,0.95644 -3.09104,3.41858 -0.83112,3.41858 0.78571,0 1.42857,-0.6808 1.42857,-1.51288 z m 8.53006,-4.1456 c 1.15581,-0.73096 1.66857,-1.76193 1.13945,-2.29105 -0.52912,-0.52912 -2.00284,0.0789 -3.27495,1.35089 -2.51359,2.5136 -1.23945,3.07454 2.1355,0.94016 z m 8.6128,-5.77009 c 0,-0.78571 -0.28349,-1.42857 -0.62998,-1.42857 -0.34649,0 -1.02728,0.64286 -1.51288,1.42857 -0.4856,0.78572 -0.20211,1.42857 0.62997,1.42857 0.83209,0 1.51289,-0.64285 1.51289,-1.42857 z m 8.53005,-4.22991 c 1.15582,-0.73096 1.66857,-1.76193 1.13946,-2.29105 -0.52912,-0.52912 -2.00285,0.0789 -3.27496,1.35089 -2.51359,2.5136 -1.23944,3.07454 2.1355,0.94016 z m 8.6128,-6.12583 c 0,-0.60337 -1.28571,-0.2941 -2.85714,0.68727 -1.57143,0.98137 -2.85714,2.27799 -2.85714,2.88136 0,0.60337 1.28571,0.2941 2.85714,-0.68727 1.57143,-0.98138 2.85714,-2.27799 2.85714,-2.88136 z m 267.14286,-12.5014 c 0,-7.61904 -0.58201,-12.85714 -1.42857,-12.85714 -0.84656,0 -1.42857,5.2381 -1.42857,12.85714 0,7.61904 0.58201,12.85714 1.42857,12.85714 0.84656,0 1.42857,-5.2381 1.42857,-12.85714 z m -250,2.5014 c 0,-0.60337 -1.28571,-0.2941 -2.85714,0.68727 -1.57143,0.98137 -2.85715,2.27799 -2.85715,2.88136 0,0.60337 1.28572,0.2941 2.85715,-0.68727 1.57143,-0.98138 2.85714,-2.27799 2.85714,-2.88136 z m 5.20408,-1.78712 c 2.3258,-2.3258 1.9797,-2.61708 -1.51581,-1.27572 -1.24284,0.47691 -2.2597,1.4412 -2.2597,2.14285 0,1.87085 1.34688,1.5615 3.77551,-0.86713 z m 9.89796,-5.61224 c 2.94924,-2.94924 2.50598,-3.98818 -0.81633,-1.91337 -1.57142,0.98137 -2.85714,2.27254 -2.85714,2.86926 0,1.66594 1.42154,1.29604 3.67347,-0.95589 l 0,0 z m 7.2449,-4.38776 c 2.3258,-2.3258 1.9797,-2.61708 -1.51582,-1.27572 -1.24283,0.47691 -2.25969,1.4412 -2.25969,2.14285 0,1.87085 1.34688,1.5615 3.77551,-0.86713 z m 7.61169,-3.51562 c 1.15581,-0.73097 1.54995,-1.84612 0.87585,-2.47813 -0.6741,-0.63201 -1.51396,-0.34153 -1.86636,0.64551 -0.3524,0.98704 -1.22867,1.43124 -1.94728,0.98712 -0.7186,-0.44412 -1.30655,-0.1267 -1.30655,0.70539 0,1.85172 1.46159,1.89996 4.24434,0.14011 l 0,0 z m 9.53117,-6.48438 c 2.3258,-2.3258 1.9797,-2.61708 -1.51582,-1.27573 -1.24283,0.47692 -2.25969,1.44121 -2.25969,2.14286 0,1.87084 1.34688,1.5615 3.77551,-0.86713 z m 6.22449,-3.65573 c 0,-0.83209 0.64285,-1.11558 1.42857,-0.62998 0.78571,0.4856 1.42857,0.20211 1.42857,-0.62998 0,-1.75232 -0.38391,-1.82408 -3.45459,-0.64575 -2.49245,0.95644 -3.09105,3.41859 -0.83113,3.41859 0.78572,0 1.42858,-0.6808 1.42858,-1.51288 z m 8.53005,-4.14561 c 1.15582,-0.73096 1.54995,-1.84612 0.87585,-2.47812 -0.6741,-0.63201 -1.51396,-0.34153 -1.86635,0.64551 -0.3524,0.98704 -1.22868,1.43124 -1.94728,0.98712 -0.71861,-0.44413 -1.30656,-0.1267 -1.30656,0.70538 0,1.85173 1.4616,1.89997 4.24434,0.14012 l 0,-1e-5 z m 195.75566,-12.91294 c 0,-6.66667 -0.59524,-11.42857 -1.42857,-11.42857 -0.83333,0 -1.42857,4.7619 -1.42857,11.42857 0,6.66667 0.59524,11.42857 1.42857,11.42857 0.83333,0 1.42857,-4.7619 1.42857,-11.42857 z m -187.14286,7.05855 c 0,-0.83209 0.64286,-1.11558 1.42857,-0.62998 0.78572,0.4856 1.42858,0.20211 1.42858,-0.62998 0,-1.75232 -0.38392,-1.82408 -3.45459,-0.64575 -2.49246,0.95644 -3.09105,3.41859 -0.83113,3.41859 0.78572,0 1.42857,-0.6808 1.42857,-1.51288 z m 8.53006,-4.14561 c 1.15582,-0.73096 1.54994,-1.84612 0.87585,-2.47812 -0.6741,-0.63201 -1.51396,-0.34153 -1.86636,0.64551 -0.35239,0.98704 -1.22867,1.43124 -1.94728,0.98712 -0.7186,-0.44413 -1.30655,-0.1267 -1.30655,0.70538 0,1.85173 1.46159,1.89997 4.24434,0.14012 l 0,-1e-5 z m 7.14286,-4.28571 c 1.15581,-0.73096 1.66857,-1.76194 1.13945,-2.29105 -0.52911,-0.52912 -2.00284,0.0788 -3.27495,1.35089 -2.51359,2.51359 -1.23945,3.07454 2.1355,0.94016 z m 8.6128,-5.8544 c 0,-0.83208 0.64285,-1.11557 1.42857,-0.62997 0.78571,0.48559 1.42857,0.2021 1.42857,-0.62998 0,-1.75232 -0.38391,-1.82408 -3.45459,-0.64575 -2.49245,0.95644 -3.09105,3.41858 -0.83112,3.41858 0.78571,0 1.42857,-0.68079 1.42857,-1.51288 z m 8.53005,-4.1456 c 1.15582,-0.73096 1.66858,-1.76194 1.13946,-2.29105 -0.52911,-0.52912 -2.00284,0.0788 -3.27496,1.35089 -2.51358,2.51359 -1.23944,3.07454 2.1355,0.94016 z m 8.6128,-5.77009 c 0,-0.78571 -0.28348,-1.42857 -0.62997,-1.42857 -0.34648,0 -1.02728,0.64286 -1.51288,1.42857 -0.4856,0.78572 -0.20212,1.42857 0.62997,1.42857 0.83208,0 1.51288,-0.64285 1.51288,-1.42857 z m 8.53006,-4.22991 c 1.15582,-0.73096 1.66857,-1.76194 1.13946,-2.29105 -0.52912,-0.52912 -2.00284,0.0788 -3.27496,1.35089 -2.51358,2.51359 -1.23944,3.07454 2.1355,0.94016 l 0,0 z m 8.6128,-6.12583 c 0,-0.60337 -1.28571,-0.2941 -2.85714,0.68727 -1.57143,0.98138 -2.85714,2.27799 -2.85714,2.88136 0,0.60337 1.28571,0.29409 2.85714,-0.68728 1.57143,-0.98137 2.85714,-2.27798 2.85714,-2.88135 z m 128.57143,-11.07283 c 0,-6.66667 -0.59524,-11.42857 -1.42857,-11.42857 -0.83333,0 -1.42857,4.7619 -1.42857,11.42857 0,6.66667 0.59524,11.42857 1.42857,11.42857 0.83333,0 1.42857,-4.7619 1.42857,-11.42857 z m -111.42857,1.07283 c 0,-0.60337 -1.28572,-0.2941 -2.85714,0.68727 -1.57143,0.98138 -2.85715,2.27799 -2.85715,2.88136 0,0.60337 1.28572,0.29409 2.85715,-0.68728 1.57142,-0.98137 2.85714,-2.27798 2.85714,-2.88135 z m -117.14286,0.35574 c 0,-2.31292 -0.95238,-2.85714 -5,-2.85714 -2.75,0 -5,-0.51675 -5,-1.14833 0,-0.63159 2.25,-3.32912 5,-5.99453 8.53941,-8.27672 5.65633,-18.57143 -5.20103,-18.57143 -5.71505,0 -8.3704,1.40805 -8.3704,4.43856 0,3.13362 0.0664,3.15147 4.8946,1.3158 2.00861,-0.76367 4.62189,-1.01632 5.80728,-0.56144 3.94849,1.51518 2.22834,6.46939 -4.98759,14.36477 -9.77243,10.69259 -9.48883,11.87088 2.85714,11.87088 9.04762,0 10,-0.2721 10,-2.85714 z m 122.34694,-2.14286 c 2.3258,-2.3258 1.9797,-2.61708 -1.51581,-1.27573 -1.24284,0.47692 -2.2597,1.44121 -2.2597,2.14286 0,1.87084 1.34689,1.5615 3.77551,-0.86713 z m 9.89796,-5.61224 c 2.94924,-2.94924 2.50599,-3.98818 -0.81633,-1.91337 -1.57143,0.98138 -2.85714,2.27254 -2.85714,2.86925 0,1.66595 1.42154,1.29605 3.67347,-0.95588 z m 7.2449,-4.38776 c 2.3258,-2.3258 1.9797,-2.61708 -1.51581,-1.27573 -1.24285,0.47692 -2.2597,1.44121 -2.2597,2.14286 0,1.87084 1.34688,1.5615 3.77551,-0.86713 z m -164.60664,-3.00998 c 1.24284,-0.47692 2.2597,-2.15284 2.2597,-3.72427 0,-2.18214 -0.59063,-2.60075 -2.5,-1.77188 -4.68948,2.03573 -9.53939,1.48802 -10.06552,-1.13672 -0.39034,-1.94736 0.46942,-2.5 3.88934,-2.5 5.55265,0 6.04324,-3.90028 0.57206,-4.54797 -2.10012,-0.24862 -4.05586,-1.1764 -4.34609,-2.06174 -0.79014,-2.41031 3.41682,-3.49521 7.51358,-1.93763 2.84443,1.08145 3.79481,0.8909 4.48148,-0.89854 1.9757,-5.14859 -10.4545,-6.78733 -15.23352,-2.00831 -2.24583,2.24583 -2.55262,3.5651 -1.48316,6.378 0.85436,2.24711 0.84497,3.85759 -0.0256,4.39564 -2.29591,1.41895 -1.5358,7.58718 1.12601,9.13755 2.79792,1.62963 10.36172,1.99977 13.81174,0.67587 l -1e-5,0 z m 172.21833,-0.50564 c 1.15581,-0.73097 1.54994,-1.84612 0.87584,-2.47813 -0.67409,-0.63201 -1.51396,-0.34153 -1.86634,0.64551 -0.3524,0.98704 -1.22869,1.43124 -1.94729,0.98712 -0.7186,-0.44412 -1.30656,-0.1267 -1.30656,0.70539 0,1.85172 1.4616,1.89997 4.24435,0.14011 l 0,0 z m 9.53117,-6.48438 c 2.3258,-2.3258 1.9797,-2.61708 -1.51582,-1.27573 -1.24284,0.47692 -2.2597,1.44121 -2.2597,2.14286 0,1.87084 1.34689,1.5615 3.77552,-0.86713 z m 6.22448,-3.65573 c 0,-0.83209 0.64286,-1.11558 1.42858,-0.62998 0.78571,0.4856 1.42857,0.20211 1.42857,-0.62998 0,-1.75232 -0.38392,-1.82408 -3.45459,-0.64575 -2.49246,0.95644 -3.09106,3.41859 -0.83113,3.41859 0.78572,0 1.42857,-0.6808 1.42857,-1.51288 z m 8.53006,-4.14561 c 1.15582,-0.73096 1.54994,-1.84612 0.87584,-2.47812 -0.67408,-0.63201 -1.51395,-0.34153 -1.86634,0.64551 -0.3524,0.98704 -1.22868,1.43124 -1.94728,0.98712 -0.7186,-0.44413 -1.30656,-0.1267 -1.30656,0.70538 0,1.85173 1.4616,1.89997 4.24434,0.14012 l 0,-1e-5 z m 57.18423,-11.48437 c 0,-7.61905 -0.58201,-12.85714 -1.42857,-12.85714 -0.84656,0 -1.42857,5.23809 -1.42857,12.85714 0,7.61905 0.58201,12.85714 1.42857,12.85714 0.84656,0 1.42857,-5.23809 1.42857,-12.85714 z m -48.57143,5.62998 c 0,-0.83209 0.64286,-1.11558 1.42857,-0.62998 0.78572,0.4856 1.42857,0.20211 1.42857,-0.62998 0,-1.75232 -0.38391,-1.82408 -3.45458,-0.64575 -2.49246,0.95644 -3.09106,3.41859 -0.83113,3.41859 0.78571,0 1.42857,-0.6808 1.42857,-1.51288 z m 8.53006,-4.14561 c 1.15581,-0.73096 1.54994,-1.84612 0.87584,-2.47812 -0.67408,-0.63201 -1.51396,-0.34153 -1.86634,0.64551 -0.3524,0.98704 -1.22869,1.43124 -1.94729,0.98712 -0.7186,-0.44413 -1.30655,-0.1267 -1.30655,0.70538 0,1.85173 1.4616,1.89997 4.24434,0.14012 l 0,-1e-5 z m 7.14286,-4.28571 c 1.15581,-0.73096 1.66857,-1.76194 1.13945,-2.29105 -0.52911,-0.52912 -2.00284,0.0788 -3.27495,1.35089 -2.51359,2.51359 -1.23945,3.07454 2.1355,0.94016 z m 8.6128,-5.8544 c 0,-0.83208 0.64285,-1.11557 1.42857,-0.62997 0.78571,0.48559 1.42857,0.2021 1.42857,-0.62998 0,-1.75232 -0.38392,-1.82408 -3.45459,-0.64575 -2.49245,0.95644 -3.09105,3.41858 -0.83113,3.41858 0.78572,0 1.42858,-0.68079 1.42858,-1.51288 z m 8.53005,-4.1456 c 1.15582,-0.73096 1.66857,-1.76194 1.13946,-2.29105 -0.52911,-0.52912 -2.00284,0.0788 -3.27496,1.35089 -2.51358,2.51359 -1.23944,3.07454 2.1355,0.94016 z m 8.6128,-5.77009 c 0,-0.78571 -0.28348,-1.42857 -0.62997,-1.42857 -0.34648,0 -1.02728,0.64286 -1.51288,1.42857 -0.4856,0.78572 -0.20212,1.42857 0.62997,1.42857 0.83208,0 1.51288,-0.64285 1.51288,-1.42857 z m 7.14286,-3.57143 c 0,-1.17857 -0.64286,-2.14285 -1.42857,-2.14285 -0.78572,0 -1.42857,0.96428 -1.42857,2.14285 0,1.17857 0.64285,2.14286 1.42857,2.14286 0.78571,0 1.42857,-0.96429 1.42857,-2.14286 z m 4.28571,0.71429 c 0,-0.78572 -0.64285,-1.42857 -1.42857,-1.42857 -0.78571,0 -1.42857,0.64285 -1.42857,1.42857 0,0.78571 0.64286,1.42857 1.42857,1.42857 0.78572,0 1.42857,-0.64286 1.42857,-1.42857 z m 11.42858,0 c 0,-0.78572 -0.64286,-1.42857 -1.42858,-1.42857 -0.78571,0 -1.42857,0.64285 -1.42857,1.42857 0,0.78571 0.64286,1.42857 1.42857,1.42857 0.78572,0 1.42858,-0.64286 1.42858,-1.42857 z m 4.28571,0 c 0,-0.78572 -0.64286,-1.42857 -1.42857,-1.42857 -0.78572,0 -1.42857,0.64285 -1.42857,1.42857 0,0.78571 0.64285,1.42857 1.42857,1.42857 0.78571,0 1.42857,-0.64286 1.42857,-1.42857 z m 4.28571,0 c 0,-0.78572 -0.64285,-1.42857 -1.42857,-1.42857 -0.78571,0 -1.42857,0.64285 -1.42857,1.42857 0,0.78571 0.64286,1.42857 1.42857,1.42857 0.78572,0 1.42857,-0.64286 1.42857,-1.42857 z m 11.42858,0 c 0,-0.78572 -0.64286,-1.42857 -1.42858,-1.42857 -0.78571,0 -1.42857,0.64285 -1.42857,1.42857 0,0.78571 0.64286,1.42857 1.42857,1.42857 0.78572,0 1.42858,-0.64286 1.42858,-1.42857 z m 4.28571,0 c 0,-0.78572 -0.64286,-1.42857 -1.42857,-1.42857 -0.78572,0 -1.42857,0.64285 -1.42857,1.42857 0,0.78571 0.64285,1.42857 1.42857,1.42857 0.78571,0 1.42857,-0.64286 1.42857,-1.42857 z m 4.28571,0 c 0,-0.78572 -0.64285,-1.42857 -1.42857,-1.42857 -0.78571,0 -1.42857,0.64285 -1.42857,1.42857 0,0.78571 0.64286,1.42857 1.42857,1.42857 0.78572,0 1.42857,-0.64286 1.42857,-1.42857 z m 11.42858,0 c 0,-0.78572 -0.64286,-1.42857 -1.42858,-1.42857 -0.78571,0 -1.42857,0.64285 -1.42857,1.42857 0,0.78571 0.64286,1.42857 1.42857,1.42857 0.78572,0 1.42858,-0.64286 1.42858,-1.42857 z m 4.28571,0 c 0,-0.78572 -0.64286,-1.42857 -1.42857,-1.42857 -0.78572,0 -1.42857,0.64285 -1.42857,1.42857 0,0.78571 0.64285,1.42857 1.42857,1.42857 0.78571,0 1.42857,-0.64286 1.42857,-1.42857 z m 4.28572,0 c 0,-0.78572 -0.64286,-1.42857 -1.42858,-1.42857 -0.78571,0 -1.42857,0.64285 -1.42857,1.42857 0,0.78571 0.64286,1.42857 1.42857,1.42857 0.78572,0 1.42858,-0.64286 1.42858,-1.42857 z m 11.42857,0 c 0,-0.78572 -0.64286,-1.42857 -1.42857,-1.42857 -0.78572,0 -1.42858,0.64285 -1.42858,1.42857 0,0.78571 0.64286,1.42857 1.42858,1.42857 0.78571,0 1.42857,-0.64286 1.42857,-1.42857 z m 4.28571,0 c 0,-0.78572 -0.64286,-1.42857 -1.42857,-1.42857 -0.78571,0 -1.42857,0.64285 -1.42857,1.42857 0,0.78571 0.64286,1.42857 1.42857,1.42857 0.78571,0 1.42857,-0.64286 1.42857,-1.42857 z m 4.28572,0 c 0,-0.78572 -0.64286,-1.42857 -1.42858,-1.42857 -0.78571,0 -1.42857,0.64285 -1.42857,1.42857 0,0.78571 0.64286,1.42857 1.42857,1.42857 0.78572,0 1.42858,-0.64286 1.42858,-1.42857 z"
       id="path4787"
       inkscape:connector-curvature="0"
       transform="translate(50.92857,-56.893275)" />
    <path
       style="opacity:0.74137932;fill:#d8dbf4;fill-opacity:0.38666669;stroke-width:1;stroke-miterlimit:4;stroke-dasharray:1, 3;stroke-dashoffset:0"
       d="m 104.43303,688.46692 c 0,-0.83209 -0.64286,-1.11558 -1.42858,-0.62998 -0.9474,0.58553 -1.42857,-34.27088 -1.42857,-103.48711 l 0,-104.37003 157.14286,0 157.14286,0 0,4.28572 c 0,2.35714 0.64285,4.28571 1.42857,4.28571 0.78571,0 1.42857,-1.92857 1.42857,-4.28571 l 0,-4.28572 45.71429,0 45.71428,0 0,105 0,105 -202.85714,0 c -141.82228,0 -202.85714,-0.45518 -202.85714,-1.51288 z m 5.20408,-2.05855 c 2.3258,-2.3258 1.9797,-2.61708 -1.51582,-1.27573 -1.24283,0.47692 -2.25969,1.4412 -2.25969,2.14286 0,1.87084 1.34688,1.5615 3.77551,-0.86713 z m 7.61169,-3.51563 c 1.15581,-0.73095 1.54995,-1.84611 0.87585,-2.47812 -0.6741,-0.632 -1.51396,-0.34153 -1.86636,0.64551 -0.3524,0.98704 -1.22867,1.43124 -1.94728,0.98711 -0.71861,-0.44411 -1.30656,-0.1267 -1.30656,0.70539 0,1.85173 1.4616,1.89997 4.24435,0.14014 l 0,-3e-5 z m 9.53116,-6.48437 c 2.32581,-2.3258 1.9797,-2.61708 -1.51581,-1.27573 -1.24283,0.47692 -2.2597,1.4412 -2.2597,2.14286 0,1.87084 1.34688,1.5615 3.77551,-0.86713 z m 6.22449,-3.65574 c 0,-0.83209 0.64286,-1.11557 1.42858,-0.62997 0.78571,0.4856 1.42857,0.20211 1.42857,-0.62997 0,-1.75233 -0.38392,-1.82409 -3.45459,-0.64576 -2.49245,0.95644 -3.09105,3.41859 -0.83113,3.41859 0.78572,0 1.42857,-0.6808 1.42857,-1.51289 z m 8.53006,-4.1456 c 1.15582,-0.73096 1.54995,-1.84611 0.87585,-2.47813 -0.6741,-0.632 -1.51396,-0.34153 -1.86636,0.64552 -0.35239,0.98704 -1.22867,1.43124 -1.94727,0.98711 -0.71861,-0.44411 -1.30656,-0.1267 -1.30656,0.70539 0,1.85172 1.46159,1.89997 4.24434,0.14014 l 0,-3e-5 z m 8.6128,-5.8544 c 0,-0.83209 0.64286,-1.11557 1.42857,-0.62997 0.78572,0.4856 1.42857,0.20211 1.42857,-0.62997 0,-1.75233 -0.38391,-1.82409 -3.45459,-0.64576 -2.49245,0.95644 -3.09104,3.41859 -0.83112,3.41859 0.78571,0 1.42857,-0.6808 1.42857,-1.51289 z m 8.53006,-4.1456 c 1.15581,-0.73096 1.54995,-1.84611 0.87585,-2.47813 -0.6741,-0.632 -1.51396,-0.34153 -1.86636,0.64552 -0.3524,0.98704 -1.22867,1.43124 -1.94728,0.98711 -0.7186,-0.44411 -1.30655,-0.1267 -1.30655,0.70539 0,1.85172 1.46159,1.89997 4.24434,0.14014 l 0,-3e-5 z m 8.6128,-5.77009 c 0,-0.78571 -0.64286,-1.42857 -1.42857,-1.42857 -0.78572,0 -1.42857,0.64286 -1.42857,1.42857 0,0.78572 0.64285,1.42858 1.42857,1.42858 0.78571,0 1.42857,-0.64286 1.42857,-1.42858 z m 7.14286,-3.48711 c 0,-0.34649 -0.64286,-1.02729 -1.42858,-1.51289 -0.78571,-0.4856 -1.42857,-0.20211 -1.42857,0.62998 0,0.83208 0.64286,1.51288 1.42857,1.51288 0.78572,0 1.42858,-0.28348 1.42858,-0.62997 z m 2.85714,-2.22717 c 0,-0.78572 -0.6808,-1.42857 -1.51288,-1.42857 -0.83209,0 -1.11558,0.64285 -0.62998,1.42857 0.4856,0.78571 1.1664,1.42857 1.51288,1.42857 0.34649,0 0.62998,-0.64286 0.62998,-1.42857 z m 5.67291,-2.80134 c 1.15582,-0.73096 1.66857,-1.76193 1.13946,-2.29105 -0.52912,-0.52913 -2.00285,0.0789 -3.27496,1.35089 -2.51359,2.5136 -1.23944,3.07454 2.1355,0.94016 z m 8.6128,-5.77009 c 0,-0.78571 -0.64285,-1.42857 -1.42857,-1.42857 -0.78571,0 -1.42857,0.64286 -1.42857,1.42857 0,0.78571 0.64286,1.42857 1.42857,1.42857 0.78572,0 1.42857,-0.64286 1.42857,-1.42857 z m 8.53006,-4.22991 c 1.15582,-0.73096 1.66857,-1.76193 1.13946,-2.29105 -0.52912,-0.52913 -2.00285,0.0789 -3.27496,1.35089 -2.51359,2.5136 -1.23944,3.07454 2.1355,0.94016 z m 8.6128,-6.12583 c 0,-0.60337 -1.28571,-0.2941 -2.85714,0.68727 -1.57143,0.98137 -2.85715,2.27798 -2.85715,2.88136 0,0.60337 1.28572,0.2941 2.85715,-0.68728 1.57143,-0.98137 2.85714,-2.27798 2.85714,-2.88135 z m 17.14286,-10 c 0,-0.60338 -1.28572,-0.2941 -2.85715,0.68727 -1.57142,0.98138 -2.85714,2.27799 -2.85714,2.88136 0,0.60337 1.28572,0.2941 2.85714,-0.68728 1.57143,-0.98137 2.85715,-2.27798 2.85715,-2.88135 z m 6.56807,-3.55238 c -0.84682,-0.84681 -5.1395,1.36196 -5.1395,2.6445 0,0.7083 1.25648,0.50315 2.79217,-0.45591 1.5357,-0.95906 2.59199,-1.94392 2.34733,-2.18859 l 0,0 z m 10.57478,-6.44762 c 0,-0.60338 -1.28571,-0.2941 -2.85714,0.68727 -1.57143,0.98138 -2.85714,2.27799 -2.85714,2.88136 0,0.60337 1.28571,0.29409 2.85714,-0.68728 1.57143,-0.98137 2.85714,-2.27798 2.85714,-2.88135 z m 5.20409,-1.78712 c 2.3258,-2.3258 1.9797,-2.61708 -1.51581,-1.27573 -1.24285,0.47692 -2.2597,1.44121 -2.2597,2.14286 0,1.87084 1.34688,1.5615 3.77551,-0.86713 z m 7.61169,-3.51563 c 1.15581,-0.73096 1.54994,-1.84611 0.87584,-2.47812 -0.67409,-0.63201 -1.51396,-0.34153 -1.86634,0.64551 -0.3524,0.98704 -1.22869,1.43124 -1.94729,0.98712 -0.7186,-0.44412 -1.30656,-0.1267 -1.30656,0.70538 0,1.85173 1.4616,1.89998 4.24435,0.14012 l 0,-10e-6 z m 9.53117,-6.48437 c 2.3258,-2.3258 1.9797,-2.61708 -1.51582,-1.27573 -1.24284,0.47692 -2.2597,1.44121 -2.2597,2.14286 0,1.87084 1.34689,1.5615 3.77552,-0.86713 z m 6.22448,-3.65574 c 0,-0.83208 0.64286,-1.11557 1.42857,-0.62997 0.78572,0.4856 1.42858,0.20211 1.42858,-0.62998 0,-1.75232 -0.38392,-1.82408 -3.45459,-0.64575 -2.49246,0.95644 -3.09106,3.41859 -0.83113,3.41859 0.78572,0 1.42857,-0.6808 1.42857,-1.51289 z m 10,-5.62997 c 0,-0.78572 -0.64285,-1.42857 -1.42857,-1.42857 -0.78571,0 -1.42857,0.64285 -1.42857,1.42857 0,0.78571 0.64286,1.42857 1.42857,1.42857 0.78572,0 1.42857,-0.64286 1.42857,-1.42857 z m 7.14286,-4.37003 c 0,-0.83208 0.64286,-1.11557 1.42857,-0.62997 0.78572,0.4856 1.42857,0.20211 1.42857,-0.62998 0,-1.75232 -0.38391,-1.82408 -3.45458,-0.64575 -2.49246,0.95644 -3.09106,3.41859 -0.83113,3.41859 0.78571,0 1.42857,-0.6808 1.42857,-1.51289 z m 8.53006,-4.1456 c 1.15581,-0.73096 1.54994,-1.84612 0.87584,-2.47812 -0.67409,-0.63201 -1.51396,-0.34153 -1.86634,0.64551 -0.3524,0.98703 -1.22869,1.43124 -1.94729,0.98712 -0.7186,-0.44413 -1.30656,-0.1267 -1.30656,0.70538 0,1.85172 1.4616,1.89997 4.24435,0.14011 l 0,0 z m 8.6128,-5.77009 c 0,-0.78571 -0.64286,-1.42857 -1.42857,-1.42857 -0.78572,0 -1.42858,0.64286 -1.42858,1.42857 0,0.78572 0.64286,1.42858 1.42858,1.42858 0.78571,0 1.42857,-0.64286 1.42857,-1.42858 z m 7.14285,-3.48711 c 0,-0.34649 -0.64285,-1.02729 -1.42857,-1.51289 -0.78571,-0.48559 -1.42857,-0.2021 -1.42857,0.62998 0,0.83208 0.64286,1.51288 1.42857,1.51288 0.78572,0 1.42857,-0.28349 1.42857,-0.62997 z m 2.85715,-2.22717 c 0,-0.78572 -0.6808,-1.42857 -1.51289,-1.42857 -0.83208,0 -1.11557,0.64285 -0.62997,1.42857 0.4856,0.78571 1.1664,1.42857 1.51289,1.42857 0.34648,0 0.62997,-0.64286 0.62997,-1.42857 z m -125.98128,-3.92857 c -0.26206,-1.375 -1.91634,-2.70543 -3.67617,-2.9565 -3.0443,-0.43434 -3.1997,-1.08382 -3.1997,-13.37328 l 0,-12.91677 -5.34626,1.00297 c -6.63023,1.24384 -7.51088,1.77781 -7.51088,4.55418 0,1.64763 0.91292,1.98429 3.57143,1.31705 3.55545,-0.89236 3.57143,-0.85151 3.57143,9.13084 0,9.07484 -0.27137,10.02722 -2.85714,10.02722 -1.90477,0 -2.85715,0.95238 -2.85715,2.85714 0,2.56738 0.95238,2.85715 9.39047,2.85715 8.17243,0 9.32865,-0.32428 8.91397,-2.5 z m 131.65419,1.12723 c 1.15582,-0.73097 1.66857,-1.76194 1.13946,-2.29105 -0.52912,-0.52912 -2.00284,0.0788 -3.27496,1.35089 -2.51358,2.51359 -1.23944,3.07454 2.1355,0.94016 z m 8.6128,-5.8544 c 0,-0.83208 0.64286,-1.11557 1.42857,-0.62998 0.78572,0.4856 1.42857,0.20211 1.42857,-0.62997 0,-1.75232 -0.38391,-1.82408 -3.45458,-0.64576 -2.49246,0.95645 -3.09106,3.41859 -0.83113,3.41859 0.78571,0 1.42857,-0.6808 1.42857,-1.51288 z m 8.53006,-4.1456 c 1.15581,-0.73097 1.66857,-1.76194 1.13946,-2.29105 -0.52912,-0.52912 -2.00285,0.0788 -3.27496,1.35089 -2.51359,2.51359 -1.23944,3.07454 2.1355,0.94016 z m 8.6128,-6.12583 c 0,-0.60338 -1.28572,-0.2941 -2.85714,0.68727 -1.57143,0.98138 -2.85715,2.27799 -2.85715,2.88136 0,0.60337 1.28572,0.29409 2.85715,-0.68728 1.57142,-0.98137 2.85714,-2.27798 2.85714,-2.88135 z m -183.68827,0.91718 c 1.24283,-0.47692 2.2597,-2.15284 2.2597,-3.72427 0,-2.18214 -0.59063,-2.60074 -2.5,-1.77187 -4.68948,2.03573 -9.53939,1.48801 -10.06552,-1.13673 -0.39035,-1.94735 0.46942,-2.5 3.88934,-2.5 5.55264,0 6.04324,-3.90028 0.57206,-4.54797 -2.10012,-0.24861 -4.05586,-1.1764 -4.34609,-2.06173 -0.79014,-2.41031 3.41682,-3.49522 7.51358,-1.93763 2.84443,1.08145 3.7948,0.8909 4.48148,-0.89854 1.9757,-5.14859 -10.4545,-6.78734 -15.23352,-2.00832 -2.24583,2.24584 -2.55262,3.5651 -1.48316,6.378 0.85436,2.24712 0.84497,3.85759 -0.0256,4.39564 -2.29591,1.41895 -1.5358,7.58719 1.12601,9.13755 2.79792,1.62964 10.36172,1.99977 13.81174,0.67587 l -1e-5,0 z m 200.83113,-10.91718 c 0,-0.60338 -1.28572,-0.2941 -2.85715,0.68727 -1.57143,0.98138 -2.85714,2.27799 -2.85714,2.88136 0,0.60337 1.28571,0.29409 2.85714,-0.68728 1.57143,-0.98137 2.85715,-2.27798 2.85715,-2.88135 z m 6.56807,-3.55238 c -0.84682,-0.84681 -5.1395,1.36196 -5.1395,2.6445 0,0.7083 1.25647,0.50315 2.79217,-0.45591 1.5357,-0.95906 2.592,-1.94392 2.34733,-2.18859 l 0,0 z m 10.57478,-6.44762 c 0,-0.60338 -1.28571,-0.2941 -2.85714,0.68727 -1.57143,0.98138 -2.85714,2.27799 -2.85714,2.88136 0,0.60337 1.28571,0.29409 2.85714,-0.68728 1.57143,-0.98137 2.85714,-2.27798 2.85714,-2.88135 z m 5.20409,-1.78712 c 2.3258,-2.3258 1.9797,-2.61708 -1.51582,-1.27573 -1.24284,0.47692 -2.2597,1.44121 -2.2597,2.14286 0,1.87084 1.34689,1.5615 3.77552,-0.86713 z m 7.61168,-3.51563 c 1.15582,-0.73096 1.54995,-1.84611 0.87585,-2.47812 -0.67409,-0.63201 -1.51396,-0.34153 -1.86635,0.64551 -0.3524,0.98704 -1.22868,1.43124 -1.94728,0.98712 -0.7186,-0.44412 -1.30656,-0.1267 -1.30656,0.70538 0,1.85173 1.4616,1.89998 4.24434,0.14012 l 0,-10e-6 z m 9.53118,-6.48437 c 2.3258,-2.3258 1.9797,-2.61708 -1.51582,-1.27573 -1.24284,0.47692 -2.2597,1.44121 -2.2597,2.14286 0,1.87084 1.34689,1.5615 3.77552,-0.86713 z m 6.22448,-3.65574 c 0,-0.83208 0.64286,-1.11557 1.42857,-0.62997 0.78572,0.4856 1.42857,0.20211 1.42857,-0.62998 0,-1.75232 -0.38391,-1.82408 -3.45458,-0.64575 -2.49246,0.95644 -3.09106,3.41859 -0.83113,3.41859 0.78571,0 1.42857,-0.6808 1.42857,-1.51289 z m 8.87616,-7.05854 c -0.62836,-4.2813 -3.16187,-6.09192 -3.16187,-2.2597 0,1.11431 -0.3902,3.04288 -0.86713,4.28572 -0.60649,1.58046 -0.0367,2.25969 1.89544,2.25969 2.25692,0 2.64743,-0.78444 2.13356,-4.28571 z m 30.7667,3.23566 c -3.73214,-0.29429 -9.83929,-0.29429 -13.57143,0 -3.73214,0.29428 -0.67857,0.53506 6.78571,0.53506 7.46429,0 10.51786,-0.24078 6.78572,-0.53506 z m 38.57143,0 c -3.73214,-0.29429 -9.83929,-0.29429 -13.57143,0 -3.73214,0.29428 -0.67857,0.53506 6.78571,0.53506 7.46429,0 10.51786,-0.24078 6.78572,-0.53506 z"
       id="path4807"
       inkscape:connector-curvature="0"
       transform="translate(50.92857,-56.893275)" />
    <path
       style="opacity:0.74137932;fill:#d8dbf4;fill-opacity:0.38666669;stroke-width:1;stroke-miterlimit:4;stroke-dasharray:1, 3;stroke-dashoffset:0"
       d="m 511.57588,598.76416 0,-88.66417 11.07143,-0.48689 11.07143,-0.48688 -11.07143,-0.2875 -11.07143,-0.28749 0.0125,-15.35714 0.0125,-15.35715 156.0589,-90.04895 156.05888,-90.04895 0.36644,105.04585 c 0.23643,67.77471 -0.131,105.21168 -1.03571,105.51324 -0.77119,0.25706 -1.8285,0.36427 -2.34959,0.23823 -0.52107,-0.126 -1.35457,0.42963 -1.85221,1.23481 -0.81836,1.32416 -301.08786,175.28417 -305.43337,176.9517 -1.48667,0.57049 -1.83842,-16.2586 -1.83842,-87.95871 z m 54.64286,-89.83037 c -3.33928,-0.30076 -8.80357,-0.30076 -12.14286,0 -3.33928,0.30077 -0.60714,0.54685 6.07143,0.54685 6.67857,0 9.41072,-0.24608 6.07143,-0.54685 z m 40.71429,-0.004 c -3.73215,-0.29428 -9.83929,-0.29428 -13.57143,0 -3.73214,0.29429 -0.67857,0.53506 6.78571,0.53506 7.46429,0 10.51786,-0.24077 6.78572,-0.53506 z m 38.57143,0 c -3.73215,-0.29428 -9.83929,-0.29428 -13.57143,0 -3.73215,0.29429 -0.67857,0.53506 6.78571,0.53506 7.46429,0 10.51786,-0.24077 6.78572,-0.53506 z m 38.57142,0 c -3.73214,-0.29428 -9.83928,-0.29428 -13.57142,0 -3.73215,0.29429 -0.67858,0.53506 6.78571,0.53506 7.46429,0 10.51786,-0.24077 6.78571,-0.53506 z m 38.57143,0 c -3.73214,-0.29428 -9.83928,-0.29428 -13.57143,0 -3.73214,0.29429 -0.67857,0.53506 6.78572,0.53506 7.46428,0 10.51786,-0.24077 6.78571,-0.53506 z m 39.28572,0.004 c -3.33929,-0.30076 -8.80357,-0.30076 -12.14286,0 -3.33929,0.30077 -0.60714,0.54685 6.07143,0.54685 6.67857,0 9.41071,-0.24608 6.07143,-0.54685 z m 40.71428,-0.004 c -3.73214,-0.29428 -9.83928,-0.29428 -13.57143,0 -3.73214,0.29429 -0.67857,0.53506 6.78572,0.53506 7.46428,0 10.51786,-0.24077 6.78571,-0.53506 z"
       id="path4809"
       inkscape:connector-curvature="0"
       transform="translate(50.92857,-56.893275)" />
    <path
       style="fill:none;stroke:#000000;stroke-width:0;stroke-linecap:butt;stroke-linejoin:miter;stroke-opacity:1;stroke-miterlimit:4;stroke-dasharray:none"
       d="m 825.71429,295.83802 -295.71429,0 -114.28571,0 -313.65658,181.08971 407.94229,0 z"
       id="path4811"
       inkscape:connector-curvature="0"
       transform="translate(50.92857,-56.893275)" />
    <path
       style="opacity:0.74137932;fill:#d8dbf4;fill-opacity:0.38666669;stroke-width:1;stroke-miterlimit:4;stroke-dasharray:1, 3;stroke-dashoffset:0"
       d="m 110.14731,474.1812 c 0,-0.83208 0.64286,-1.11557 1.42857,-0.62997 0.78572,0.4856 1.42857,0.20211 1.42857,-0.62997 0,-0.83209 0.96429,-1.51289 2.14286,-1.51289 1.17857,0 2.14286,-0.6808 2.14286,-1.51288 0,-0.83209 0.64286,-1.11557 1.42857,-0.62997 0.78571,0.4856 1.42857,0.2718 1.42857,-0.4751 0,-0.74692 1.60714,-1.76139 3.57143,-2.25439 1.96429,-0.49301 3.57143,-1.56493 3.57143,-2.38204 0,-0.81712 0.64286,-1.08836 1.42857,-0.60276 0.78571,0.4856 1.42857,0.20211 1.42857,-0.62997 0,-0.83209 0.91837,-1.51289 2.04082,-1.51289 1.12245,0 2.90681,-0.80357 3.96526,-1.78571 1.05844,-0.98214 5.05397,-3.37053 8.87895,-5.30753 3.82498,-1.937 7.68789,-4.187 8.58424,-5 0.89635,-0.813 5.4646,-3.40676 10.15166,-5.7639 4.68706,-2.35714 8.84336,-4.65804 9.23621,-5.11312 0.39286,-0.45507 4.22779,-2.70507 8.52207,-5 4.29428,-2.29493 8.67948,-4.97617 9.7449,-5.95831 1.06541,-0.98214 2.75712,-1.78571 3.75935,-1.78571 1.00222,0 3.30467,-1.28572 5.11654,-2.85715 1.81187,-1.57142 4.16024,-2.85714 5.21859,-2.85714 1.05835,0 1.92427,-0.63061 1.92427,-1.40135 0,-0.77075 1.60714,-1.80472 3.57143,-2.29773 1.96428,-0.493 3.57143,-1.50748 3.57143,-2.25438 0,-0.74691 0.64285,-0.96071 1.42857,-0.47511 0.78571,0.4856 1.42857,0.20211 1.42857,-0.62998 0,-0.83208 0.86592,-1.51288 1.92427,-1.51288 1.05835,0 3.40671,-1.28571 5.21859,-2.85714 1.81187,-1.57143 4.16023,-2.85714 5.21858,-2.85714 1.05835,0 1.92427,-0.6808 1.92427,-1.51288 0,-0.83209 0.64286,-1.11558 1.42857,-0.62998 0.78572,0.4856 1.42858,0.20211 1.42858,-0.62998 0,-0.83208 0.91836,-1.51288 2.04081,-1.51288 1.12245,0 2.92029,-0.87947 3.9952,-1.95438 1.07491,-1.07491 3.37083,-2.40395 5.10204,-2.95341 1.73121,-0.54947 3.14766,-1.63651 3.14766,-2.41564 0,-0.77914 0.64286,-1.01931 1.42857,-0.53371 0.78572,0.4856 1.42857,0.20211 1.42857,-0.62998 0,-0.83208 0.96429,-1.51288 2.14286,-1.51288 1.17857,0 2.14286,-0.68079 2.14286,-1.51288 0,-0.83208 0.64285,-1.11557 1.42857,-0.62997 0.78571,0.48559 1.42857,0.2718 1.42857,-0.47511 0,-0.74691 1.60714,-1.76138 3.57143,-2.25439 1.96428,-0.493 3.57143,-1.56492 3.57143,-2.38203 0,-0.81712 0.64285,-1.08836 1.42857,-0.60276 0.78571,0.4856 1.42857,0.20211 1.42857,-0.62998 0,-0.83208 0.91837,-1.51288 2.04081,-1.51288 1.12246,0 2.90682,-0.80357 3.96526,-1.78571 1.05844,-0.98214 5.05397,-3.37053 8.87896,-5.30753 3.82498,-1.93699 7.68788,-4.18699 8.58424,-5 0.89634,-0.813 5.46459,-3.40676 10.15166,-5.7639 4.68706,-2.35714 8.84336,-4.65805 9.23621,-5.11312 0.39286,-0.45507 4.22779,-2.70507 8.52206,-5 4.29429,-2.29493 8.67949,-4.97617 9.7449,-5.95831 1.06541,-0.98214 2.75713,-1.78571 3.75936,-1.78571 1.00223,0 3.30467,-1.28572 5.11654,-2.85715 1.81187,-1.57142 4.16024,-2.85714 5.21859,-2.85714 1.05834,0 1.92427,-0.63061 1.92427,-1.40135 0,-0.77075 1.60714,-1.80472 3.57143,-2.29773 1.96428,-0.493 3.57142,-1.50748 3.57142,-2.25438 0,-0.74691 0.64286,-0.96071 1.42858,-0.47511 0.78571,0.4856 1.42857,0.20211 1.42857,-0.62998 0,-0.83208 0.86593,-1.51288 1.92427,-1.51288 1.05834,0 3.40671,-1.28571 5.21858,-2.85714 1.81188,-1.57143 4.16025,-2.85714 5.21859,-2.85714 1.05834,0 1.92427,-0.6808 1.92427,-1.51288 0,-0.83209 0.64286,-1.11558 1.42857,-0.62998 0.78572,0.4856 1.42857,0.20211 1.42857,-0.62998 0,-0.83208 0.91838,-1.51288 2.04082,-1.51288 1.12246,0 2.92028,-0.87947 3.9952,-1.95438 1.07491,-1.07491 3.37083,-2.40395 5.10204,-2.95341 1.73122,-0.54947 3.14766,-1.63651 3.14766,-2.41564 0,-0.77914 0.64286,-1.01931 1.42857,-0.53371 0.78571,0.4856 1.42857,0.20211 1.42857,-0.62998 0,-0.83208 0.91837,-1.51288 2.04082,-1.51288 1.12245,0 2.92028,-0.87947 3.9952,-1.95438 1.07491,-1.07491 3.37082,-2.40395 5.10204,-2.95341 1.73121,-0.54947 3.14766,-1.6365 3.14766,-2.41564 0,-0.77914 0.64285,-1.01931 1.42857,-0.53371 0.78571,0.4856 1.42857,0.2718 1.42857,-0.47511 0,-0.7469 1.60714,-1.76138 3.57143,-2.25438 1.96428,-0.49301 3.57143,-1.36627 3.57143,-1.94058 0,-0.57432 21.375,-1.03295 47.5,-1.01919 l 47.5,0.025 0.36795,88.90354 0.36796,88.90355 -45.7251,0 -45.7251,0 0,-6.42857 c 0,-3.53572 -0.64286,-6.42858 -1.42857,-6.42858 -0.78572,0 -1.42857,2.89286 -1.42857,6.42858 l 0,6.42857 -152.85715,0 c -106.63133,0 -152.85714,-0.45752 -152.85714,-1.51289 z m 308.57143,-37.05854 c 0,-7.61905 -0.58201,-12.85714 -1.42857,-12.85714 -0.84656,0 -1.42857,5.23809 -1.42857,12.85714 0,7.61904 0.58201,12.85714 1.42857,12.85714 0.84656,0 1.42857,-5.2381 1.42857,-12.85714 z m 0,-40 c 0,-6.66667 -0.59524,-11.42857 -1.42857,-11.42857 -0.83333,0 -1.42857,4.7619 -1.42857,11.42857 0,6.66667 0.59524,11.42857 1.42857,11.42857 0.83333,0 1.42857,-4.7619 1.42857,-11.42857 z m 0,-38.57143 c 0,-6.66667 -0.59524,-11.42857 -1.42857,-11.42857 -0.83333,0 -1.42857,4.7619 -1.42857,11.42857 0,6.66667 0.59524,11.42857 1.42857,11.42857 0.83333,0 1.42857,-4.7619 1.42857,-11.42857 z m 0,-40 c 0,-7.61905 -0.58201,-12.85714 -1.42857,-12.85714 -0.84656,0 -1.42857,5.23809 -1.42857,12.85714 0,7.61905 0.58201,12.85714 1.42857,12.85714 0.84656,0 1.42857,-5.23809 1.42857,-12.85714 z"
       id="path4813"
       inkscape:connector-curvature="0"
       transform="translate(50.92857,-56.893275)" />
    <path
       style="opacity:0.74137932;fill:#d8dbf4;fill-opacity:0.38666669;stroke-width:1;stroke-miterlimit:4;stroke-dasharray:1, 3;stroke-dashoffset:0"
       d="m 511.57588,386.51322 c 0,-48.3791 0.48215,-88.03494 1.07143,-88.12409 3.78057,-0.57198 303.20923,-0.41189 303.18853,0.1621 -0.0239,0.66231 -73.55787,43.27407 -225.65646,130.76429 -34.19621,19.67035 -65.87135,37.87825 -70.38921,40.46198 l -8.21429,4.6977 0,-87.96198 z"
       id="path4815"
       inkscape:connector-curvature="0"
       transform="translate(50.92857,-56.893275)" />
    <path
       style="fill:none;stroke:#000000;stroke-width:2;stroke-linecap:butt;stroke-linejoin:miter;stroke-opacity:0.70588237;marker-end:url(#Arrow2Lend);stroke-miterlimit:4;stroke-dasharray:none"
       d="m 472.85714,381.55231 0,-37.14286"
       id="path4817"
       inkscape:connector-curvature="0"
       transform="translate(50.92857,-56.893275)" />
    <text
       xml:space="preserve"
       style="font-size:30px;font-style:normal;font-weight:normal;line-height:125%;letter-spacing:0px;word-spacing:0px;fill:#000000;fill-opacity:0.70588237;stroke:none;font-family:Sans"
       x="483.78571"
       y="337.51617"
       id="text5005"
       sodipodi:linespacing="125%"><tspan
         sodipodi:role="line"
         id="tspan5007"
         x="483.78571"
         y="337.51617">Ez</tspan></text>
    <text
       xml:space="preserve"
       style="font-size:40px;font-style:normal;font-weight:normal;line-height:125%;letter-spacing:0px;word-spacing:0px;fill:#000000;fill-opacity:1;stroke:none;font-family:Sans"
       x="116.64285"
       y="694.659"
       id="text5009"
       sodipodi:linespacing="125%"><tspan
         sodipodi:role="line"
         id="tspan5011"
         x="116.64285"
         y="694.659">x</tspan></text>
    <text
       xml:space="preserve"
       style="font-size:40px;font-style:normal;font-weight:normal;line-height:125%;letter-spacing:0px;word-spacing:0px;fill:#000000;fill-opacity:1;stroke:none;font-family:Sans"
       x="916.64282"
       y="491.80191"
       id="text5013"
       sodipodi:linespacing="125%"><tspan
         sodipodi:role="line"
         id="tspan5015"
         x="916.64282"
         y="491.80191">y</tspan></text>
    <text
       xml:space="preserve"
       style="font-size:40px;font-style:normal;font-weight:normal;line-height:125%;letter-spacing:0px;word-spacing:0px;fill:#000000;fill-opacity:1;stroke:none;font-family:Sans"
       x="495.21426"
       y="-8.1981125"
       id="text5017"
       sodipodi:linespacing="125%"><tspan
         sodipodi:role="line"
         id="tspan5019"
         x="495.21426"
         y="-8.1981125">z</tspan></text>
    <path
       style="fill:none;stroke:#000000;stroke-width:2;stroke-linecap:butt;stroke-linejoin:miter;stroke-opacity:1;marker-end:url(#Arrow2Lend);stroke-miterlimit:4;stroke-dasharray:none"
       d="m 311.42857,358.69516 -31.61309,18.25183"
       id="path5021"
       inkscape:connector-curvature="0"
       transform="translate(50.92857,-56.893275)" />
    <text
       xml:space="preserve"
       style="font-size:30px;font-style:normal;font-weight:normal;line-height:125%;letter-spacing:0px;word-spacing:0px;fill:#000000;fill-opacity:0.70588237;stroke:none;font-family:Sans"
       x="362.35715"
       y="300.37332"
       id="text5207"
       sodipodi:linespacing="125%"><tspan
         sodipodi:role="line"
         id="tspan5209"
         x="362.35715"
         y="300.37332">Hx</tspan></text>
    <path
       style="fill:none;stroke:#000000;stroke-width:2;stroke-linecap:butt;stroke-linejoin:miter;stroke-miterlimit:4;stroke-opacity:0.70588237;stroke-dasharray:none;marker-end:url(#Arrow2Lend)"
       d="m 652.35714,238.94474 35.71428,0"
       id="path5211"
       inkscape:connector-curvature="0" />
    <text
       xml:space="preserve"
       style="font-size:30px;font-style:normal;font-weight:normal;line-height:125%;letter-spacing:0px;word-spacing:0px;fill:#000000;fill-opacity:0.70588237;stroke:none;font-family:Sans"
       x="603.78571"
       y="247.51616"
       id="text5397"
       sodipodi:linespacing="125%"><tspan
         sodipodi:role="line"
         id="tspan5399"
         x="603.78571"
         y="247.51616">Hy</tspan></text>
    <path
       style="fill:none;stroke:#000000;stroke-width:2;stroke-linecap:butt;stroke-linejoin:miter;stroke-miterlimit:4;stroke-opacity:0.70588237;stroke-dasharray:none;marker-end:url(#Arrow2Lend)"
       d="m 468.07143,148.94475 0,-35.71429"
       id="path5401"
       inkscape:connector-curvature="0" />
    <text
       xml:space="preserve"
       style="font-size:30px;font-style:normal;font-weight:normal;line-height:125%;letter-spacing:0px;word-spacing:0px;fill:#000000;fill-opacity:0.70666665;stroke:none;font-family:Sans"
       x="475.21429"
       y="160.37331"
       id="text5587"
       sodipodi:linespacing="125%"><tspan
         sodipodi:role="line"
         id="tspan5589"
         x="475.21429"
         y="160.37331">Hz</tspan></text>
    <path
       style="fill:none;stroke:#000000;stroke-width:2;stroke-linecap:butt;stroke-linejoin:miter;stroke-opacity:0.70588236999999998;stroke-miterlimit:4;stroke-dasharray:none;marker-end:url(#Arrow2Lend)"
       d="m 602.85714,192.98088 -35.61172,20.56043"
       id="path5591"
       inkscape:connector-curvature="0"
       transform="translate(50.92857,-56.893275)" />
    <text
       xml:space="preserve"
       style="font-size:30px;font-style:normal;font-weight:normal;line-height:125%;letter-spacing:0px;word-spacing:0px;fill:#000000;fill-opacity:0.70588235;stroke:none;font-family:Sans"
       x="636.64288"
       y="128.94473"
       id="text5777"
       sodipodi:linespacing="125%"><tspan
         sodipodi:role="line"
         id="tspan5779"
         x="636.64288"
         y="128.94473">Ex</tspan></text>
    <path
       style="fill:none;stroke:#000000;stroke-width:2;stroke-linecap:butt;stroke-linejoin:miter;stroke-miterlimit:4;stroke-opacity:0.70588235;stroke-dasharray:none;marker-end:url(#Arrow2Lend)"
       d="m 352.35714,198.94474 32.85715,0"
       id="path5781"
       inkscape:connector-curvature="0" />
    <text
       xml:space="preserve"
       style="font-size:30px;font-style:normal;font-weight:normal;line-height:125%;letter-spacing:0px;word-spacing:0px;fill:#000000;fill-opacity:0.70588235;stroke:none;font-family:Sans"
       x="313.78574"
       y="196.0876"
       id="text5967"
       sodipodi:linespacing="125%"><tspan
         sodipodi:role="line"
         id="tspan5969"
         x="313.78574"
         y="196.0876">Ey</tspan></text>
  </g>
</svg>
