<?xml version="1.0" encoding="UTF-8" standalone="no"?>
<!-- Created with Inkscape (http://www.inkscape.org/) -->

<svg
   xmlns:dc="http://purl.org/dc/elements/1.1/"
   xmlns:cc="http://creativecommons.org/ns#"
   xmlns:rdf="http://www.w3.org/1999/02/22-rdf-syntax-ns#"
   xmlns:svg="http://www.w3.org/2000/svg"
   xmlns="http://www.w3.org/2000/svg"
   xmlns:sodipodi="http://sodipodi.sourceforge.net/DTD/sodipodi-0.dtd"
   xmlns:inkscape="http://www.inkscape.org/namespaces/inkscape"
   width="635.81018"
   height="833.85455"
   id="svg3765"
   version="1.1"
   inkscape:version="0.48.4 r9939"
   sodipodi:docname="pml2.svg">
  <defs
     id="defs3767">
    <marker
       inkscape:stockid="Arrow1Lstart"
       orient="auto"
       refY="0"
       refX="0"
       id="Arrow1Lstart"
       style="overflow:visible">
      <path
         id="path5891"
         d="M 0,0 5,-5 -12.5,0 5,5 0,0 z"
         style="fill-rule:evenodd;stroke:#000000;stroke-width:1pt;marker-start:none"
         transform="matrix(0.8,0,0,0.8,10,0)"
         inkscape:connector-curvature="0" />
    </marker>
    <marker
       inkscape:stockid="Arrow2Lend"
       orient="auto"
       refY="0"
       refX="0"
       id="Arrow2Lend"
       style="overflow:visible">
      <path
         id="path5912"
         style="font-size:12px;fill-rule:evenodd;stroke-width:0.625;stroke-linejoin:round"
         d="M 8.7185878,4.0337352 -2.2072895,0.01601326 8.7185884,-4.0017078 c -1.7454984,2.3720609 -1.7354408,5.6174519 -6e-7,8.035443 z"
         transform="matrix(-1.1,0,0,-1.1,-1.1,0)"
         inkscape:connector-curvature="0" />
    </marker>
    <marker
       inkscape:stockid="Arrow1Lend"
       orient="auto"
       refY="0"
       refX="0"
       id="Arrow1Lend"
       style="overflow:visible">
      <path
         id="path5894"
         d="M 0,0 5,-5 -12.5,0 5,5 0,0 z"
         style="fill-rule:evenodd;stroke:#000000;stroke-width:1pt;marker-start:none"
         transform="matrix(-0.8,0,0,-0.8,-10,0)"
         inkscape:connector-curvature="0" />
    </marker>
    <inkscape:perspective
       sodipodi:type="inkscape:persp3d"
       inkscape:vp_x="0 : 526.18109 : 1"
       inkscape:vp_y="0 : 1000 : 0"
       inkscape:vp_z="744.09448 : 526.18109 : 1"
       inkscape:persp3d-origin="372.04724 : 350.78739 : 1"
       id="perspective4281" />
  </defs>
  <sodipodi:namedview
     id="base"
     pagecolor="#ffffff"
     bordercolor="#666666"
     borderopacity="1.0"
     inkscape:pageopacity="0.0"
     inkscape:pageshadow="2"
     inkscape:zoom="0.98994949"
     inkscape:cx="385.01142"
     inkscape:cy="291.19095"
     inkscape:document-units="px"
     inkscape:current-layer="layer1"
     showgrid="false"
     fit-margin-top="10"
     fit-margin-left="10"
     fit-margin-right="10"
     fit-margin-bottom="10"
     inkscape:window-width="1366"
     inkscape:window-height="744"
     inkscape:window-x="0"
     inkscape:window-y="24"
     inkscape:window-maximized="1" />
  <metadata
     id="metadata3770">
    <rdf:RDF>
      <cc:Work
         rdf:about="">
        <dc:format>image/svg+xml</dc:format>
        <dc:type
           rdf:resource="http://purl.org/dc/dcmitype/StillImage" />
        <dc:title />
      </cc:Work>
    </rdf:RDF>
  </metadata>
  <g
     inkscape:label="Layer 1"
     inkscape:groupmode="layer"
     id="layer1"
     style="display:inline"
     transform="translate(-1.116757,-79.005039)">
    <rect
       style="fill:#fefeff;fill-opacity:1;stroke-width:0.80000001;stroke-miterlimit:4;stroke-dasharray:none"
       id="rect4297"
       width="242.85715"
       height="168.57143"
       x="120"
       y="218.07646" />
    <rect
       style="opacity:0.61000001;fill:#fefeff;fill-opacity:1;stroke:#000000;stroke-width:1;stroke-miterlimit:4;stroke-opacity:1;stroke-dasharray:none"
       id="rect4303"
       width="340"
       height="294.28571"
       x="168.57143"
       y="175.21933" />
    <rect
       style="opacity:0.61000001000000004;fill:#dcdcff;fill-opacity:1;stroke:#000000;stroke-width:1;stroke-miterlimit:4;stroke-opacity:1;stroke-dasharray:none"
       id="rect4305"
       width="340"
       height="297.14285"
       x="168.57143"
       y="468.66818" />
    <rect
       style="opacity:0.61000001;fill:#fefeff;fill-opacity:1;stroke:#000000;stroke-width:0.99909848;stroke-miterlimit:4;stroke-opacity:1;stroke-dasharray:none"
       id="rect4307"
       width="339.80792"
       height="42.426407"
       x="168.80389"
       y="132.61829" />
    <rect
       style="opacity:0.61000001;fill:#fefeff;fill-opacity:1;stroke:#000000;stroke-width:1.72578788;stroke-miterlimit:4;stroke-opacity:1;stroke-dasharray:none"
       id="rect4313"
       width="339.90546"
       height="123.53911"
       x="540.37097"
       y="270.5368"
       transform="matrix(1,0,-0.94212987,0.33524814,0,0)" />
    <rect
       style="opacity:0.61000001;fill:#fefeff;fill-opacity:1;stroke:#000000;stroke-width:0.91001064;stroke-miterlimit:4;stroke-opacity:1;stroke-dasharray:none"
       id="rect4315"
       width="124.63263"
       height="41.494114"
       x="530.98022"
       y="312.3985"
       transform="matrix(0.94143604,-0.33719162,0.02520655,0.99968226,0,0)" />
    <text
       xml:space="preserve"
       style="font-size:20px;font-style:normal;font-weight:normal;line-height:125%;letter-spacing:0px;word-spacing:0px;fill:#000000;fill-opacity:1;stroke:none;font-family:Sans"
       x="321.22852"
       y="161.40762"
       id="text4317"
       sodipodi:linespacing="125%"><tspan
         sodipodi:role="line"
         id="tspan4319"
         x="321.22852"
         y="161.40762">PML</tspan></text>
    <rect
       style="opacity:0.61000001;fill:#fefeff;fill-opacity:1;stroke:#000000;stroke-width:1.10485566;stroke-miterlimit:4;stroke-opacity:1;stroke-dasharray:none"
       id="rect4323"
       width="124.73923"
       height="293.99628"
       x="542.30219"
       y="362.56686"
       transform="matrix(0.93882166,-0.34440369,0,1,0,0)" />
    <rect
       style="opacity:0.61000001000000004;fill:#dcdcff;fill-opacity:1;stroke:#000000;stroke-width:1.02940093999999993;stroke-miterlimit:4;stroke-opacity:1;stroke-dasharray:none"
       id="rect4347"
       width="124.99622"
       height="295.0892"
       x="543.42871"
       y="660.02844"
       transform="matrix(0.93717127,-0.34886961,0,1,0,0)" />
    <path
       style="fill:none;stroke:#000000;stroke-width:1;stroke-linecap:butt;stroke-linejoin:miter;stroke-miterlimit:4;stroke-opacity:1;stroke-dasharray:4, 2;stroke-dashoffset:0"
       d="m 625.71429,720.93361 -340,0"
       id="path4355"
       inkscape:connector-curvature="0" />
    <path
       style="fill:none;stroke:#000000;stroke-width:1;stroke-linecap:butt;stroke-linejoin:miter;stroke-miterlimit:4;stroke-opacity:1;stroke-dasharray:4, 2;stroke-dashoffset:0"
       d="m 285.71429,89.505039 0,630.000001"
       id="path4357"
       inkscape:connector-curvature="0" />
    <path
       style="fill:none;stroke:#000000;stroke-width:1;stroke-linecap:butt;stroke-linejoin:miter;stroke-miterlimit:4;stroke-opacity:1;stroke-dasharray:4, 2;stroke-dashoffset:0"
       d="M 168.57143,765.21933 286.42857,718.79075"
       id="path4359"
       inkscape:connector-curvature="0" />
    <path
       style="fill:#dcdcff;stroke:#000000;stroke-width:1px;stroke-linecap:butt;stroke-linejoin:miter;stroke-opacity:1;fill-opacity:1"
       d="m 168.69548,765.47886 0,42.93148 339.91633,0 0,-42.4264"
       id="path4368"
       inkscape:connector-curvature="0" />
    <path
       style="fill:#dcdcff;stroke:#000000;stroke-width:1px;stroke-linecap:butt;stroke-linejoin:miter;stroke-opacity:1;fill-opacity:1"
       d="m 508.61181,808.41034 117.17769,-46.97209 0,-39.90103"
       id="path4370"
       inkscape:connector-curvature="0" />
    <text
       xml:space="preserve"
       style="font-size:20px;font-style:normal;font-weight:normal;line-height:125%;letter-spacing:0px;word-spacing:0px;fill:#000000;fill-opacity:1;stroke:none;font-family:Sans"
       x="335.37067"
       y="793.76312"
       id="text4372"
       sodipodi:linespacing="125%"><tspan
         sodipodi:role="line"
         id="tspan4374"
         x="335.37067"
         y="793.76312">PML</tspan></text>
    <text
       xml:space="preserve"
       style="font-size:20px;font-style:normal;font-weight:normal;line-height:125%;letter-spacing:0px;word-spacing:0px;fill:#000000;fill-opacity:1;stroke:none;font-family:Sans"
       x="242.2751"
       y="581.96216"
       id="text4376"
       sodipodi:linespacing="125%"
       transform="matrix(0.80715252,-0.59034295,0.59034295,0.80715252,0,0)"
       inkscape:transform-center-x="64.649763"
       inkscape:transform-center-y="16.162441"><tspan
         sodipodi:role="line"
         id="tspan4378"
         x="242.2751"
         y="581.96216">Vacuum</tspan></text>
    <text
       xml:space="preserve"
       style="font-size:20px;font-style:normal;font-weight:normal;line-height:125%;letter-spacing:0px;word-spacing:0px;fill:#000000;fill-opacity:1;stroke:none;font-family:Sans"
       x="193.0242"
       y="804.71735"
       id="text4380"
       sodipodi:linespacing="125%"
       transform="matrix(0.8845027,-0.46653507,0.46653507,0.8845027,0,0)"><tspan
         sodipodi:role="line"
         id="tspan4382"
         x="193.0242"
         y="804.71735">Glass</tspan></text>
    <path
       style="fill:none;stroke:#000000;stroke-width:0.98397785;stroke-linecap:butt;stroke-linejoin:miter;stroke-miterlimit:4;stroke-opacity:1;stroke-dasharray:5.90386706, 1.96795569;stroke-dashoffset:0"
       d="m 284.86302,764.7803 0,-43.03386"
       id="path4384"
       inkscape:connector-curvature="0" />
    <rect
       style="fill:#dcdcff;fill-opacity:1;stroke:#000000;stroke-width:0.52950478000000001;stroke-miterlimit:4;stroke-opacity:1;stroke-dasharray:none;stroke-dashoffset:0"
       id="rect4390"
       width="41.899059"
       height="91.899055"
       x="329.76474"
       y="460.69836" />
    <rect
       style="fill:none;fill-opacity:1;stroke:#000000;stroke-width:1.76895081999999992;stroke-miterlimit:4;stroke-opacity:1;stroke-dasharray:none;stroke-dashoffset:0"
       id="rect4392"
       width="41.76593"
       height="75.533607"
       x="1640.6176"
       y="1313.9182"
       transform="matrix(1,0,-0.94352575,0.33129921,0,0)" />
    <path
       style="fill:none;stroke:#000000;stroke-width:1px;stroke-linecap:butt;stroke-linejoin:miter;stroke-opacity:1"
       d="m 330,468.79075 41.78571,0"
       id="path5844"
       inkscape:connector-curvature="0" />
    <path
       style="fill:#dcdcff;stroke:#000000;stroke-width:0.96852218999999995px;stroke-linecap:butt;stroke-linejoin:miter;stroke-opacity:1;fill-opacity:1"
       d="m 442.5,435.21932 0,84.42317 -70.71429,32.83123"
       id="path5848"
       inkscape:connector-curvature="0" />
    <rect
       style="fill:#ffffff;fill-opacity:1;stroke:#000000;stroke-width:1;stroke-miterlimit:4;stroke-opacity:1;stroke-dasharray:none;stroke-dashoffset:0"
       id="rect5850"
       width="14.142136"
       height="90.024849"
       x="458.60925"
       y="461.42294" />
    <rect
       style="fill:none;fill-opacity:1;stroke:#000000;stroke-width:1.84401332999999990;stroke-miterlimit:4;stroke-opacity:1;stroke-dasharray:none;stroke-dashoffset:0"
       id="rect5852"
       width="14.916924"
       height="55.825684"
       x="1650.9712"
       y="1235.5482"
       transform="matrix(0.99979922,-0.02003795,-0.92377031,0.38294701,0,0)" />
    <path
       style="fill:none;stroke:#000000;stroke-width:1px;stroke-linecap:butt;stroke-linejoin:miter;stroke-opacity:1"
       d="m 457.5991,468.49401 14.14214,0"
       id="path5878"
       inkscape:connector-curvature="0" />
    <path
       style="fill:none;stroke:#000000;stroke-width:0.98318863px;stroke-linecap:butt;stroke-linejoin:miter;stroke-opacity:1"
       d="m 524.28572,440.57647 0,86.65415 L 472.5,551.39711"
       id="path5880"
       inkscape:connector-curvature="0" />
    <path
       style="fill:none;stroke:#000000;stroke-width:1px;stroke-linecap:butt;stroke-linejoin:miter;stroke-opacity:1;marker-end:url(#Arrow1Lend)"
       d="m 127.27922,848.31137 0,-159.6041"
       id="path5886"
       inkscape:connector-curvature="0" />
    <path
       style="fill:none;stroke:#000000;stroke-width:1px;stroke-linecap:butt;stroke-linejoin:miter;stroke-opacity:1;marker-end:url(#Arrow1Lend)"
       d="m 127.27922,848.31137 167.68532,0"
       id="path7452"
       inkscape:connector-curvature="0" />
    <path
       style="fill:none;stroke:#000000;stroke-width:1px;stroke-linecap:butt;stroke-linejoin:miter;stroke-opacity:1;marker-end:url(#Arrow1Lend)"
       d="M 127.27922,847.8063 11.616757,893.26316"
       id="path7640"
       inkscape:connector-curvature="0" />
    <text
       xml:space="preserve"
       style="font-size:20px;font-style:normal;font-weight:normal;line-height:125%;letter-spacing:0px;word-spacing:0px;fill:#000000;fill-opacity:1;stroke:none;font-family:Sans"
       x="41.921329"
       y="902.85962"
       id="text7828"
       sodipodi:linespacing="125%"><tspan
         sodipodi:role="line"
         id="tspan7830"
         x="41.921329"
         y="902.85962">x</tspan></text>
    <text
       xml:space="preserve"
       style="font-size:20px;font-style:normal;font-weight:normal;line-height:125%;letter-spacing:0px;word-spacing:0px;fill:#000000;fill-opacity:1;stroke:none;font-family:Sans"
       x="104.55078"
       y="716.99152"
       id="text7832"
       sodipodi:linespacing="125%"><tspan
         sodipodi:role="line"
         id="tspan7834"
         x="104.55078"
         y="716.99152">z</tspan></text>
    <text
       xml:space="preserve"
       style="font-size:20px;font-style:normal;font-weight:normal;line-height:125%;letter-spacing:0px;word-spacing:0px;fill:#000000;fill-opacity:1;stroke:none;font-family:Sans"
       x="265.67014"
       y="874.07025"
       id="text7836"
       sodipodi:linespacing="125%"><tspan
         sodipodi:role="line"
         id="tspan7838"
         x="265.67014"
         y="874.07025">y</tspan></text>
    <path
       style="fill:#dcdcff;fill-opacity:1"
       d="m 507.99749,707.81603 0,-20.10765 53.62678,-19.95723 c 29.49472,-10.97648 53.77269,-19.80773 53.95106,-19.62502 0.31954,0.32735 -105.09656,78.80635 -106.73493,79.46083 -0.4636,0.18519 -0.84291,-8.71173 -0.84291,-19.77093 z"
       id="path3935"
       inkscape:connector-curvature="0"
       transform="translate(1.116757,79.005039)" />
    <path
       style="fill:#dcdcff;fill-opacity:1"
       d="m 515.15274,724.31984 c 0.2315,-0.22276 24.74032,-18.43108 54.46406,-40.46294 l 54.04316,-40.05793 0.27602,18.41814 c 0.15181,10.12998 -0.0755,18.75573 -0.50508,19.16834 -0.82445,0.79183 -106.88049,43.33941 -108.0298,43.33941 -0.36809,0 -0.47985,-0.18226 -0.24836,-0.40502 z"
       id="path3937"
       inkscape:connector-curvature="0"
       transform="translate(1.116757,79.005039)" />
    <path
       style="fill:#dcdcff;fill-opacity:1"
       d="m 515.62415,723.84517 c 0.5278,-0.48383 25.05178,-18.7236 54.49773,-40.53283 l 53.53808,-39.65312 0.27602,18.48801 c 0.15181,10.16842 -0.0755,18.82561 -0.50508,19.23822 -0.84001,0.80678 -106.89183,43.33941 -108.06347,43.33941 -0.38661,0 -0.27109,-0.39586 0.25672,-0.87969 z"
       id="path3939"
       inkscape:connector-curvature="0"
       transform="translate(1.116757,79.005039)" />
    <path
       style="fill:#dcdcff;fill-opacity:1"
       d="m 515.62415,723.82334 c 1.43159,-1.3449 102.53163,-76.21844 105.78574,-78.34372 l 2.8007,-1.82916 -0.27532,19.01718 -0.27531,19.01718 -53.53808,21.48359 c -29.44595,11.81598 -53.96993,21.49999 -54.49773,21.52002 -0.60609,0.023 -0.60609,-0.29571 0,-0.86509 l 0,0 z"
       id="path3941"
       inkscape:connector-curvature="0"
       transform="translate(1.116757,79.005039)" />
    <path
       style="fill:#dcdcff;fill-opacity:1"
       d="m 371.81544,385.06947 0.31654,-3.27459 33.33503,-11.73379 c 18.33427,-6.45359 33.47263,-11.62308 33.6408,-11.48776 0.16817,0.13533 -3.69566,6.87437 -8.5863,14.97565 l -8.89206,14.7296 -25.06527,0.0327 -25.06528,0.0327 0.31654,-3.27459 z"
       id="path4053"
       inkscape:connector-curvature="0"
       transform="translate(1.116757,79.005039)" />
    <path
       style="fill:#dcdcff;fill-opacity:1"
       d="m 371.6269,430.9725 0,-39.59798 23.73859,0 c 13.05622,0 23.73858,0.29322 23.73858,0.6516 0,0.74101 -45.28004,76.11059 -46.61083,77.58472 -0.48327,0.53531 -0.86634,-16.54942 -0.86634,-38.63834 z"
       id="path4055"
       inkscape:connector-curvature="0"
       transform="translate(1.116757,79.005039)" />
    <path
       style="fill:#dcdcff;fill-opacity:1"
       d="m 373.1033,468.39865 c -0.41803,-0.97227 -0.97691,-18.73892 -1.24195,-39.48143 l -0.4819,-37.71367 22.76957,0.33802 c 12.52326,0.18592 23.05315,0.62232 23.39975,0.9698 0.3466,0.34747 -3.76968,8.07514 -9.14728,17.17259 -11.08321,18.74979 -11.12427,18.8228 -10.0318,17.83617 0.4415,-0.39872 5.69402,-8.80824 11.67227,-18.68782 5.97824,-9.87958 15.12219,-24.98494 20.31988,-33.56746 l 9.45036,-15.6046 0.26443,39.78585 c 0.14544,21.88222 -0.0818,40.11165 -0.50507,40.50984 -0.95438,0.8979 -64.02261,30.21048 -65.00015,30.21048 -0.38943,0 -1.05008,-0.7955 -1.46811,-1.76777 z m 8.51054,-12.6269 c 1.26482,-2.08344 2.06935,-3.78808 1.78786,-3.78808 -0.63424,0 -9.76177,14.95025 -9.7353,15.94574 0.0177,0.66643 2.04312,-2.43194 7.94744,-12.15766 z m 4.1552,-6.81853 c 0.59468,-1.11117 0.85395,-2.02031 0.57616,-2.02031 -0.2778,0 -0.99164,0.90914 -1.58632,2.02031 -0.59467,1.11116 -0.85395,2.0203 -0.57615,2.0203 0.27779,0 0.99163,-0.90914 1.58631,-2.0203 l 0,0 z m 6.86293,-11.53057 c 1.27448,-2.26974 1.50177,-3.02916 0.50507,-1.6876 -0.99669,1.34156 -2.85492,4.29625 -4.12941,6.56599 -1.27448,2.26974 -1.50177,3.02916 -0.50507,1.6876 0.99669,-1.34156 2.85492,-4.29626 4.12941,-6.56599 z m 4.24874,-6.65218 c 0.59468,-1.11117 0.85396,-2.02031 0.57616,-2.02031 -0.27779,0 -0.99163,0.90914 -1.58631,2.02031 -0.59468,1.11117 -0.85395,2.0203 -0.57616,2.0203 0.2778,0 0.99164,-0.90913 1.58631,-2.0203 z"
       id="path4057"
       inkscape:connector-curvature="0"
       transform="translate(1.116757,79.005039)" />
    <path
       style="fill:#dcdcff;fill-opacity:1"
       d="m 509.00765,378.47622 0,-10.85057 5.84822,-2.2677 c 3.21653,-1.24724 6.1866,-2.2677 6.60017,-2.2677 0.41357,0 0.62292,4.84166 0.46523,10.75925 l -0.28672,10.75924 -6.31345,2.35902 -6.31345,2.35903 0,-10.85057 z"
       id="path4059"
       inkscape:connector-curvature="0"
       transform="translate(1.116757,79.005039)" />
    <path
       style="fill:#dcdcff;fill-opacity:1"
       d="m 472.65424,385.56614 c 0.0127,-2.91488 0.32173,-3.0709 28.98184,-14.63033 l 4.34111,-1.7509 0,9.57958 0,9.57957 -16.66752,0 -16.66751,0 0.0121,-2.77792 z"
       id="path4061"
       inkscape:connector-curvature="0"
       transform="translate(1.116757,79.005039)" />
    <path
       style="fill:#dcdcff;fill-opacity:1"
       d="m 459.61677,508.34694 0,-41.83467 6.06092,0 6.06091,0 0,41.83467 0,41.83467 -6.06091,0 -6.06092,0 0,-41.83467 z"
       id="path4063"
       inkscape:connector-curvature="0" />
    <path
       style="fill:#dcdcff;fill-opacity:1"
       d="m 461.27794,389.63363 c 1.80565,-0.22408 4.76034,-0.22408 6.56599,0 1.80565,0.22408 0.3283,0.40741 -3.28299,0.40741 -3.6113,0 -5.08865,-0.18333 -3.283,-0.40741 z"
       id="path4065"
       inkscape:connector-curvature="0"
       transform="translate(1.116757,79.005039)" />
    <path
       style="fill:#dcdcff;fill-opacity:1"
       d="m 458.50002,386.32376 c 0,-1.79583 0.67344,-2.02031 6.06092,-2.02031 5.38748,0 6.06091,0.22448 6.06091,2.02031 0,1.79582 -0.67343,2.0203 -6.06091,2.0203 -5.38748,0 -6.06092,-0.22448 -6.06092,-2.0203 z"
       id="path4067"
       inkscape:connector-curvature="0"
       transform="translate(1.116757,79.005039)" />
    <path
       style="fill:none;stroke:#000000;stroke-width:1px;stroke-linecap:butt;stroke-linejoin:miter;stroke-opacity:1"
       d="m 414.66762,389.38743 93.43911,0"
       id="path4069"
       inkscape:connector-curvature="0"
       transform="translate(1.116757,79.005039)" />
    <path
       style="fill:none"
       d="m 169.83991,387.58344 c -0.99036,-0.33012 -1.25367,-30.84621 -1.25367,-145.2906 l 0,-144.87271 57.49452,0 c 45.0079,0 57.62248,0.27423 58.08377,1.262691 0.4714,1.010152 0.70711,1.010152 1.1785,0 0.46612,-0.998817 23.58146,-1.262691 110.61171,-1.262691 l 110.02245,0 0,124.24876 0,124.24877 -2.52538,0 c -1.38896,0 -2.52538,0.45456 -2.52538,1.01015 0,0.55558 1.13642,1.01015 2.52538,1.01015 2.42902,0 2.52538,0.24513 2.52538,6.42453 l 0,6.42454 -25.04007,10.33641 -25.04006,10.3364 0.40184,3.44212 0.40185,3.4421 -7.18158,0 -7.18159,0 0,-16.66751 0,-16.66752 -21.06622,0 -21.06621,0 -35.75487,12.53007 -35.75486,12.53008 -0.31062,4.13744 -0.31063,4.13744 -76.96604,-0.0797 c -42.33133,-0.0439 -76.39784,-0.30902 -75.70336,-0.58925 0.69448,-0.28023 1.26269,-0.9262 1.26269,-1.43548 0,-1.38327 -2.69511,-1.11701 -4.23001,0.41789 -0.73913,0.73912 -1.90802,1.15581 -2.59754,0.92597 l 0,0 z m 115.92402,-2.77491 c 0,-1.38896 -0.45456,-2.52538 -1.01015,-2.52538 -0.55558,0 -1.01015,1.13642 -1.01015,2.52538 0,1.38896 0.45457,2.52538 1.01015,2.52538 0.55559,0 1.01015,-1.13642 1.01015,-2.52538 z m -105.08511,0.54453 c 0.81728,-0.51686 1.22327,-1.20245 0.90219,-1.52354 -0.79575,-0.79575 -3.9034,0.47183 -3.9034,1.59216 0,1.15135 1.11236,1.12593 3.00121,-0.0686 l 0,-3e-5 z m 6.06091,-2.0203 c 0.81729,-0.51687 1.19247,-1.23327 0.83374,-1.59199 -0.88322,-0.88323 -4.84509,0.44195 -4.84509,1.6206 0,1.20196 2.08909,1.18706 4.01135,-0.0286 l 0,-3e-5 z m 6.91305,-3.1467 c 0.17479,-0.45093 0.85664,-0.6229 1.51523,-0.38216 1.49667,0.54711 4.40738,-1.21351 3.50239,-2.1185 -0.87847,-0.87847 -9.88111,2.57723 -9.88111,3.79291 0,1.09353 4.39095,-0.0731 4.86349,-1.29225 l 0,0 z m 92.11115,-1.43845 c 0,-1.38896 -0.45456,-2.52538 -1.01015,-2.52538 -0.55558,0 -1.01015,1.13642 -1.01015,2.52538 0,1.38896 0.45457,2.52539 1.01015,2.52539 0.55559,0 1.01015,-1.13643 1.01015,-2.52539 z m -80.89638,-2.14579 c 0.23149,-0.20877 0.15211,-0.64838 -0.17641,-0.9769 -0.87053,-0.87053 -4.79017,0.55621 -4.79017,1.74361 0,0.88698 3.77996,0.30345 4.96658,-0.76671 z m 4.09554,-1.35028 c 0.81728,-0.51687 1.17781,-1.24792 0.80118,-1.62456 -0.92439,-0.92438 -3.80239,0.25138 -3.80239,1.5534 0,1.283 1.0458,1.3078 3.00121,0.0711 l 0,4e-5 z m 76.80084,-2.56484 c 0,-1.38896 -0.45456,-2.52538 -1.01015,-2.52538 -0.55558,0 -1.01015,1.13642 -1.01015,2.52538 0,1.38896 0.45457,2.52538 1.01015,2.52538 0.55559,0 1.01015,-1.13642 1.01015,-2.52538 z m -70.73993,0.54453 c 0.81729,-0.51686 1.19247,-1.23326 0.83374,-1.59199 -0.88322,-0.88323 -4.84509,0.44195 -4.84509,1.62061 0,1.20196 2.08909,1.18706 4.01135,-0.0286 l 0,-3e-5 z m 7.42545,-2.65979 c 2.5991,-0.8856 4.72564,-2.02202 4.72564,-2.52538 0,-1.26476 -0.79974,-1.16266 -5.77461,0.73727 -2.3798,0.90885 -4.32692,2.04527 -4.32692,2.52538 0,1.12483 -0.14909,1.14528 5.37589,-0.73727 z m 63.31448,-3.94566 c 0,-1.38896 -0.45456,-2.52538 -1.01015,-2.52538 -0.55558,0 -1.01015,1.13642 -1.01015,2.52538 0,1.38896 0.45457,2.52538 1.01015,2.52538 0.55559,0 1.01015,-1.13642 1.01015,-2.52538 z m -52.61211,-0.12549 c 0.2315,-0.20877 0.15211,-0.64837 -0.17641,-0.9769 -0.87053,-0.87053 -4.79017,0.55621 -4.79017,1.74362 0,0.88697 3.77996,0.30345 4.96658,-0.76672 l 0,0 z m 4.09554,-1.35028 c 0.81728,-0.51686 1.17782,-1.24791 0.80118,-1.62456 -0.92438,-0.92438 -3.80238,0.25138 -3.80238,1.55341 0,1.28299 1.04579,1.30779 3.0012,0.0711 l 0,4e-5 z m 7.01614,-2.69033 c 0.23149,-0.20877 0.15211,-0.64837 -0.17641,-0.9769 -0.87053,-0.87053 -4.79017,0.55621 -4.79017,1.74362 0,0.88697 3.77996,0.30345 4.96658,-0.76672 l 0,0 z m 41.50043,-1.89481 c 0,-1.38896 -0.45456,-2.52538 -1.01015,-2.52538 -0.55558,0 -1.01015,1.13642 -1.01015,2.52538 0,1.38896 0.45457,2.52538 1.01015,2.52538 0.55559,0 1.01015,-1.13642 1.01015,-2.52538 z m -35.03021,-0.095 c 2.5991,-0.8856 4.72564,-2.02202 4.72564,-2.52538 0,-1.33757 -2.6722,-1.11758 -4.221,0.34749 -0.73416,0.69448 -2.2061,1.2627 -3.27097,1.2627 -1.06486,0 -2.12553,0.56821 -2.35702,1.26269 -0.52865,1.58596 -0.55657,1.58784 5.12335,-0.3475 z M 261.333,355.9424 c 0.17479,-0.45093 0.85664,-0.6229 1.51523,-0.38216 1.49667,0.54711 4.40738,-1.21351 3.50239,-2.1185 -0.87847,-0.87847 -9.88111,2.57723 -9.88111,3.79291 0,1.09353 4.39095,-0.0731 4.86349,-1.29225 z m 24.43093,-1.43845 c 0,-1.38896 -0.45456,-2.52538 -1.01015,-2.52538 -0.55558,0 -1.01015,1.13642 -1.01015,2.52538 0,1.38896 0.45457,2.52538 1.01015,2.52538 0.55559,0 1.01015,-1.13642 1.01015,-2.52538 z m -13.21615,-2.14579 c 0.23148,-0.20877 0.1521,-0.64838 -0.17642,-0.9769 -0.87053,-0.87053 -4.79017,0.55621 -4.79017,1.74361 0,0.88698 3.77996,0.30345 4.96659,-0.76671 z m 4.09553,-1.35028 c 0.81728,-0.51687 1.17782,-1.24792 0.80118,-1.62456 -0.92439,-0.92438 -3.80239,0.25137 -3.80239,1.5534 0,1.28299 1.04581,1.30779 3.00121,0.0711 l 0,5e-5 z m 9.12062,-1.55469 c 0,-0.84179 0.89792,-1.51523 2.02031,-1.51523 1.11117,0 2.02031,-0.45457 2.02031,-1.01015 0,-1.33446 -3.96053,-1.28512 -7.93049,0.0988 -3.76413,1.31218 -4.30899,3.25319 -0.65581,2.33629 1.55604,-0.39053 2.52538,-0.20406 2.52538,0.48584 0,0.61581 0.45457,1.11966 1.01015,1.11966 0.55559,0 1.01015,-0.68185 1.01015,-1.51523 l 0,3e-5 z m 10.10153,-2.52538 c 0,-0.55559 -1.13642,-1.01015 -2.52538,-1.01015 -1.38896,0 -2.52538,0.45456 -2.52538,1.01015 0,0.55558 1.13642,1.01015 2.52538,1.01015 1.38896,0 2.52538,-0.45457 2.52538,-1.01015 z m 6.06092,0 c 0,-0.55559 -1.13643,-1.01015 -2.52539,-1.01015 -1.38896,0 -2.52538,0.45456 -2.52538,1.01015 0,0.55558 1.13642,1.01015 2.52538,1.01015 1.38896,0 2.52539,-0.45457 2.52539,-1.01015 z m 6.06091,0 c 0,-0.55559 -1.13642,-1.01015 -2.52538,-1.01015 -1.38896,0 -2.52538,0.45456 -2.52538,1.01015 0,0.55558 1.13642,1.01015 2.52538,1.01015 1.38896,0 2.52538,-0.45457 2.52538,-1.01015 z m 6.06092,0 c 0,-0.55559 -1.13643,-1.01015 -2.52539,-1.01015 -1.38895,0 -2.52538,0.45456 -2.52538,1.01015 0,0.55558 1.13643,1.01015 2.52538,1.01015 1.38896,0 2.52539,-0.45457 2.52539,-1.01015 z m 6.06091,0 c 0,-0.55559 -1.13642,-1.01015 -2.52538,-1.01015 -1.38896,0 -2.52538,0.45456 -2.52538,1.01015 0,0.55558 1.13642,1.01015 2.52538,1.01015 1.38896,0 2.52538,-0.45457 2.52538,-1.01015 z m 5.55584,0 c -0.34337,-0.55559 -1.50662,-1.01015 -2.585,-1.01015 -1.07838,0 -1.96069,0.45456 -1.96069,1.01015 0,0.55558 1.16326,1.01015 2.585,1.01015 1.4661,0 2.31477,-0.43723 1.96069,-1.01015 z m 5.55584,0 c 0,-0.55559 -0.90914,-1.01015 -2.02031,-1.01015 -1.11116,0 -2.0203,0.45456 -2.0203,1.01015 0,0.55558 0.90914,1.01015 2.0203,1.01015 1.11117,0 2.02031,-0.45457 2.02031,-1.01015 z m 6.06091,0 c 0,-0.55559 -1.13642,-1.01015 -2.52538,-1.01015 -1.38896,0 -2.52538,0.45456 -2.52538,1.01015 0,0.55558 1.13642,1.01015 2.52538,1.01015 1.38896,0 2.52538,-0.45457 2.52538,-1.01015 z m 6.06092,0 c 0,-0.55559 -1.13642,-1.01015 -2.52538,-1.01015 -1.38896,0 -2.52538,0.45456 -2.52538,1.01015 0,0.55558 1.13642,1.01015 2.52538,1.01015 1.38896,0 2.52538,-0.45457 2.52538,-1.01015 z m 6.06092,0 c 0,-0.55559 -1.13643,-1.01015 -2.52539,-1.01015 -1.38896,0 -2.52538,0.45456 -2.52538,1.01015 0,0.55558 1.13642,1.01015 2.52538,1.01015 1.38896,0 2.52539,-0.45457 2.52539,-1.01015 z m 6.06091,0 c 0,-0.55559 -1.13642,-1.01015 -2.52538,-1.01015 -1.38896,0 -2.52538,0.45456 -2.52538,1.01015 0,0.55558 1.13642,1.01015 2.52538,1.01015 1.38896,0 2.52538,-0.45457 2.52538,-1.01015 z m 6.06092,0 c 0,-0.55559 -1.13643,-1.01015 -2.52539,-1.01015 -1.38896,0 -2.52538,0.45456 -2.52538,1.01015 0,0.55558 1.13642,1.01015 2.52538,1.01015 1.38896,0 2.52539,-0.45457 2.52539,-1.01015 z m 6.06091,0 c 0,-0.55559 -1.13642,-1.01015 -2.52538,-1.01015 -1.38896,0 -2.52538,0.45456 -2.52538,1.01015 0,0.55558 1.13642,1.01015 2.52538,1.01015 1.38896,0 2.52538,-0.45457 2.52538,-1.01015 z m 6.06092,0 c 0,-0.55559 -1.13643,-1.01015 -2.52539,-1.01015 -1.38895,0 -2.52538,0.45456 -2.52538,1.01015 0,0.55558 1.13643,1.01015 2.52538,1.01015 1.38896,0 2.52539,-0.45457 2.52539,-1.01015 z m 6.06091,0 c 0,-0.55559 -1.13642,-1.01015 -2.52538,-1.01015 -1.38896,0 -2.52538,0.45456 -2.52538,1.01015 0,0.55558 1.13642,1.01015 2.52538,1.01015 1.38896,0 2.52538,-0.45457 2.52538,-1.01015 z m 6.06092,0 c 0,-0.55559 -1.13642,-1.01015 -2.52538,-1.01015 -1.38896,0 -2.52539,0.45456 -2.52539,1.01015 0,0.55558 1.13643,1.01015 2.52539,1.01015 1.38896,0 2.52538,-0.45457 2.52538,-1.01015 z m 6.06091,0 c 0,-0.55559 -1.13642,-1.01015 -2.52538,-1.01015 -1.38896,0 -2.52538,0.45456 -2.52538,1.01015 0,0.55558 1.13642,1.01015 2.52538,1.01015 1.38896,0 2.52538,-0.45457 2.52538,-1.01015 z m 6.06092,0 c 0,-0.55559 -1.13642,-1.01015 -2.52538,-1.01015 -1.38896,0 -2.52539,0.45456 -2.52539,1.01015 0,0.55558 1.13643,1.01015 2.52539,1.01015 1.38896,0 2.52538,-0.45457 2.52538,-1.01015 z m 6.06091,0 c 0,-0.55559 -1.13642,-1.01015 -2.52538,-1.01015 -1.38896,0 -2.52538,0.45456 -2.52538,1.01015 0,0.55558 1.13642,1.01015 2.52538,1.01015 1.38896,0 2.52538,-0.45457 2.52538,-1.01015 z m 6.06092,0 c 0,-0.55559 -1.13642,-1.01015 -2.52538,-1.01015 -1.38896,0 -2.52538,0.45456 -2.52538,1.01015 0,0.55558 1.13642,1.01015 2.52538,1.01015 1.38896,0 2.52538,-0.45457 2.52538,-1.01015 z m 6.06091,0 c 0,-0.55559 -1.13642,-1.01015 -2.52538,-1.01015 -1.38896,0 -2.52538,0.45456 -2.52538,1.01015 0,0.55558 1.13642,1.01015 2.52538,1.01015 1.38896,0 2.52538,-0.45457 2.52538,-1.01015 z m 6.06092,0 c 0,-0.55559 -1.13642,-1.01015 -2.52538,-1.01015 -1.38896,0 -2.52538,0.45456 -2.52538,1.01015 0,0.55558 1.13642,1.01015 2.52538,1.01015 1.38896,0 2.52538,-0.45457 2.52538,-1.01015 z m 5.05076,0 c 0,-0.55559 -0.90914,-1.01015 -2.0203,-1.01015 -1.11117,0 -2.02031,0.45456 -2.02031,1.01015 0,0.55558 0.90914,1.01015 2.02031,1.01015 1.11116,0 2.0203,-0.45457 2.0203,-1.01015 z m 6.06092,0 c 0,-0.55559 -0.88231,-1.01015 -1.96069,-1.01015 -1.07838,0 -2.24163,0.45456 -2.585,1.01015 -0.35408,0.57292 0.49459,1.01015 1.96069,1.01015 1.42175,0 2.585,-0.45457 2.585,-1.01015 z m 6.06091,0 c 0,-0.55559 -1.13642,-1.01015 -2.52538,-1.01015 -1.38896,0 -2.52538,0.45456 -2.52538,1.01015 0,0.55558 1.13642,1.01015 2.52538,1.01015 1.38896,0 2.52538,-0.45457 2.52538,-1.01015 z m 6.06092,0 c 0,-0.55559 -1.13642,-1.01015 -2.52538,-1.01015 -1.38896,0 -2.52539,0.45456 -2.52539,1.01015 0,0.55558 1.13643,1.01015 2.52539,1.01015 1.38896,0 2.52538,-0.45457 2.52538,-1.01015 z m 6.06091,0 c 0,-0.55559 -1.13642,-1.01015 -2.52538,-1.01015 -1.38896,0 -2.52538,0.45456 -2.52538,1.01015 0,0.55558 1.13642,1.01015 2.52538,1.01015 1.38896,0 2.52538,-0.45457 2.52538,-1.01015 z m 6.06092,0 c 0,-0.55559 -1.13642,-1.01015 -2.52538,-1.01015 -1.38896,0 -2.52539,0.45456 -2.52539,1.01015 0,0.55558 1.13643,1.01015 2.52539,1.01015 1.38896,0 2.52538,-0.45457 2.52538,-1.01015 z m 6.06091,0 c 0,-0.55559 -1.13642,-1.01015 -2.52538,-1.01015 -1.38896,0 -2.52538,0.45456 -2.52538,1.01015 0,0.55558 1.13642,1.01015 2.52538,1.01015 1.38896,0 2.52538,-0.45457 2.52538,-1.01015 z m 6.06092,0 c 0,-0.55559 -1.13642,-1.01015 -2.52538,-1.01015 -1.38896,0 -2.52538,0.45456 -2.52538,1.01015 0,0.55558 1.13642,1.01015 2.52538,1.01015 1.38896,0 2.52538,-0.45457 2.52538,-1.01015 z m 6.06091,0 c 0,-0.55559 -1.13642,-1.01015 -2.52538,-1.01015 -1.38896,0 -2.52538,0.45456 -2.52538,1.01015 0,0.55558 1.13642,1.01015 2.52538,1.01015 1.38896,0 2.52538,-0.45457 2.52538,-1.01015 z m 6.06092,0 c 0,-0.55559 -1.13642,-1.01015 -2.52538,-1.01015 -1.38896,0 -2.52538,0.45456 -2.52538,1.01015 0,0.55558 1.13642,1.01015 2.52538,1.01015 1.38896,0 2.52538,-0.45457 2.52538,-1.01015 z m 6.06091,0 c 0,-0.55559 -1.13642,-1.01015 -2.52538,-1.01015 -1.38896,0 -2.52538,0.45456 -2.52538,1.01015 0,0.55558 1.13642,1.01015 2.52538,1.01015 1.38896,0 2.52538,-0.45457 2.52538,-1.01015 z m 6.06092,0 c 0,-0.55559 -1.13642,-1.01015 -2.52538,-1.01015 -1.38896,0 -2.52538,0.45456 -2.52538,1.01015 0,0.55558 1.13642,1.01015 2.52538,1.01015 1.38896,0 2.52538,-0.45457 2.52538,-1.01015 z m 6.06091,0 c 0,-0.55559 -1.13642,-1.01015 -2.52538,-1.01015 -1.38896,0 -2.52538,0.45456 -2.52538,1.01015 0,0.55558 1.13642,1.01015 2.52538,1.01015 1.38896,0 2.52538,-0.45457 2.52538,-1.01015 z m -214.15234,-4.54569 c 0,-1.38896 -0.45456,-2.52538 -1.01015,-2.52538 -0.55558,0 -1.01015,1.13642 -1.01015,2.52538 0,1.38896 0.45457,2.52538 1.01015,2.52538 0.55559,0 1.01015,-1.13642 1.01015,-2.52538 z m 0,-6.06091 c 0,-1.38896 -0.45456,-2.52538 -1.01015,-2.52538 -0.55558,0 -1.01015,1.13642 -1.01015,2.52538 0,1.38896 0.45457,2.52538 1.01015,2.52538 0.55559,0 1.01015,-1.13642 1.01015,-2.52538 z m 0,-6.06092 c 0,-1.38896 -0.45456,-2.52538 -1.01015,-2.52538 -0.55558,0 -1.01015,1.13642 -1.01015,2.52538 0,1.38896 0.45457,2.52538 1.01015,2.52538 0.55559,0 1.01015,-1.13642 1.01015,-2.52538 z m 0,-6.06091 c 0,-1.38896 -0.45456,-2.52539 -1.01015,-2.52539 -0.55558,0 -1.01015,1.13643 -1.01015,2.52539 0,1.38896 0.45457,2.52538 1.01015,2.52538 0.55559,0 1.01015,-1.13642 1.01015,-2.52538 z m 0,-6.06092 c 0,-1.38896 -0.45456,-2.52538 -1.01015,-2.52538 -0.55558,0 -1.01015,1.13642 -1.01015,2.52538 0,1.38896 0.45457,2.52538 1.01015,2.52538 0.55559,0 1.01015,-1.13642 1.01015,-2.52538 z m 0,-6.06091 c 0,-1.38896 -0.45456,-2.52539 -1.01015,-2.52539 -0.55558,0 -1.01015,1.13643 -1.01015,2.52539 0,1.38896 0.45457,2.52538 1.01015,2.52538 0.55559,0 1.01015,-1.13642 1.01015,-2.52538 z m 0,-5.55584 c 0,-1.11117 -0.45456,-2.02031 -1.01015,-2.02031 -0.55558,0 -1.01015,0.90914 -1.01015,2.02031 0,1.11116 0.45457,2.0203 1.01015,2.0203 0.55559,0 1.01015,-0.90914 1.01015,-2.0203 z m 0,-5.55584 c 0,-1.38896 -0.45456,-2.52538 -1.01015,-2.52538 -0.55558,0 -1.01015,1.13642 -1.01015,2.52538 0,1.38896 0.45457,2.52538 1.01015,2.52538 0.55559,0 1.01015,-1.13642 1.01015,-2.52538 z m 0,-6.06092 c 0,-1.38896 -0.45456,-2.52538 -1.01015,-2.52538 -0.55558,0 -1.01015,1.13642 -1.01015,2.52538 0,1.38896 0.45457,2.52538 1.01015,2.52538 0.55559,0 1.01015,-1.13642 1.01015,-2.52538 z m 0,-6.06091 c 0,-1.38896 -0.45456,-2.52538 -1.01015,-2.52538 -0.55558,0 -1.01015,1.13642 -1.01015,2.52538 0,1.38896 0.45457,2.52538 1.01015,2.52538 0.55559,0 1.01015,-1.13642 1.01015,-2.52538 z m 0,-6.06092 c 0,-1.38896 -0.45456,-2.52538 -1.01015,-2.52538 -0.55558,0 -1.01015,1.13642 -1.01015,2.52538 0,1.38896 0.45457,2.52538 1.01015,2.52538 0.55559,0 1.01015,-1.13642 1.01015,-2.52538 z m 0,-6.06091 c 0,-1.38896 -0.45456,-2.52538 -1.01015,-2.52538 -0.55558,0 -1.01015,1.13642 -1.01015,2.52538 0,1.38896 0.45457,2.52538 1.01015,2.52538 0.55559,0 1.01015,-1.13642 1.01015,-2.52538 z m 0,-6.06092 c 0,-1.38896 -0.45456,-2.52538 -1.01015,-2.52538 -0.55558,0 -1.01015,1.13642 -1.01015,2.52538 0,1.38896 0.45457,2.52538 1.01015,2.52538 0.55559,0 1.01015,-1.13642 1.01015,-2.52538 z m 0,-6.06091 c 0,-1.38896 -0.45456,-2.52539 -1.01015,-2.52539 -0.55558,0 -1.01015,1.13643 -1.01015,2.52539 0,1.38896 0.45457,2.52538 1.01015,2.52538 0.55559,0 1.01015,-1.13642 1.01015,-2.52538 z m 0,-6.06092 c 0,-1.38896 -0.45456,-2.52538 -1.01015,-2.52538 -0.55558,0 -1.01015,1.13642 -1.01015,2.52538 0,1.38896 0.45457,2.52538 1.01015,2.52538 0.55559,0 1.01015,-1.13642 1.01015,-2.52538 z m 0,-6.06091 c 0,-1.38896 -0.45456,-2.52539 -1.01015,-2.52539 -0.55558,0 -1.01015,1.13643 -1.01015,2.52539 0,1.38896 0.45457,2.52538 1.01015,2.52538 0.55559,0 1.01015,-1.13642 1.01015,-2.52538 z m 0,-6.06092 c 0,-1.38896 -0.45456,-2.52538 -1.01015,-2.52538 -0.55558,0 -1.01015,1.13642 -1.01015,2.52538 0,1.38896 0.45457,2.52538 1.01015,2.52538 0.55559,0 1.01015,-1.13642 1.01015,-2.52538 z m 0,-6.06091 c 0,-1.38896 -0.45456,-2.52539 -1.01015,-2.52539 -0.55558,0 -1.01015,1.13643 -1.01015,2.52539 0,1.38895 0.45457,2.52538 1.01015,2.52538 0.55559,0 1.01015,-1.13643 1.01015,-2.52538 z m 0,-6.06092 c 0,-1.38896 -0.45456,-2.52538 -1.01015,-2.52538 -0.55558,0 -1.01015,1.13642 -1.01015,2.52538 0,1.38896 0.45457,2.52538 1.01015,2.52538 0.55559,0 1.01015,-1.13642 1.01015,-2.52538 z m 0,-6.06092 c 0,-1.38896 -0.45456,-2.52538 -1.01015,-2.52538 -0.55558,0 -1.01015,1.13642 -1.01015,2.52538 0,1.38896 0.45457,2.52539 1.01015,2.52539 0.55559,0 1.01015,-1.13643 1.01015,-2.52539 z m 0,-6.06091 c 0,-1.38896 -0.45456,-2.52538 -1.01015,-2.52538 -0.55558,0 -1.01015,1.13642 -1.01015,2.52538 0,1.38896 0.45457,2.52538 1.01015,2.52538 0.55559,0 1.01015,-1.13642 1.01015,-2.52538 z m 0,-6.06092 c 0,-1.38896 -0.45456,-2.52538 -1.01015,-2.52538 -0.55558,0 -1.01015,1.13642 -1.01015,2.52538 0,1.38896 0.45457,2.52539 1.01015,2.52539 0.55559,0 1.01015,-1.13643 1.01015,-2.52539 z m 0,-6.06091 c 0,-1.38896 -0.45456,-2.52538 -1.01015,-2.52538 -0.55558,0 -1.01015,1.13642 -1.01015,2.52538 0,1.38896 0.45457,2.52538 1.01015,2.52538 0.55559,0 1.01015,-1.13642 1.01015,-2.52538 z m 0,-5.55584 c 0,-1.11117 -0.45456,-2.02031 -1.01015,-2.02031 -0.55558,0 -1.01015,0.90914 -1.01015,2.02031 0,1.11117 0.45457,2.0203 1.01015,2.0203 0.55559,0 1.01015,-0.90913 1.01015,-2.0203 z m 0,-5.55584 c 0,-1.38896 -0.45456,-2.52538 -1.01015,-2.52538 -0.55558,0 -1.01015,1.13642 -1.01015,2.52538 0,1.38896 0.45457,2.52538 1.01015,2.52538 0.55559,0 1.01015,-1.13642 1.01015,-2.52538 z m 0,-6.06091 c 0,-1.38896 -0.45456,-2.52539 -1.01015,-2.52539 -0.55558,0 -1.01015,1.13643 -1.01015,2.52539 0,1.38896 0.45457,2.52538 1.01015,2.52538 0.55559,0 1.01015,-1.13642 1.01015,-2.52538 z m 0,-6.06092 c 0,-1.38896 -0.45456,-2.52538 -1.01015,-2.52538 -0.55558,0 -1.01015,1.13642 -1.01015,2.52538 0,1.38896 0.45457,2.52538 1.01015,2.52538 0.55559,0 1.01015,-1.13642 1.01015,-2.52538 z m 0,-6.06092 c 0,-1.38895 -0.45456,-2.52538 -1.01015,-2.52538 -0.55558,0 -1.01015,1.13643 -1.01015,2.52538 0,1.38896 0.45457,2.52539 1.01015,2.52539 0.55559,0 1.01015,-1.13643 1.01015,-2.52539 z m 0,-6.06091 c 0,-1.38896 -0.45456,-2.52538 -1.01015,-2.52538 -0.55558,0 -1.01015,1.13642 -1.01015,2.52538 0,1.38896 0.45457,2.52538 1.01015,2.52538 0.55559,0 1.01015,-1.13642 1.01015,-2.52538 z m 0,-6.06092 c 0,-1.38896 -0.45456,-2.52538 -1.01015,-2.52538 -0.55558,0 -1.01015,1.13642 -1.01015,2.52538 0,1.38896 0.45457,2.52539 1.01015,2.52539 0.55559,0 1.01015,-1.13643 1.01015,-2.52539 z m 0,-6.06091 c 0,-1.38896 -0.45456,-2.52538 -1.01015,-2.52538 -0.55558,0 -1.01015,1.13642 -1.01015,2.52538 0,1.38896 0.45457,2.52538 1.01015,2.52538 0.55559,0 1.01015,-1.13642 1.01015,-2.52538 z m 0,-6.06092 c 0,-1.38896 -0.45456,-2.52538 -1.01015,-2.52538 -0.55558,0 -1.01015,1.13642 -1.01015,2.52538 0,1.38896 0.45457,2.52539 1.01015,2.52539 0.55559,0 1.01015,-1.13643 1.01015,-2.52539 z m 0,-6.06091 c 0,-1.38896 -0.45456,-2.52538 -1.01015,-2.52538 -0.55558,0 -1.01015,1.13642 -1.01015,2.52538 0,1.38896 0.45457,2.52538 1.01015,2.52538 0.55559,0 1.01015,-1.13642 1.01015,-2.52538 z m 0,-6.06092 c 0,-1.38896 -0.45456,-2.52538 -1.01015,-2.52538 -0.55558,0 -1.01015,1.13642 -1.01015,2.52538 0,1.38896 0.45457,2.52538 1.01015,2.52538 0.55559,0 1.01015,-1.13642 1.01015,-2.52538 z m 0,-6.06091 c 0,-1.38896 -0.45456,-2.52538 -1.01015,-2.52538 -0.55558,0 -1.01015,1.13642 -1.01015,2.52538 0,1.38896 0.45457,2.52538 1.01015,2.52538 0.55559,0 1.01015,-1.13642 1.01015,-2.52538 z m 0,-6.06092 c 0,-1.38896 -0.45456,-2.52538 -1.01015,-2.52538 -0.55558,0 -1.01015,1.13642 -1.01015,2.52538 0,1.38896 0.45457,2.52538 1.01015,2.52538 0.55559,0 1.01015,-1.13642 1.01015,-2.52538 z m 0,-6.06091 c 0,-1.38896 -0.45456,-2.52538 -1.01015,-2.52538 -0.55558,0 -1.01015,1.13642 -1.01015,2.52538 0,1.38896 0.45457,2.52538 1.01015,2.52538 0.55559,0 1.01015,-1.13642 1.01015,-2.52538 z m 0,-6.06092 c 0,-1.38896 -0.45456,-2.52538 -1.01015,-2.52538 -0.55558,0 -1.01015,1.13642 -1.01015,2.52538 0,1.38896 0.45457,2.52538 1.01015,2.52538 0.55559,0 1.01015,-1.13642 1.01015,-2.52538 z m 0,-6.06091 c 0,-1.38896 -0.45456,-2.52538 -1.01015,-2.52538 -0.55558,0 -1.01015,1.13642 -1.01015,2.52538 0,1.38896 0.45457,2.52538 1.01015,2.52538 0.55559,0 1.01015,-1.13642 1.01015,-2.52538 z m 0,-5.55584 c 0,-1.11117 -0.45456,-2.02031 -1.01015,-2.02031 -0.55558,0 -1.01015,0.90914 -1.01015,2.02031 0,1.11117 0.45457,2.0203 1.01015,2.0203 0.55559,0 1.01015,-0.90913 1.01015,-2.0203 z m 0,-6.06092 c 0,-1.11117 -0.45456,-2.0203 -1.01015,-2.0203 -0.55558,0 -1.01015,0.90913 -1.01015,2.0203 0,1.11117 0.45457,2.02031 1.01015,2.02031 0.55559,0 1.01015,-0.90914 1.01015,-2.02031 z"
       id="path4071"
       inkscape:connector-curvature="0"
       transform="translate(1.116757,79.005039)" />
    <path
       style="fill:none"
       d="m 169.83991,387.58344 c -0.99036,-0.33012 -1.25367,-30.84621 -1.25367,-145.2906 l 0,-144.87271 57.49452,0 c 45.0079,0 57.62248,0.27423 58.08377,1.262691 0.4714,1.010152 0.70711,1.010152 1.1785,0 0.46612,-0.998817 23.58146,-1.262691 110.61171,-1.262691 l 110.02245,0 0,124.24876 0,124.24877 -2.52538,0 c -1.38896,0 -2.52538,0.45456 -2.52538,1.01015 0,0.55558 1.13642,1.01015 2.52538,1.01015 2.42902,0 2.52538,0.24513 2.52538,6.42453 l 0,6.42454 -25.04007,10.33641 -25.04006,10.3364 0.40184,3.44212 0.40185,3.4421 -7.18158,0 -7.18159,0 0,-16.66751 0,-16.66752 -21.06622,0 -21.06621,0 -35.75487,12.53007 -35.75486,12.53008 -0.31062,4.13744 -0.31063,4.13744 -76.96604,-0.0797 c -42.33133,-0.0439 -76.39784,-0.30902 -75.70336,-0.58925 0.69448,-0.28023 1.26269,-0.9262 1.26269,-1.43548 0,-1.38327 -2.69511,-1.11701 -4.23001,0.41789 -0.73913,0.73912 -1.90802,1.15581 -2.59754,0.92597 l 0,0 z m 115.92402,-2.77491 c 0,-1.38896 -0.45456,-2.52538 -1.01015,-2.52538 -0.55558,0 -1.01015,1.13642 -1.01015,2.52538 0,1.38896 0.45457,2.52538 1.01015,2.52538 0.55559,0 1.01015,-1.13642 1.01015,-2.52538 z m -105.08511,0.54453 c 0.81728,-0.51686 1.22327,-1.20245 0.90219,-1.52354 -0.79575,-0.79575 -3.9034,0.47183 -3.9034,1.59216 0,1.15135 1.11236,1.12593 3.00121,-0.0686 l 0,-3e-5 z m 6.06091,-2.0203 c 0.81729,-0.51687 1.19247,-1.23327 0.83374,-1.59199 -0.88322,-0.88323 -4.84509,0.44195 -4.84509,1.6206 0,1.20196 2.08909,1.18706 4.01135,-0.0286 l 0,-3e-5 z m 6.91305,-3.1467 c 0.17479,-0.45093 0.85664,-0.6229 1.51523,-0.38216 1.49667,0.54711 4.40738,-1.21351 3.50239,-2.1185 -0.87847,-0.87847 -9.88111,2.57723 -9.88111,3.79291 0,1.09353 4.39095,-0.0731 4.86349,-1.29225 l 0,0 z m 92.11115,-1.43845 c 0,-1.38896 -0.45456,-2.52538 -1.01015,-2.52538 -0.55558,0 -1.01015,1.13642 -1.01015,2.52538 0,1.38896 0.45457,2.52539 1.01015,2.52539 0.55559,0 1.01015,-1.13643 1.01015,-2.52539 z m -80.89638,-2.14579 c 0.23149,-0.20877 0.15211,-0.64838 -0.17641,-0.9769 -0.87053,-0.87053 -4.79017,0.55621 -4.79017,1.74361 0,0.88698 3.77996,0.30345 4.96658,-0.76671 z m 4.09554,-1.35028 c 0.81728,-0.51687 1.17781,-1.24792 0.80118,-1.62456 -0.92439,-0.92438 -3.80239,0.25138 -3.80239,1.5534 0,1.283 1.0458,1.3078 3.00121,0.0711 l 0,4e-5 z m 76.80084,-2.56484 c 0,-1.38896 -0.45456,-2.52538 -1.01015,-2.52538 -0.55558,0 -1.01015,1.13642 -1.01015,2.52538 0,1.38896 0.45457,2.52538 1.01015,2.52538 0.55559,0 1.01015,-1.13642 1.01015,-2.52538 z m -70.73993,0.54453 c 0.81729,-0.51686 1.19247,-1.23326 0.83374,-1.59199 -0.88322,-0.88323 -4.84509,0.44195 -4.84509,1.62061 0,1.20196 2.08909,1.18706 4.01135,-0.0286 l 0,-3e-5 z m 7.42545,-2.65979 c 2.5991,-0.8856 4.72564,-2.02202 4.72564,-2.52538 0,-1.26476 -0.79974,-1.16266 -5.77461,0.73727 -2.3798,0.90885 -4.32692,2.04527 -4.32692,2.52538 0,1.12483 -0.14909,1.14528 5.37589,-0.73727 z m 63.31448,-3.94566 c 0,-1.38896 -0.45456,-2.52538 -1.01015,-2.52538 -0.55558,0 -1.01015,1.13642 -1.01015,2.52538 0,1.38896 0.45457,2.52538 1.01015,2.52538 0.55559,0 1.01015,-1.13642 1.01015,-2.52538 z m -52.61211,-0.12549 c 0.2315,-0.20877 0.15211,-0.64837 -0.17641,-0.9769 -0.87053,-0.87053 -4.79017,0.55621 -4.79017,1.74362 0,0.88697 3.77996,0.30345 4.96658,-0.76672 l 0,0 z m 4.09554,-1.35028 c 0.81728,-0.51686 1.17782,-1.24791 0.80118,-1.62456 -0.92438,-0.92438 -3.80238,0.25138 -3.80238,1.55341 0,1.28299 1.04579,1.30779 3.0012,0.0711 l 0,4e-5 z m 7.01614,-2.69033 c 0.23149,-0.20877 0.15211,-0.64837 -0.17641,-0.9769 -0.87053,-0.87053 -4.79017,0.55621 -4.79017,1.74362 0,0.88697 3.77996,0.30345 4.96658,-0.76672 l 0,0 z m 41.50043,-1.89481 c 0,-1.38896 -0.45456,-2.52538 -1.01015,-2.52538 -0.55558,0 -1.01015,1.13642 -1.01015,2.52538 0,1.38896 0.45457,2.52538 1.01015,2.52538 0.55559,0 1.01015,-1.13642 1.01015,-2.52538 z m -35.03021,-0.095 c 2.5991,-0.8856 4.72564,-2.02202 4.72564,-2.52538 0,-1.33757 -2.6722,-1.11758 -4.221,0.34749 -0.73416,0.69448 -2.2061,1.2627 -3.27097,1.2627 -1.06486,0 -2.12553,0.56821 -2.35702,1.26269 -0.52865,1.58596 -0.55657,1.58784 5.12335,-0.3475 z M 261.333,355.9424 c 0.17479,-0.45093 0.85664,-0.6229 1.51523,-0.38216 1.49667,0.54711 4.40738,-1.21351 3.50239,-2.1185 -0.87847,-0.87847 -9.88111,2.57723 -9.88111,3.79291 0,1.09353 4.39095,-0.0731 4.86349,-1.29225 z m 24.43093,-1.43845 c 0,-1.38896 -0.45456,-2.52538 -1.01015,-2.52538 -0.55558,0 -1.01015,1.13642 -1.01015,2.52538 0,1.38896 0.45457,2.52538 1.01015,2.52538 0.55559,0 1.01015,-1.13642 1.01015,-2.52538 z m -13.21615,-2.14579 c 0.23148,-0.20877 0.1521,-0.64838 -0.17642,-0.9769 -0.87053,-0.87053 -4.79017,0.55621 -4.79017,1.74361 0,0.88698 3.77996,0.30345 4.96659,-0.76671 z m 4.09553,-1.35028 c 0.81728,-0.51687 1.17782,-1.24792 0.80118,-1.62456 -0.92439,-0.92438 -3.80239,0.25137 -3.80239,1.5534 0,1.28299 1.04581,1.30779 3.00121,0.0711 l 0,5e-5 z m 9.12062,-1.55469 c 0,-0.84179 0.89792,-1.51523 2.02031,-1.51523 1.11117,0 2.02031,-0.45457 2.02031,-1.01015 0,-1.33446 -3.96053,-1.28512 -7.93049,0.0988 -3.76413,1.31218 -4.30899,3.25319 -0.65581,2.33629 1.55604,-0.39053 2.52538,-0.20406 2.52538,0.48584 0,0.61581 0.45457,1.11966 1.01015,1.11966 0.55559,0 1.01015,-0.68185 1.01015,-1.51523 l 0,3e-5 z m 10.10153,-2.52538 c 0,-0.55559 -1.13642,-1.01015 -2.52538,-1.01015 -1.38896,0 -2.52538,0.45456 -2.52538,1.01015 0,0.55558 1.13642,1.01015 2.52538,1.01015 1.38896,0 2.52538,-0.45457 2.52538,-1.01015 z m 6.06092,0 c 0,-0.55559 -1.13643,-1.01015 -2.52539,-1.01015 -1.38896,0 -2.52538,0.45456 -2.52538,1.01015 0,0.55558 1.13642,1.01015 2.52538,1.01015 1.38896,0 2.52539,-0.45457 2.52539,-1.01015 z m 6.06091,0 c 0,-0.55559 -1.13642,-1.01015 -2.52538,-1.01015 -1.38896,0 -2.52538,0.45456 -2.52538,1.01015 0,0.55558 1.13642,1.01015 2.52538,1.01015 1.38896,0 2.52538,-0.45457 2.52538,-1.01015 z m 6.06092,0 c 0,-0.55559 -1.13643,-1.01015 -2.52539,-1.01015 -1.38895,0 -2.52538,0.45456 -2.52538,1.01015 0,0.55558 1.13643,1.01015 2.52538,1.01015 1.38896,0 2.52539,-0.45457 2.52539,-1.01015 z m 6.06091,0 c 0,-0.55559 -1.13642,-1.01015 -2.52538,-1.01015 -1.38896,0 -2.52538,0.45456 -2.52538,1.01015 0,0.55558 1.13642,1.01015 2.52538,1.01015 1.38896,0 2.52538,-0.45457 2.52538,-1.01015 z m 5.55584,0 c -0.34337,-0.55559 -1.50662,-1.01015 -2.585,-1.01015 -1.07838,0 -1.96069,0.45456 -1.96069,1.01015 0,0.55558 1.16326,1.01015 2.585,1.01015 1.4661,0 2.31477,-0.43723 1.96069,-1.01015 z m 5.55584,0 c 0,-0.55559 -0.90914,-1.01015 -2.02031,-1.01015 -1.11116,0 -2.0203,0.45456 -2.0203,1.01015 0,0.55558 0.90914,1.01015 2.0203,1.01015 1.11117,0 2.02031,-0.45457 2.02031,-1.01015 z m 6.06091,0 c 0,-0.55559 -1.13642,-1.01015 -2.52538,-1.01015 -1.38896,0 -2.52538,0.45456 -2.52538,1.01015 0,0.55558 1.13642,1.01015 2.52538,1.01015 1.38896,0 2.52538,-0.45457 2.52538,-1.01015 z m 6.06092,0 c 0,-0.55559 -1.13642,-1.01015 -2.52538,-1.01015 -1.38896,0 -2.52538,0.45456 -2.52538,1.01015 0,0.55558 1.13642,1.01015 2.52538,1.01015 1.38896,0 2.52538,-0.45457 2.52538,-1.01015 z m 6.06092,0 c 0,-0.55559 -1.13643,-1.01015 -2.52539,-1.01015 -1.38896,0 -2.52538,0.45456 -2.52538,1.01015 0,0.55558 1.13642,1.01015 2.52538,1.01015 1.38896,0 2.52539,-0.45457 2.52539,-1.01015 z m 6.06091,0 c 0,-0.55559 -1.13642,-1.01015 -2.52538,-1.01015 -1.38896,0 -2.52538,0.45456 -2.52538,1.01015 0,0.55558 1.13642,1.01015 2.52538,1.01015 1.38896,0 2.52538,-0.45457 2.52538,-1.01015 z m 6.06092,0 c 0,-0.55559 -1.13643,-1.01015 -2.52539,-1.01015 -1.38896,0 -2.52538,0.45456 -2.52538,1.01015 0,0.55558 1.13642,1.01015 2.52538,1.01015 1.38896,0 2.52539,-0.45457 2.52539,-1.01015 z m 6.06091,0 c 0,-0.55559 -1.13642,-1.01015 -2.52538,-1.01015 -1.38896,0 -2.52538,0.45456 -2.52538,1.01015 0,0.55558 1.13642,1.01015 2.52538,1.01015 1.38896,0 2.52538,-0.45457 2.52538,-1.01015 z m 6.06092,0 c 0,-0.55559 -1.13643,-1.01015 -2.52539,-1.01015 -1.38895,0 -2.52538,0.45456 -2.52538,1.01015 0,0.55558 1.13643,1.01015 2.52538,1.01015 1.38896,0 2.52539,-0.45457 2.52539,-1.01015 z m 6.06091,0 c 0,-0.55559 -1.13642,-1.01015 -2.52538,-1.01015 -1.38896,0 -2.52538,0.45456 -2.52538,1.01015 0,0.55558 1.13642,1.01015 2.52538,1.01015 1.38896,0 2.52538,-0.45457 2.52538,-1.01015 z m 6.06092,0 c 0,-0.55559 -1.13642,-1.01015 -2.52538,-1.01015 -1.38896,0 -2.52539,0.45456 -2.52539,1.01015 0,0.55558 1.13643,1.01015 2.52539,1.01015 1.38896,0 2.52538,-0.45457 2.52538,-1.01015 z m 6.06091,0 c 0,-0.55559 -1.13642,-1.01015 -2.52538,-1.01015 -1.38896,0 -2.52538,0.45456 -2.52538,1.01015 0,0.55558 1.13642,1.01015 2.52538,1.01015 1.38896,0 2.52538,-0.45457 2.52538,-1.01015 z m 6.06092,0 c 0,-0.55559 -1.13642,-1.01015 -2.52538,-1.01015 -1.38896,0 -2.52539,0.45456 -2.52539,1.01015 0,0.55558 1.13643,1.01015 2.52539,1.01015 1.38896,0 2.52538,-0.45457 2.52538,-1.01015 z m 6.06091,0 c 0,-0.55559 -1.13642,-1.01015 -2.52538,-1.01015 -1.38896,0 -2.52538,0.45456 -2.52538,1.01015 0,0.55558 1.13642,1.01015 2.52538,1.01015 1.38896,0 2.52538,-0.45457 2.52538,-1.01015 z m 6.06092,0 c 0,-0.55559 -1.13642,-1.01015 -2.52538,-1.01015 -1.38896,0 -2.52538,0.45456 -2.52538,1.01015 0,0.55558 1.13642,1.01015 2.52538,1.01015 1.38896,0 2.52538,-0.45457 2.52538,-1.01015 z m 6.06091,0 c 0,-0.55559 -1.13642,-1.01015 -2.52538,-1.01015 -1.38896,0 -2.52538,0.45456 -2.52538,1.01015 0,0.55558 1.13642,1.01015 2.52538,1.01015 1.38896,0 2.52538,-0.45457 2.52538,-1.01015 z m 6.06092,0 c 0,-0.55559 -1.13642,-1.01015 -2.52538,-1.01015 -1.38896,0 -2.52538,0.45456 -2.52538,1.01015 0,0.55558 1.13642,1.01015 2.52538,1.01015 1.38896,0 2.52538,-0.45457 2.52538,-1.01015 z m 5.05076,0 c 0,-0.55559 -0.90914,-1.01015 -2.0203,-1.01015 -1.11117,0 -2.02031,0.45456 -2.02031,1.01015 0,0.55558 0.90914,1.01015 2.02031,1.01015 1.11116,0 2.0203,-0.45457 2.0203,-1.01015 z m 6.06092,0 c 0,-0.55559 -0.88231,-1.01015 -1.96069,-1.01015 -1.07838,0 -2.24163,0.45456 -2.585,1.01015 -0.35408,0.57292 0.49459,1.01015 1.96069,1.01015 1.42175,0 2.585,-0.45457 2.585,-1.01015 z m 6.06091,0 c 0,-0.55559 -1.13642,-1.01015 -2.52538,-1.01015 -1.38896,0 -2.52538,0.45456 -2.52538,1.01015 0,0.55558 1.13642,1.01015 2.52538,1.01015 1.38896,0 2.52538,-0.45457 2.52538,-1.01015 z m 6.06092,0 c 0,-0.55559 -1.13642,-1.01015 -2.52538,-1.01015 -1.38896,0 -2.52539,0.45456 -2.52539,1.01015 0,0.55558 1.13643,1.01015 2.52539,1.01015 1.38896,0 2.52538,-0.45457 2.52538,-1.01015 z m 6.06091,0 c 0,-0.55559 -1.13642,-1.01015 -2.52538,-1.01015 -1.38896,0 -2.52538,0.45456 -2.52538,1.01015 0,0.55558 1.13642,1.01015 2.52538,1.01015 1.38896,0 2.52538,-0.45457 2.52538,-1.01015 z m 6.06092,0 c 0,-0.55559 -1.13642,-1.01015 -2.52538,-1.01015 -1.38896,0 -2.52539,0.45456 -2.52539,1.01015 0,0.55558 1.13643,1.01015 2.52539,1.01015 1.38896,0 2.52538,-0.45457 2.52538,-1.01015 z m 6.06091,0 c 0,-0.55559 -1.13642,-1.01015 -2.52538,-1.01015 -1.38896,0 -2.52538,0.45456 -2.52538,1.01015 0,0.55558 1.13642,1.01015 2.52538,1.01015 1.38896,0 2.52538,-0.45457 2.52538,-1.01015 z m 6.06092,0 c 0,-0.55559 -1.13642,-1.01015 -2.52538,-1.01015 -1.38896,0 -2.52538,0.45456 -2.52538,1.01015 0,0.55558 1.13642,1.01015 2.52538,1.01015 1.38896,0 2.52538,-0.45457 2.52538,-1.01015 z m 6.06091,0 c 0,-0.55559 -1.13642,-1.01015 -2.52538,-1.01015 -1.38896,0 -2.52538,0.45456 -2.52538,1.01015 0,0.55558 1.13642,1.01015 2.52538,1.01015 1.38896,0 2.52538,-0.45457 2.52538,-1.01015 z m 6.06092,0 c 0,-0.55559 -1.13642,-1.01015 -2.52538,-1.01015 -1.38896,0 -2.52538,0.45456 -2.52538,1.01015 0,0.55558 1.13642,1.01015 2.52538,1.01015 1.38896,0 2.52538,-0.45457 2.52538,-1.01015 z m 6.06091,0 c 0,-0.55559 -1.13642,-1.01015 -2.52538,-1.01015 -1.38896,0 -2.52538,0.45456 -2.52538,1.01015 0,0.55558 1.13642,1.01015 2.52538,1.01015 1.38896,0 2.52538,-0.45457 2.52538,-1.01015 z m 6.06092,0 c 0,-0.55559 -1.13642,-1.01015 -2.52538,-1.01015 -1.38896,0 -2.52538,0.45456 -2.52538,1.01015 0,0.55558 1.13642,1.01015 2.52538,1.01015 1.38896,0 2.52538,-0.45457 2.52538,-1.01015 z m 6.06091,0 c 0,-0.55559 -1.13642,-1.01015 -2.52538,-1.01015 -1.38896,0 -2.52538,0.45456 -2.52538,1.01015 0,0.55558 1.13642,1.01015 2.52538,1.01015 1.38896,0 2.52538,-0.45457 2.52538,-1.01015 z m -214.15234,-4.54569 c 0,-1.38896 -0.45456,-2.52538 -1.01015,-2.52538 -0.55558,0 -1.01015,1.13642 -1.01015,2.52538 0,1.38896 0.45457,2.52538 1.01015,2.52538 0.55559,0 1.01015,-1.13642 1.01015,-2.52538 z m 0,-6.06091 c 0,-1.38896 -0.45456,-2.52538 -1.01015,-2.52538 -0.55558,0 -1.01015,1.13642 -1.01015,2.52538 0,1.38896 0.45457,2.52538 1.01015,2.52538 0.55559,0 1.01015,-1.13642 1.01015,-2.52538 z m 0,-6.06092 c 0,-1.38896 -0.45456,-2.52538 -1.01015,-2.52538 -0.55558,0 -1.01015,1.13642 -1.01015,2.52538 0,1.38896 0.45457,2.52538 1.01015,2.52538 0.55559,0 1.01015,-1.13642 1.01015,-2.52538 z m 0,-6.06091 c 0,-1.38896 -0.45456,-2.52539 -1.01015,-2.52539 -0.55558,0 -1.01015,1.13643 -1.01015,2.52539 0,1.38896 0.45457,2.52538 1.01015,2.52538 0.55559,0 1.01015,-1.13642 1.01015,-2.52538 z m 0,-6.06092 c 0,-1.38896 -0.45456,-2.52538 -1.01015,-2.52538 -0.55558,0 -1.01015,1.13642 -1.01015,2.52538 0,1.38896 0.45457,2.52538 1.01015,2.52538 0.55559,0 1.01015,-1.13642 1.01015,-2.52538 z m 0,-6.06091 c 0,-1.38896 -0.45456,-2.52539 -1.01015,-2.52539 -0.55558,0 -1.01015,1.13643 -1.01015,2.52539 0,1.38896 0.45457,2.52538 1.01015,2.52538 0.55559,0 1.01015,-1.13642 1.01015,-2.52538 z m 0,-5.55584 c 0,-1.11117 -0.45456,-2.02031 -1.01015,-2.02031 -0.55558,0 -1.01015,0.90914 -1.01015,2.02031 0,1.11116 0.45457,2.0203 1.01015,2.0203 0.55559,0 1.01015,-0.90914 1.01015,-2.0203 z m 0,-5.55584 c 0,-1.38896 -0.45456,-2.52538 -1.01015,-2.52538 -0.55558,0 -1.01015,1.13642 -1.01015,2.52538 0,1.38896 0.45457,2.52538 1.01015,2.52538 0.55559,0 1.01015,-1.13642 1.01015,-2.52538 z m 0,-6.06092 c 0,-1.38896 -0.45456,-2.52538 -1.01015,-2.52538 -0.55558,0 -1.01015,1.13642 -1.01015,2.52538 0,1.38896 0.45457,2.52538 1.01015,2.52538 0.55559,0 1.01015,-1.13642 1.01015,-2.52538 z m 0,-6.06091 c 0,-1.38896 -0.45456,-2.52538 -1.01015,-2.52538 -0.55558,0 -1.01015,1.13642 -1.01015,2.52538 0,1.38896 0.45457,2.52538 1.01015,2.52538 0.55559,0 1.01015,-1.13642 1.01015,-2.52538 z m 0,-6.06092 c 0,-1.38896 -0.45456,-2.52538 -1.01015,-2.52538 -0.55558,0 -1.01015,1.13642 -1.01015,2.52538 0,1.38896 0.45457,2.52538 1.01015,2.52538 0.55559,0 1.01015,-1.13642 1.01015,-2.52538 z m 0,-6.06091 c 0,-1.38896 -0.45456,-2.52538 -1.01015,-2.52538 -0.55558,0 -1.01015,1.13642 -1.01015,2.52538 0,1.38896 0.45457,2.52538 1.01015,2.52538 0.55559,0 1.01015,-1.13642 1.01015,-2.52538 z m 0,-6.06092 c 0,-1.38896 -0.45456,-2.52538 -1.01015,-2.52538 -0.55558,0 -1.01015,1.13642 -1.01015,2.52538 0,1.38896 0.45457,2.52538 1.01015,2.52538 0.55559,0 1.01015,-1.13642 1.01015,-2.52538 z m 0,-6.06091 c 0,-1.38896 -0.45456,-2.52539 -1.01015,-2.52539 -0.55558,0 -1.01015,1.13643 -1.01015,2.52539 0,1.38896 0.45457,2.52538 1.01015,2.52538 0.55559,0 1.01015,-1.13642 1.01015,-2.52538 z m 0,-6.06092 c 0,-1.38896 -0.45456,-2.52538 -1.01015,-2.52538 -0.55558,0 -1.01015,1.13642 -1.01015,2.52538 0,1.38896 0.45457,2.52538 1.01015,2.52538 0.55559,0 1.01015,-1.13642 1.01015,-2.52538 z m 0,-6.06091 c 0,-1.38896 -0.45456,-2.52539 -1.01015,-2.52539 -0.55558,0 -1.01015,1.13643 -1.01015,2.52539 0,1.38896 0.45457,2.52538 1.01015,2.52538 0.55559,0 1.01015,-1.13642 1.01015,-2.52538 z m 0,-6.06092 c 0,-1.38896 -0.45456,-2.52538 -1.01015,-2.52538 -0.55558,0 -1.01015,1.13642 -1.01015,2.52538 0,1.38896 0.45457,2.52538 1.01015,2.52538 0.55559,0 1.01015,-1.13642 1.01015,-2.52538 z m 0,-6.06091 c 0,-1.38896 -0.45456,-2.52539 -1.01015,-2.52539 -0.55558,0 -1.01015,1.13643 -1.01015,2.52539 0,1.38895 0.45457,2.52538 1.01015,2.52538 0.55559,0 1.01015,-1.13643 1.01015,-2.52538 z m 0,-6.06092 c 0,-1.38896 -0.45456,-2.52538 -1.01015,-2.52538 -0.55558,0 -1.01015,1.13642 -1.01015,2.52538 0,1.38896 0.45457,2.52538 1.01015,2.52538 0.55559,0 1.01015,-1.13642 1.01015,-2.52538 z m 0,-6.06092 c 0,-1.38896 -0.45456,-2.52538 -1.01015,-2.52538 -0.55558,0 -1.01015,1.13642 -1.01015,2.52538 0,1.38896 0.45457,2.52539 1.01015,2.52539 0.55559,0 1.01015,-1.13643 1.01015,-2.52539 z m 0,-6.06091 c 0,-1.38896 -0.45456,-2.52538 -1.01015,-2.52538 -0.55558,0 -1.01015,1.13642 -1.01015,2.52538 0,1.38896 0.45457,2.52538 1.01015,2.52538 0.55559,0 1.01015,-1.13642 1.01015,-2.52538 z m 0,-6.06092 c 0,-1.38896 -0.45456,-2.52538 -1.01015,-2.52538 -0.55558,0 -1.01015,1.13642 -1.01015,2.52538 0,1.38896 0.45457,2.52539 1.01015,2.52539 0.55559,0 1.01015,-1.13643 1.01015,-2.52539 z m 0,-6.06091 c 0,-1.38896 -0.45456,-2.52538 -1.01015,-2.52538 -0.55558,0 -1.01015,1.13642 -1.01015,2.52538 0,1.38896 0.45457,2.52538 1.01015,2.52538 0.55559,0 1.01015,-1.13642 1.01015,-2.52538 z m 0,-5.55584 c 0,-1.11117 -0.45456,-2.02031 -1.01015,-2.02031 -0.55558,0 -1.01015,0.90914 -1.01015,2.02031 0,1.11117 0.45457,2.0203 1.01015,2.0203 0.55559,0 1.01015,-0.90913 1.01015,-2.0203 z m 0,-5.55584 c 0,-1.38896 -0.45456,-2.52538 -1.01015,-2.52538 -0.55558,0 -1.01015,1.13642 -1.01015,2.52538 0,1.38896 0.45457,2.52538 1.01015,2.52538 0.55559,0 1.01015,-1.13642 1.01015,-2.52538 z m 0,-6.06091 c 0,-1.38896 -0.45456,-2.52539 -1.01015,-2.52539 -0.55558,0 -1.01015,1.13643 -1.01015,2.52539 0,1.38896 0.45457,2.52538 1.01015,2.52538 0.55559,0 1.01015,-1.13642 1.01015,-2.52538 z m 0,-6.06092 c 0,-1.38896 -0.45456,-2.52538 -1.01015,-2.52538 -0.55558,0 -1.01015,1.13642 -1.01015,2.52538 0,1.38896 0.45457,2.52538 1.01015,2.52538 0.55559,0 1.01015,-1.13642 1.01015,-2.52538 z m 0,-6.06092 c 0,-1.38895 -0.45456,-2.52538 -1.01015,-2.52538 -0.55558,0 -1.01015,1.13643 -1.01015,2.52538 0,1.38896 0.45457,2.52539 1.01015,2.52539 0.55559,0 1.01015,-1.13643 1.01015,-2.52539 z m 0,-6.06091 c 0,-1.38896 -0.45456,-2.52538 -1.01015,-2.52538 -0.55558,0 -1.01015,1.13642 -1.01015,2.52538 0,1.38896 0.45457,2.52538 1.01015,2.52538 0.55559,0 1.01015,-1.13642 1.01015,-2.52538 z m 0,-6.06092 c 0,-1.38896 -0.45456,-2.52538 -1.01015,-2.52538 -0.55558,0 -1.01015,1.13642 -1.01015,2.52538 0,1.38896 0.45457,2.52539 1.01015,2.52539 0.55559,0 1.01015,-1.13643 1.01015,-2.52539 z m 0,-6.06091 c 0,-1.38896 -0.45456,-2.52538 -1.01015,-2.52538 -0.55558,0 -1.01015,1.13642 -1.01015,2.52538 0,1.38896 0.45457,2.52538 1.01015,2.52538 0.55559,0 1.01015,-1.13642 1.01015,-2.52538 z m 0,-6.06092 c 0,-1.38896 -0.45456,-2.52538 -1.01015,-2.52538 -0.55558,0 -1.01015,1.13642 -1.01015,2.52538 0,1.38896 0.45457,2.52539 1.01015,2.52539 0.55559,0 1.01015,-1.13643 1.01015,-2.52539 z m 0,-6.06091 c 0,-1.38896 -0.45456,-2.52538 -1.01015,-2.52538 -0.55558,0 -1.01015,1.13642 -1.01015,2.52538 0,1.38896 0.45457,2.52538 1.01015,2.52538 0.55559,0 1.01015,-1.13642 1.01015,-2.52538 z m 0,-6.06092 c 0,-1.38896 -0.45456,-2.52538 -1.01015,-2.52538 -0.55558,0 -1.01015,1.13642 -1.01015,2.52538 0,1.38896 0.45457,2.52538 1.01015,2.52538 0.55559,0 1.01015,-1.13642 1.01015,-2.52538 z m 0,-6.06091 c 0,-1.38896 -0.45456,-2.52538 -1.01015,-2.52538 -0.55558,0 -1.01015,1.13642 -1.01015,2.52538 0,1.38896 0.45457,2.52538 1.01015,2.52538 0.55559,0 1.01015,-1.13642 1.01015,-2.52538 z m 0,-6.06092 c 0,-1.38896 -0.45456,-2.52538 -1.01015,-2.52538 -0.55558,0 -1.01015,1.13642 -1.01015,2.52538 0,1.38896 0.45457,2.52538 1.01015,2.52538 0.55559,0 1.01015,-1.13642 1.01015,-2.52538 z m 0,-6.06091 c 0,-1.38896 -0.45456,-2.52538 -1.01015,-2.52538 -0.55558,0 -1.01015,1.13642 -1.01015,2.52538 0,1.38896 0.45457,2.52538 1.01015,2.52538 0.55559,0 1.01015,-1.13642 1.01015,-2.52538 z m 0,-6.06092 c 0,-1.38896 -0.45456,-2.52538 -1.01015,-2.52538 -0.55558,0 -1.01015,1.13642 -1.01015,2.52538 0,1.38896 0.45457,2.52538 1.01015,2.52538 0.55559,0 1.01015,-1.13642 1.01015,-2.52538 z m 0,-6.06091 c 0,-1.38896 -0.45456,-2.52538 -1.01015,-2.52538 -0.55558,0 -1.01015,1.13642 -1.01015,2.52538 0,1.38896 0.45457,2.52538 1.01015,2.52538 0.55559,0 1.01015,-1.13642 1.01015,-2.52538 z m 0,-5.55584 c 0,-1.11117 -0.45456,-2.02031 -1.01015,-2.02031 -0.55558,0 -1.01015,0.90914 -1.01015,2.02031 0,1.11117 0.45457,2.0203 1.01015,2.0203 0.55559,0 1.01015,-0.90913 1.01015,-2.0203 z m 0,-6.06092 c 0,-1.11117 -0.45456,-2.0203 -1.01015,-2.0203 -0.55558,0 -1.01015,0.90913 -1.01015,2.0203 0,1.11117 0.45457,2.02031 1.01015,2.02031 0.55559,0 1.01015,-0.90914 1.01015,-2.02031 z"
       id="path4073"
       inkscape:connector-curvature="0"
       transform="translate(1.116757,79.005039)" />
    <path
       style="fill:#dcdcff;stroke:#000000;stroke-width:0;stroke-linecap:butt;stroke-linejoin:miter;stroke-opacity:1;stroke-miterlimit:4;stroke-dasharray:none;fill-opacity:1"
       d="m 325,348.49741 0,33.57143 95.71429,-33.57143 z"
       id="path4125"
       inkscape:connector-curvature="0"
       transform="translate(1.116757,79.005039)" />
    <path
       style="fill:#dcdcff;stroke:#000000;stroke-width:0;stroke-linecap:butt;stroke-linejoin:miter;stroke-opacity:1;fill-opacity:1;stroke-miterlimit:4;stroke-dasharray:none"
       d="m 402.14286,347.78312 0,7.14286 103.21428,0 0,-6.42857 z"
       id="path4135"
       inkscape:connector-curvature="0"
       transform="translate(1.116757,79.005039)" />
    <path
       style="fill:#dcdcff;fill-opacity:1;stroke:#000000;stroke-width:0;stroke-linecap:butt;stroke-linejoin:miter;stroke-miterlimit:4;stroke-opacity:1;stroke-dasharray:none"
       d="m 443.97591,433.57388 0,33.21428 12.57063,0 0,-7.85714 50.64165,-20 0,-11.07143 -63.57143,0 z"
       id="path4137"
       inkscape:connector-curvature="0" />
    <g
       id="g3881"
       transform="matrix(0.99740852,0,0,1,1.3970845,0.01378222)">
      <g
         id="g3875">
        <path
           style="fill:#2b0000;stroke:#800080;stroke-width:2;stroke-linecap:butt;stroke-linejoin:miter;stroke-miterlimit:4;stroke-opacity:1;stroke-dasharray:none"
           d="M 512.54533,891.43102 C 579.68818,785.71674 579.68818,787.14531 579.68818,787.14531"
           id="path3053"
           inkscape:connector-curvature="0" />
      </g>
      <g
         id="g3878">
        <path
           style="fill:#2b0000;stroke:#800080;stroke-width:2;stroke-linecap:butt;stroke-linejoin:miter;stroke-miterlimit:4;stroke-opacity:1;stroke-dasharray:none;display:inline"
           d="M 533.25962,900.71723 C 600.40247,795.00295 600.40247,796.43152 600.40247,796.43152"
           id="path3053-9"
           inkscape:connector-curvature="0" />
      </g>
      <path
         inkscape:connector-curvature="0"
         id="path3053-1"
         d="M 554.68818,912.14581 C 621.83103,806.43153 621.83103,807.8601 621.83103,807.8601"
         style="fill:#2b0000;stroke:#800080;stroke-width:2;stroke-linecap:butt;stroke-linejoin:miter;stroke-miterlimit:4;stroke-opacity:1;stroke-dasharray:none;display:inline" />
      <path
         inkscape:connector-curvature="0"
         id="path3053-7"
         d="M 603.98532,869.6214 C 518.56109,823.30092 519.67751,823.24061 519.67751,823.24061"
         style="fill:#2b0000;stroke:#800080;stroke-width:1.53994155;stroke-linecap:butt;stroke-linejoin:miter;stroke-miterlimit:4;stroke-opacity:1;stroke-dasharray:none;display:inline" />
      <path
         inkscape:connector-curvature="0"
         id="path3873"
         d="m 527.66788,844.87989 -8.57143,-21.42857 22.85714,0"
         style="fill:none;stroke:#800080;stroke-width:2;stroke-linecap:butt;stroke-linejoin:miter;stroke-miterlimit:4;stroke-opacity:1;stroke-dasharray:none" />
    </g>
  </g>
  <g
     inkscape:groupmode="layer"
     id="layer2"
     inkscape:label="background"
     transform="translate(-1.116757,-79.005039)"
     style="display:inline">
    <path
       style="fill:none;stroke:#000000;stroke-width:1;stroke-linecap:butt;stroke-linejoin:miter;stroke-miterlimit:4;stroke-opacity:1;stroke-dasharray:4, 2;stroke-dashoffset:0"
       d="m 626.29458,426.0676 -340.42141,0 -118.18785,42.42641"
       id="path4362"
       inkscape:connector-curvature="0" />
    <path
       style="fill:none;stroke:#000000;stroke-width:1;stroke-linecap:butt;stroke-linejoin:miter;stroke-miterlimit:4;stroke-opacity:1;stroke-dasharray:6, 2;stroke-dashoffset:0"
       d="m 625.28443,133.12337 -118.18785,0"
       id="path4364"
       inkscape:connector-curvature="0" />
    <path
       style="fill:none;stroke:#000000;stroke-width:1;stroke-linecap:butt;stroke-linejoin:miter;stroke-miterlimit:4;stroke-opacity:1;stroke-dasharray:6, 2;stroke-dashoffset:0"
       d="M 284.86302,132.11321 168.69548,174.53962"
       id="path4366"
       inkscape:connector-curvature="0" />
    <path
       style="fill:#dcdcff;fill-opacity:1"
       d="m 178.048,387.3094 c 0.84798,-0.83874 102.61776,-37.55316 104.09471,-37.55316 0.43604,0 0.7928,8.6368 0.7928,19.19289 l 0,19.1929 -52.86465,0 c -29.07556,0 -52.48584,-0.37468 -52.02286,-0.83263 z"
       id="path4101"
       inkscape:connector-curvature="0"
       transform="translate(1.116757,79.005039)" />
    <path
       style="fill:#dcdcff;fill-opacity:1"
       d="m 525.37212,370.96944 0,-11.11168 -8.08122,0 c -7.63227,0 -8.08122,-0.33672 -8.08122,-6.06091 l 0,-6.06092 55.05331,0.1595 c 30.27932,0.0877 53.68961,0.68712 52.02286,1.33199 -10.71647,4.14625 -89.45205,32.8537 -90.10745,32.8537 -0.44346,0 -0.80628,-5.00026 -0.80628,-11.11168 z"
       id="path4105"
       inkscape:connector-curvature="0"
       transform="translate(1.116757,79.005039)" />
  </g>
  <path
     style="fill:#dcdcff;fill-opacity:1;stroke:#000000;stroke-width:0;stroke-linecap:butt;stroke-linejoin:miter;stroke-miterlimit:4;stroke-opacity:1;stroke-dasharray:none"
     d="m 285.62063,347.46611 0,40.91117 41.92134,0 0,-40.42415 z"
     id="path4123"
     inkscape:connector-curvature="0" />
</svg>
