\relax 
\@writefile{toc}{\contentsline {section}{\numberline {1}Introduction}{1}}
\@writefile{lof}{\contentsline {figure}{\numberline {1}{\ignorespaces Schematic diagram of optical lithography process.\relax }}{2}}
\providecommand*\caption@xref[2]{\@setref\relax\@undefined{#1}}
\newlabel{fig:optlith1}{{1}{2}}
\@writefile{lof}{\contentsline {figure}{\numberline {2}{\ignorespaces Schematic diagram of of the components in simulating the optical lithography process.\relax }}{3}}
\newlabel{fig:optlith2}{{2}{3}}
\@writefile{toc}{\contentsline {section}{\numberline {2}Model}{4}}
\@writefile{toc}{\contentsline {subsection}{\numberline {2.1}Time-Harmonic Maxwell's Equations and Boundary Conditions}{4}}
\newlabel{eq:hfield}{{1}{4}}
\newlabel{eq:efield}{{2}{4}}
\@writefile{toc}{\contentsline {subsection}{\numberline {2.2}Perfectly Matched Layer}{4}}
\newlabel{sec:pmlintro}{{2.2}{4}}
\@writefile{lof}{\contentsline {figure}{\numberline {3}{\ignorespaces Domain of interest padded with a Perfectly Matched Layer.\relax }}{5}}
\newlabel{fig:pml}{{3}{5}}
\@writefile{lof}{\contentsline {figure}{\numberline {4}{\ignorespaces Illustration of Kirchoff approximation.\relax }}{6}}
\newlabel{fig:kirchh}{{4}{6}}
\@writefile{toc}{\contentsline {section}{\numberline {3}Kirchhoff's Approximation}{6}}
\@writefile{toc}{\contentsline {section}{\numberline {4}Finite Difference Frequency Domain}{6}}
\@writefile{toc}{\contentsline {subsection}{\numberline {4.1}Forcing Term Expressed as Deviation from a Background}{6}}
\@writefile{toc}{\contentsline {subsection}{\numberline {4.2}Setting up FDFD Equations}{7}}
\@writefile{toc}{\contentsline {subsection}{\numberline {4.3}Electric Field FDFD Equation}{8}}
\@writefile{toc}{\contentsline {subsection}{\numberline {4.4}Magnetic Field FDFD Equation}{8}}
\newlabel{fig:withoutpml}{{5a}{9}}
\newlabel{sub@fig:withoutpml}{{a}{9}}
\newlabel{fig:withpml}{{5b}{9}}
\newlabel{sub@fig:withpml}{{b}{9}}
\@writefile{lof}{\contentsline {figure}{\numberline {5}{\ignorespaces Errors in $E^{sca}_y$. Here, the $[E, H]$ formulation was used.\relax }}{9}}
\newlabel{fig:pmlerrors}{{5}{9}}
\@writefile{toc}{\contentsline {subsection}{\numberline {4.5}First-Order FDFD Equation}{9}}
\@writefile{toc}{\contentsline {subsection}{\numberline {4.6}Performance of the Perfectly Matched Layer}{9}}
\@writefile{toc}{\contentsline {subsection}{\numberline {4.7}Condition Number of Equations}{9}}
\@writefile{lof}{\contentsline {figure}{\numberline {6}{\ignorespaces Coefficient matrix for a 3-D FDFD E-field equation\relax }}{10}}
\@writefile{lof}{\contentsline {figure}{\numberline {7}{\ignorespaces Coefficient matrix for a 3-D FDFD H-field equation\relax }}{10}}
\citation{girault2005discontinuous}
\citation{discacciati2003analysis}
\citation{discacciati2007robin}
\citation{haii}
\citation{haii2}
\citation{alonso1997domain}
\citation{alonso1999optimal}
\citation{lietal}
\@writefile{lof}{\contentsline {figure}{\numberline {8}{\ignorespaces Coefficient matrix for a 3-D, first-order FDFD equation\relax }}{11}}
\@writefile{toc}{\contentsline {section}{\numberline {5}Domain Decomposition}{11}}
\citation{alonso1999optimal}
\@writefile{toc}{\contentsline {subsection}{\numberline {5.1}Two-domain time harmonic Maxwell's equations}{12}}
\newlabel{eq:multieq}{{24}{12}}
\newlabel{eq:trans}{{25}{12}}
\@writefile{toc}{\contentsline {subsection}{\numberline {5.2}Independent Subdomain Problems \& Steklov-Poincar\'{e} Interface Equation}{13}}
\@writefile{toc}{\contentsline {subsection}{\numberline {5.3}Algorithm nnMaxwell}{14}}
\@writefile{toc}{\contentsline {subsection}{\numberline {5.4}Richardson Scheme}{14}}
\newlabel{ssec:rich}{{5.4}{14}}
\@writefile{toc}{\contentsline {subsubsection}{\numberline {5.4.1}Difficulties with Convergence}{14}}
\citation{alonso1997domain}
\citation{alonso1999optimal}
\@writefile{toc}{\contentsline {section}{\numberline {6}Conclusion}{16}}
\citation{*}
\bibstyle{plain}
\bibdata{team3_final_report}
\bibcite{alonso1997domain}{1}
\@writefile{toc}{\contentsline {section}{\numberline {A}Normalizing Maxwell's Equations}{17}}
\newlabel{eq:curle}{{56}{17}}
\newlabel{eq:curlh}{{57}{17}}
\newlabel{eq:releps}{{59}{17}}
\newlabel{eq:curlh}{{60}{17}}
\newlabel{eq:curlh}{{68}{17}}
\bibcite{alonso1999optimal}{2}
\bibcite{briggs2000multigrid}{3}
\bibcite{haii2}{4}
\bibcite{demir}{5}
\bibcite{discacciati2003analysis}{6}
\bibcite{discacciati2007robin}{7}
\bibcite{haii}{8}
\bibcite{gedney1996anisotropic}{9}
\bibcite{girault2005discontinuous}{10}
\bibcite{glowinski1988domain}{11}
\bibcite{gopalakrishnan2004analysis}{12}
\bibcite{hagness2000computational}{13}
\bibcite{harrington1961time}{14}
\bibcite{hiptmair1998multigrid}{15}
\bibcite{lietal}{16}
\bibcite{lin2009performance}{17}
\bibcite{quarteroni1999domain}{18}
\bibcite{rumpf2012simple}{19}
\bibcite{yee1966numerical}{20}
\@writefile{lof}{\contentsline {figure}{\numberline {9}{\ignorespaces The real parts of $E_y$ and $H_x$ field components computed by three different FDFD formulations. The relative difference is on the order of 3\%. The mesh size is 1/10 of the vacuum wavelength. Relative difference is the ratio of $\ell _2$ norms.\relax }}{20}}
