\relax 
\@writefile{toc}{\contentsline {section}{\numberline {1}Model and Multi-domain Statement}{1}}
\newlabel{eq:hfield}{{1}{1}}
\newlabel{eq:efield}{{2}{1}}
\newlabel{eq:multieq}{{3}{1}}
\newlabel{eq:trans}{{4}{1}}
\@writefile{toc}{\contentsline {section}{\numberline {2}Steklov-Poincar\'{e} Interface Equation}{1}}
\newlabel{eq:trans2}{{6}{2}}
\@writefile{toc}{\contentsline {section}{\numberline {3}A Neumann-Neumann Method}{2}}
\@writefile{toc}{\contentsline {section}{\numberline {4}Neumann-Neumann Convergence Analysis}{3}}
\newlabel{eq:spweak}{{37}{4}}
\newlabel{lem:qv}{{4.1}{4}}
\newlabel{eq:symcoer}{{38}{4}}
\newlabel{eq:holder}{{43}{5}}
\newlabel{eq:normdef}{{44}{5}}
\newlabel{eq:friedrichs}{{48}{5}}
\newlabel{eq:tantrace}{{49}{5}}
